9,3;11,3;15,17;11,6;8,0;7,25;10,0;9,21;5,3;6,2;8,17;13,4;3,6;8,1;23,9;8,8;6,46;12,0;6,9;5,1
11,18;19,16;20,17;7,4;5,4;14,3;7,9;16,13;5,10;3,1;18,11;3,4;6,8;7,5;5,0;4,7;12,12;9,11;4,1;6,13
5,9;20,14;12,13;0,1;2,1;2,12;2,0;12,12;11,4;7,3;21,35;2,6;4,13;13,16;2,19;3,7;17,9;7,4;12,19;13,2
3,1;8,19;2,4;1,3;9,9;37,32;1,2;2,2;0,5;10,4;3,3;3,0;17,10;16,16;4,1;21,20;5,13;20,23;29,18;8,0
4,4;17,4;14,8;5,4;16,23;5,12;10,10;6,9;25,23;7,12;1,4;10,6;3,3;13,12;4,7;9,13;8,0;15,11;12,21;1,20
22,9;25,10;2,7;7,6;2,3;18,6;20,13;15,6;2,3;28,17;4,3;0,3;2,4;15,16;2,1;4,5;2,6;13,14;6,6;17,15
9,13;15,33;8,13;5,0;8,4;3,10;4,0;8,0;13,3;2,19;9,3;7,7;9,3;3,4;10,5;22,9;6,10;7,2;1,3;4,3
3,3;4,7;8,2;4,11;2,0;2,3;20,23;15,18;5,7;4,4;6,13;0,0;3,13;6,0;4,2;9,19;5,1;5,5;21,16;18,18
4,11;6,4;14,16;3,3;29,31;4,9;17,21;2,4;9,16;2,1;4,2;4,8;3,1;3,5;4,4;10,11;17,15;8,9;13,13;9,5
4,3;3,12;4,8;4,4;31,13;4,0;10,13;7,14;6,4;14,6;9,4;2,0;3,5;15,10;10,12;17,4;6,1;27,32;6,4;7,4
23,23;11,7;2,1;1,1;3,24;8,8;7,9;12,15;26,12;14,14;3,3;2,1;7,6;1,5;14,18;1,13;2,12;5,9;7,2;4,6
11,10;1,1;11,9;3,0;5,4;11,12;3,1;20,9;18,20;3,9;13,13;14,17;12,12;3,12;26,11;11,7;3,1;3,0;2,4;16,8
