71,1;80,49;46,17;27,8;51,49;21,48;20,74;39,45;25,3;56,36;56,65;54,139;43,12;36,11;18,13;53,3;63,64;83,18;12,11;47,36;63,96;72,70;22,57;87,181;78,38;57,45;37,55;54,8;23,125;60,30;78,135;21,212;51,1;20,63;55,21;68,43;0,62;67,15;51,22;58,47;56,74;42,18;51,53;30,6;85,32;73,29;14,36;10,65;50,90;51,137;10,70;75,11;31,68;31,49;32,46;63,56;39,71;26,30;30,16;13,31;70,1;4,60;45,50;0,43;32,100;45,20;82,11;28,11;45,15;77,55;40,113;36,31;25,32;16,66;0,13;39,60;88,69;36,14;52,10;50,71;28,73;58,2;27,10;51,55;3,129;12,55;49,12;26,6;48,25;34,8;50,50;88,21;47,30;46,20;62,88;38,1;0,26;83,55;53,73;63,79
11,31;83,60;27,22;26,39;13,29;26,13;74,27;19,8;15,18;24,1;137,194;41,10;74,148;141,64;10,10;124,204;10,17;75,95;15,5;16,25;14,16;46,31;16,0;68,11;16,9;88,102;94,66;11,4;107,59;137,102;17,4;16,16;18,12;105,84;19,19;12,2;23,31;8,72;41,4;89,37;22,56;16,41;18,51;169,172;21,9;10,68;50,64;57,31;94,69;25,32;18,43;47,32;44,73;16,1;122,126;12,7;15,24;67,49;14,1;11,9;155,69;15,11;85,54;16,50;46,29;19,1;87,95;12,14;58,116;27,41;20,61;62,49;69,49;34,1;15,34;96,114;132,147;10,23;49,33;62,22;21,20;54,50;17,39;12,10;83,97;44,44;19,1;27,23;18,17;27,64;62,21;87,37;17,21;105,124;58,11;92,88;15,55;20,0;64,4;14,71
137,126;37,75;130,74;15,7;20,12;9,13;17,32;22,19;17,43;22,41;16,10;18,26;14,15;21,106;12,54;74,35;13,13;40,40;18,42;40,24;26,0;62,40;50,3;18,37;30,21;122,119;13,23;14,21;40,50;19,84;53,45;98,75;151,167;21,40;36,5;128,75;34,13;50,33;18,43;16,36;45,1;18,7;17,20;87,141;84,65;19,8;118,135;51,45;40,79;52,48;44,5;16,33;63,10;19,17;15,14;49,1;137,121;64,87;129,177;12,71;33,141;17,19;15,79;49,31;13,43;67,52;16,33;15,24;92,0;30,41;15,6;16,34;122,146;13,48;38,17;81,101;12,5;16,12;49,57;102,144;159,96;12,23;35,9;38,25;46,33;74,62;34,94;40,37;16,11;35,57;74,94;59,66;16,22;16,59;108,158;24,10;17,19;48,51;16,92;21,18
25,0;131,157;23,75;20,11;20,34;20,4;55,66;33,60;118,105;15,10;64,68;88,55;30,29;36,40;55,45;18,27;17,29;82,79;31,31;90,93;106,51;17,35;40,75;64,61;14,8;17,30;121,117;18,15;72,113;17,2;12,29;42,36;88,114;16,26;73,59;26,86;111,126;20,33;17,29;22,33;46,87;35,31;67,21;17,22;113,54;22,10;55,31;39,24;12,9;21,14;171,171;11,20;15,24;14,0;53,37;24,33;16,47;20,19;31,21;55,23;12,6;18,18;16,15;179,178;34,28;16,25;49,20;69,34;15,105;57,31;80,51;57,31;29,35;54,5;146,60;42,5;19,76;15,30;61,110;53,8;43,72;30,79;19,10;58,34;107,66;32,67;19,7;78,96;13,24;34,44;143,138;146,196;40,13;118,64;17,21;14,35;92,75;66,51;69,6;11,16
43,47;20,19;22,47;20,31;83,84;16,34;39,4;107,55;40,6;39,42;17,24;110,112;21,22;22,23;48,62;111,140;128,102;20,13;15,6;18,42;19,76;16,35;42,75;11,57;45,9;25,14;69,93;22,21;99,79;52,7;19,25;50,70;249,164;22,11;123,127;45,27;41,40;19,0;65,69;39,0;10,13;47,49;16,8;144,91;13,68;19,48;85,71;47,14;13,15;53,32;22,0;119,81;13,71;19,14;22,26;24,39;18,22;12,0;175,111;58,21;33,31;19,26;16,28;21,31;44,36;18,11;44,63;77,64;19,12;16,22;17,8;74,69;50,37;55,74;61,148;41,78;234,183;22,30;61,52;42,74;39,73;19,7;46,74;66,54;29,76;17,36;51,98;21,7;98,87;52,46;64,61;18,18;14,30;82,88;85,60;21,29;18,13;52,66;73,85;10,23
94,91;84,55;54,2;52,23;44,45;23,4;21,63;23,75;15,65;53,69;19,16;30,31;11,7;85,17;141,132;49,10;14,0;55,85;182,124;107,69;33,32;29,25;16,9;17,2;16,74;95,107;20,28;16,33;94,128;83,137;48,17;42,19;18,108;46,62;113,154;25,42;27,30;25,16;43,23;18,13;101,60;29,23;17,12;14,76;16,54;12,10;75,69;17,75;32,42;44,48;41,69;14,64;16,5;53,119;42,16;36,36;180,74;15,11;19,54;60,96;65,12;29,38;128,128;44,44;18,29;70,84;57,74;18,38;126,99;13,27;20,11;41,49;185,198;15,30;73,110;18,14;21,29;100,81;17,19;59,78;25,16;14,13;32,3;20,8;78,38;32,27;60,48;29,22;58,1;28,16;45,32;16,17;25,43;135,67;34,40;62,29;75,100;12,16;19,62;87,39
13,47;14,11;85,92;13,48;32,47;47,68;9,5;11,13;84,74;150,154;34,5;26,24;56,50;11,52;34,0;58,10;88,61;81,39;19,67;255,268;152,52;17,15;12,27;11,1;6,18;33,2;15,15;49,19;165,64;52,67;87,90;77,58;13,16;41,45;113,99;66,74;14,3;49,11;13,14;28,97;98,110;11,34;18,56;42,63;93,79;13,0;39,73;10,35;7,7;76,80;117,124;47,6;34,23;17,13;12,26;56,14;63,80;11,19;190,207;87,95;58,72;14,12;15,5;74,25;33,4;14,23;26,37;38,17;112,129;12,30;30,26;73,96;14,3;14,31;16,13;15,21;21,27;15,15;117,85;14,15;78,76;21,18;27,47;8,15;48,2;14,13;40,47;65,63;31,87;135,78;13,32;101,83;64,82;16,73;48,53;11,60;39,41;113,101;33,3;80,61
111,89;33,57;26,54;31,23;24,27;15,16;17,36;21,19;87,18;10,19;30,14;35,40;17,10;35,59;18,48;19,79;22,79;46,14;60,59;13,21;15,83;98,102;34,17;50,58;81,71;20,22;14,9;77,59;65,142;16,0;20,7;15,1;66,43;92,47;14,14;80,86;44,27;19,1;146,178;39,32;14,26;20,18;15,20;18,2;9,1;16,21;101,89;21,20;116,54;23,0;19,5;159,152;24,22;57,15;26,68;13,72;155,222;21,18;20,12;19,8;34,18;26,20;82,29;16,21;129,134;18,20;95,81;172,176;84,62;21,0;35,0;97,102;18,54;17,7;71,17;16,2;139,63;44,57;20,30;13,33;11,33;13,8;13,41;24,90;48,115;75,46;16,8;142,142;59,42;121,202;53,0;17,4;78,62;83,128;18,4;99,55;69,72;42,101;17,35;101,67
108,91;25,29;16,1;19,4;17,10;104,63;19,0;153,94;19,81;181,121;73,101;67,106;37,50;68,76;14,23;13,14;16,22;60,98;94,57;123,99;12,73;25,20;16,38;79,97;52,24;54,60;110,58;35,81;142,73;18,9;16,21;16,9;21,2;40,23;17,46;26,25;53,39;30,75;18,0;57,43;28,20;17,12;56,28;13,5;79,113;11,5;24,38;19,13;20,52;40,15;15,45;18,10;32,60;19,0;32,17;81,68;58,68;17,4;14,43;14,22;18,23;25,28;13,28;26,65;138,167;17,24;64,48;56,95;19,28;157,106;236,277;18,7;18,24;50,26;48,82;130,92;36,130;139,79;18,42;16,12;69,41;50,51;61,48;163,78;12,35;34,54;88,103;47,11;51,97;15,13;15,69;17,0;53,71;80,49;16,60;17,63;12,1;19,12;61,42;14,98
92,67;15,16;38,0;18,65;18,6;18,61;21,0;60,109;46,36;82,74;62,35;57,12;113,86;17,20;36,47;17,39;14,3;21,18;204,184;22,36;23,31;51,56;13,3;117,115;20,7;35,6;22,50;74,12;103,162;34,39;15,29;57,105;41,64;62,122;18,18;21,14;81,74;32,34;31,47;129,123;63,52;16,16;67,66;24,13;15,15;12,21;59,36;79,27;21,2;64,78;72,63;20,15;15,8;18,62;14,13;22,29;110,129;159,130;141,69;63,62;112,175;45,26;83,67;142,145;159,134;14,17;78,100;19,20;17,40;88,122;13,19;29,41;70,71;27,10;21,0;30,26;87,76;20,11;54,55;40,29;67,22;67,26;14,11;57,137;20,5;119,66;12,1;20,74;28,16;16,4;66,39;55,94;15,12;50,58;58,16;49,47;21,21;25,20;37,41;25,36
23,47;14,27;60,102;21,22;18,18;120,111;12,53;76,15;41,57;19,40;9,46;20,44;63,5;18,22;11,14;13,7;16,20;21,0;20,98;17,12;99,60;204,168;12,22;38,32;41,87;69,117;31,12;80,141;14,1;13,8;13,21;38,54;10,7;46,3;15,6;92,101;49,74;89,132;55,44;66,35;7,36;10,1;14,1;65,69;73,28;29,3;11,42;73,118;38,79;17,65;59,61;20,65;66,23;48,17;105,56;12,20;16,6;33,79;116,131;90,68;21,28;18,0;209,265;59,10;156,138;79,61;32,46;89,42;12,8;50,82;76,81;20,18;53,37;46,87;33,65;93,129;20,1;59,113;13,8;96,72;15,83;39,97;92,85;14,20;43,28;46,64;181,87;38,41;43,50;16,7;141,130;14,24;10,13;40,41;95,143;70,11;87,96;15,21;26,22;14,10
105,99;21,13;19,40;191,76;14,31;17,11;58,44;73,53;34,8;60,92;16,31;104,87;12,64;17,13;37,16;30,39;16,25;72,89;67,2;96,54;86,75;26,8;65,49;115,104;79,32;105,75;73,52;21,29;58,53;19,6;49,9;48,9;21,13;18,9;45,0;20,14;48,10;18,7;76,98;64,86;38,30;20,31;127,76;95,66;77,76;19,2;10,3;81,61;109,100;24,18;49,2;22,20;14,51;66,84;35,85;115,70;82,26;19,0;12,3;140,191;14,1;24,33;17,7;17,71;12,3;9,24;31,4;21,29;21,27;143,144;18,36;37,37;42,46;32,5;17,27;54,4;26,24;51,22;26,3;12,1;15,19;191,196;77,99;45,18;38,28;69,111;13,84;62,3;27,18;146,64;19,82;32,29;16,4;109,66;78,59;14,68;129,89;213,221;18,54;15,11
52,74;51,0;38,28;42,100;54,20;57,70;52,11;51,110;44,53;58,12;75,74;42,47;63,14;22,26;51,31;34,25;46,20;44,84;58,86;69,90;29,59;42,24;94,55;40,0;35,33;51,45;71,30;45,31;36,77;7,12;56,52;9,54;58,5;25,233;7,68;49,35;48,55;68,47;29,10;50,62;50,33;79,10;63,116;62,71;27,31;53,13;37,10;26,32;0,49;47,156;49,65;75,26;16,27;34,48;56,6;56,81;27,73;84,71;22,173;46,19;10,75;48,74;55,13;59,40;44,32;67,6;27,4;85,2;24,26;10,35;33,70;69,19;34,3;47,122;93,11;11,78;46,32;46,84;3,31;61,32;15,79;69,5;43,108;58,115;67,66;0,17;0,103;34,9;103,48;27,93;53,17;9,11;45,17;65,92;28,16;33,8;75,97;45,20;14,47;75,17
43,107;27,6;15,26;118,76;17,3;20,23;25,15;48,1;17,17;103,51;21,4;17,35;16,17;17,17;16,10;19,22;20,8;17,25;51,29;29,37;41,55;73,57;23,26;18,63;87,84;21,39;18,26;116,97;61,86;133,81;30,22;47,3;49,21;14,10;88,120;24,0;12,52;63,56;44,8;19,9;43,3;152,117;76,33;48,94;89,74;17,45;88,73;82,55;21,69;119,61;97,93;125,90;118,116;17,24;35,56;89,128;71,13;15,21;78,94;62,10;17,75;20,71;59,62;70,10;16,43;101,127;44,16;29,62;16,36;17,3;10,9;63,93;62,76;25,13;52,23;21,6;51,52;15,17;21,45;162,131;105,84;31,26;82,50;22,39;31,11;71,78;22,24;37,47;15,18;61,58;20,8;40,13;43,67;50,41;117,106;64,58;13,15;14,46;12,3;46,104
22,46;16,24;91,95;18,21;25,28;27,15;37,59;66,53;47,22;60,55;90,57;13,8;77,51;88,3;18,6;67,68;22,9;11,3;79,90;12,6;56,8;48,84;12,11;15,6;17,55;22,17;58,72;75,53;60,12;66,71;37,65;150,178;16,83;43,11;18,27;13,11;19,19;18,6;67,61;17,12;44,28;62,60;18,23;16,17;60,102;33,46;29,61;84,136;18,1;62,125;15,13;24,41;27,11;11,4;41,11;51,64;32,61;13,17;29,25;110,72;17,3;23,18;76,123;10,40;35,10;15,30;14,51;26,52;18,19;18,37;16,1;19,19;36,64;64,58;70,48;65,68;78,85;38,56;30,43;14,66;68,79;41,50;14,28;167,117;62,46;89,76;227,187;31,29;66,3;12,27;134,96;35,60;76,85;92,69;17,21;15,6;74,77;31,23;106,79;48,13
16,4;14,71;245,182;19,6;22,31;44,51;47,48;77,111;16,20;17,65;34,79;16,5;17,38;201,286;16,43;16,5;19,31;57,39;68,49;121,132;21,4;66,11;81,38;18,28;80,80;56,27;18,17;23,30;14,12;89,159;13,19;129,99;45,28;69,95;70,114;18,86;19,60;60,22;73,115;14,47;109,110;17,29;102,124;49,50;30,43;21,36;15,2;59,46;75,120;15,4;50,30;19,18;16,41;19,17;17,10;9,23;78,86;15,11;14,15;16,108;14,31;49,18;43,35;95,70;92,76;18,19;16,38;36,12;84,82;17,0;15,35;12,11;87,86;102,98;30,25;95,57;43,49;21,23;49,28;7,13;71,22;14,4;16,27;26,90;92,95;16,12;82,123;17,22;15,11;15,29;46,82;75,7;18,3;26,69;80,91;8,63;63,52;20,47;92,67;41,38
19,27;80,61;83,157;83,145;47,19;18,10;44,21;107,96;67,41;65,76;38,40;18,18;61,76;63,66;16,41;13,13;50,60;34,16;18,40;14,2;199,147;15,82;15,32;42,11;21,4;81,68;127,100;18,6;20,23;23,4;137,106;12,36;69,83;44,53;12,13;19,12;26,18;15,33;20,24;21,7;40,79;47,40;84,76;77,64;47,32;16,13;20,0;15,46;13,4;31,9;15,18;18,16;24,42;17,8;18,58;17,16;28,43;25,15;37,26;29,22;166,106;35,5;19,13;63,84;11,36;62,47;56,44;27,50;19,40;15,12;113,133;66,46;130,102;74,100;191,160;20,66;21,1;74,53;46,35;66,69;100,68;73,66;21,29;61,29;19,21;133,67;43,53;53,65;174,175;46,29;58,28;18,92;170,211;57,11;59,71;16,12;21,24;16,5;100,146;66,86
21,2;37,23;19,2;73,60;87,99;68,104;51,74;9,49;23,57;67,87;19,9;13,20;19,25;15,12;153,93;63,43;15,14;21,61;37,48;103,70;97,168;17,22;56,46;18,17;51,23;79,77;15,38;49,21;128,50;20,77;40,44;104,58;17,11;25,40;17,5;59,37;59,55;77,128;139,72;98,71;10,3;14,52;13,12;18,20;22,25;149,82;83,90;47,21;77,69;49,74;87,118;26,37;104,70;34,51;16,5;32,35;29,41;115,64;198,151;18,21;110,134;16,92;90,100;12,0;33,15;56,61;70,9;71,55;18,9;19,36;15,19;135,69;104,113;88,82;14,96;16,24;24,30;32,26;31,2;20,22;29,95;51,51;24,22;19,20;16,45;26,82;22,8;44,48;33,65;135,57;22,22;60,42;59,41;54,56;18,9;64,77;53,47;38,13;24,14;20,33
42,33;67,99;20,3;20,41;46,70;186,97;30,36;94,93;29,9;19,4;19,25;29,15;61,23;25,28;38,68;41,37;20,19;21,26;53,25;46,65;136,64;16,14;16,17;64,89;21,53;21,52;29,42;14,53;13,60;37,8;19,57;21,48;47,62;75,23;19,1;105,99;18,21;97,65;20,12;19,25;13,27;21,1;26,27;12,30;29,58;57,115;23,24;123,60;18,47;20,18;45,47;70,20;135,98;195,47;57,39;105,107;82,77;121,85;66,125;21,20;44,29;35,19;69,28;18,41;51,30;22,33;58,112;60,48;15,21;43,9;101,72;22,89;71,94;85,71;17,32;16,10;15,11;101,93;53,99;124,118;20,13;18,10;18,16;24,4;90,43;119,109;89,87;76,85;75,62;17,78;42,82;67,83;21,19;16,30;20,11;23,31;104,87;27,19;17,19;39,33
17,46;17,8;25,5;24,13;13,9;41,102;17,13;18,8;18,56;20,11;19,25;54,2;65,99;18,9;128,147;18,44;18,6;43,63;67,119;66,88;13,135;15,9;119,149;74,82;100,86;93,58;17,18;92,119;24,56;12,18;34,26;70,53;47,10;12,16;40,32;15,44;16,3;14,9;19,83;143,149;12,12;63,61;18,43;35,15;46,20;12,26;17,17;9,44;26,14;15,13;69,24;47,98;85,78;73,155;87,89;46,31;55,63;19,95;77,83;19,25;40,63;16,42;66,109;20,2;179,231;14,1;117,129;17,36;15,2;93,118;61,29;149,86;48,14;52,47;19,10;74,72;18,48;92,118;105,115;190,62;48,42;65,92;14,0;58,92;43,95;87,111;19,38;74,72;17,4;13,53;121,63;101,95;14,24;19,39;19,42;46,36;44,36;14,32;13,1;14,14
25,5;26,16;44,75;47,42;27,40;35,26;18,1;21,23;20,5;41,12;151,58;40,100;17,3;61,13;72,17;21,4;19,24;19,2;34,24;81,28;15,8;21,25;29,38;61,7;44,44;44,26;81,82;74,6;92,136;64,75;24,30;44,112;24,58;53,66;18,14;201,174;87,110;88,96;23,19;21,30;146,93;256,218;22,17;59,16;19,16;13,10;26,2;37,50;25,48;71,65;23,21;19,31;144,183;15,36;18,45;15,31;120,81;15,7;21,10;22,1;19,39;48,12;31,21;86,74;95,84;20,19;78,66;76,72;29,41;37,0;106,60;136,176;59,56;92,84;18,21;47,50;48,16;17,26;78,63;54,100;80,113;20,7;118,88;124,111;23,2;55,44;33,33;17,38;95,107;32,18;71,133;35,31;124,129;51,12;21,8;63,57;20,25;23,20;83,112;74,70
21,38;61,15;20,43;69,63;31,15;43,11;16,28;23,3;93,81;73,110;18,94;171,142;44,30;33,66;72,70;19,47;26,30;16,31;43,44;46,64;45,24;81,69;21,6;63,119;76,69;18,25;30,14;120,109;15,19;19,17;20,24;47,58;51,24;33,50;41,32;89,96;15,21;106,50;14,15;23,16;75,76;18,6;91,56;23,84;54,70;43,3;68,74;19,46;28,25;100,110;28,80;20,2;17,64;19,41;14,4;20,20;56,81;48,69;16,26;88,86;13,1;106,70;20,27;27,13;24,44;35,42;80,96;20,16;58,25;18,14;22,72;67,104;153,73;43,24;17,8;82,72;57,102;48,27;117,125;68,133;12,16;24,7;18,49;20,49;27,10;58,45;42,6;150,113;51,88;102,113;21,21;48,34;73,21;42,8;24,21;81,75;15,46;189,152;42,22;69,79
59,8;89,69;19,11;20,47;16,20;15,23;22,23;48,45;15,38;99,69;63,8;25,27;98,88;134,143;17,14;90,17;68,64;34,3;68,68;63,89;21,12;68,40;17,34;43,18;15,25;22,7;93,95;18,70;18,17;103,62;40,8;20,5;19,36;34,52;72,48;14,18;41,32;71,89;43,58;18,27;98,133;34,69;89,67;22,3;17,12;76,73;56,72;107,77;23,11;49,29;39,5;21,8;18,16;96,97;82,85;31,9;37,7;85,82;12,3;38,50;42,61;105,150;13,11;85,122;16,8;19,23;35,16;17,4;19,5;19,37;87,71;62,43;34,83;122,86;93,102;32,17;122,121;16,21;18,36;40,19;122,60;83,61;63,25;36,39;17,27;24,44;108,61;194,197;17,21;36,30;23,14;19,55;48,69;45,112;90,101;18,18;21,20;17,81;92,110;17,19
18,47;23,88;20,16;24,19;36,7;14,15;35,30;46,8;81,71;66,107;134,159;49,57;19,50;37,3;24,63;22,6;18,15;61,83;85,69;20,29;84,55;54,74;29,33;17,44;35,44;11,54;56,62;31,56;16,11;18,18;24,1;16,32;18,13;68,59;94,84;39,42;75,19;18,19;60,56;51,66;21,41;14,27;42,80;33,7;64,70;69,105;21,26;126,167;18,27;110,59;90,85;14,8;16,0;24,47;41,1;81,97;18,64;16,1;16,17;91,92;73,22;70,42;15,23;18,43;42,18;80,77;18,46;20,31;13,30;89,77;17,48;20,39;40,99;19,76;100,76;61,91;141,79;128,64;61,20;81,120;59,72;60,91;17,27;18,17;99,80;109,121;56,78;43,29;17,4;23,5;97,54;17,19;37,51;16,31;20,21;152,150;154,109;22,11;24,19;18,9
