36,18;9,109;52,29;89,28;13,11;62,19;30,120;30,36;88,34;0,18;59,7;60,54;58,2;26,38;76,64;39,27;28,58;63,43;53,79;77,88;49,14;53,22;70,3;87,36;8,46;24,24;20,141;23,15;65,60;30,97;46,77;0,22;71,26;60,19;0,138;53,12;45,111;35,10;55,1;55,54;62,20;42,81;52,8;42,63;54,70;26,28;36,168;34,10;60,88;70,32;48,16;31,79;10,65;50,24;2,81;92,74;76,27;48,5;61,83;60,67;27,4;79,10;49,66;42,32;65,6;57,74;64,4;67,18;17,97;40,5;48,84;15,12;114,63;69,135;31,115;33,21;51,50;41,53;61,24;64,37;52,17;51,56;65,125;46,35;51,41;2,93;62,65;34,73;77,32;0,24;68,84;58,49;28,18;41,34;24,178;78,23;48,21;32,12;61,85;47,8
54,4;126,58;17,31;37,64;91,61;60,23;75,100;35,16;13,45;15,23;40,18;13,18;58,28;212,234;38,19;45,22;15,11;36,61;13,17;45,32;34,29;26,54;117,81;15,62;46,90;83,60;21,21;120,99;26,32;12,52;16,9;16,43;33,11;35,27;68,59;21,15;91,69;61,134;50,93;34,31;15,31;159,104;10,1;15,24;54,29;15,10;15,10;127,137;38,35;47,70;146,147;72,49;63,102;14,5;18,54;13,22;143,71;13,18;87,31;13,64;66,45;53,6;34,27;75,24;18,13;47,115;107,107;106,79;83,66;74,112;64,26;17,82;29,2;93,33;12,23;18,4;15,50;11,24;14,54;26,24;38,27;92,112;45,50;59,7;89,69;10,80;94,59;16,23;58,106;14,2;12,12;86,135;32,26;85,74;63,63;11,38;14,41;14,12;28,78;20,38
53,105;15,41;11,6;72,57;87,182;42,104;17,7;69,26;38,37;27,14;14,9;25,10;102,150;19,9;68,59;38,4;18,9;14,5;17,24;71,110;74,73;62,46;20,25;76,47;20,13;15,45;53,5;71,76;47,28;17,16;19,25;22,11;44,6;131,77;23,44;95,67;84,97;44,30;61,62;64,35;11,32;230,297;52,51;16,24;17,31;17,16;92,139;112,103;15,0;19,11;41,56;19,37;16,26;14,6;77,60;149,103;21,67;23,41;55,76;83,18;22,24;20,71;90,124;39,92;28,34;81,83;21,16;79,76;19,31;111,99;69,126;13,3;105,145;40,95;20,5;79,58;99,95;86,45;62,35;18,20;72,63;62,55;170,189;18,35;14,28;63,16;18,87;15,27;12,4;86,90;17,32;91,64;11,19;21,35;45,11;110,77;14,25;20,9;22,38;18,31
21,24;60,61;20,27;23,32;24,13;59,4;21,11;25,74;16,10;26,14;22,53;24,35;76,48;29,9;67,75;55,99;15,39;142,110;45,17;115,58;15,19;181,148;19,16;68,77;115,136;39,7;98,98;54,60;16,1;19,26;32,21;136,134;59,115;111,165;22,11;79,101;50,11;64,29;58,3;166,158;27,8;90,16;30,36;60,31;74,67;73,90;97,51;62,58;42,12;19,17;22,12;16,16;26,32;132,127;18,10;143,154;32,0;89,69;19,25;75,64;67,98;27,39;70,39;145,110;15,51;88,59;18,28;66,96;24,15;17,31;23,5;54,72;18,6;25,15;23,50;23,56;74,33;25,49;135,115;35,21;38,10;118,69;50,17;25,17;79,55;30,64;64,13;19,13;25,43;31,49;17,1;26,4;45,36;35,77;30,3;40,72;16,11;35,79;52,59;23,16
12,7;35,4;67,35;20,19;16,16;21,58;13,16;44,11;42,54;20,12;13,26;30,9;83,54;53,51;20,17;23,22;31,4;27,39;109,122;20,37;73,18;48,6;41,72;17,39;83,111;15,81;21,15;47,85;26,35;20,11;16,20;29,14;36,35;12,9;72,101;21,38;32,7;38,86;101,83;25,53;16,18;55,63;75,48;70,106;89,101;12,11;14,59;120,61;66,68;42,3;48,25;69,14;16,6;43,38;137,107;18,69;95,143;20,15;116,77;14,40;69,56;14,25;83,54;136,187;55,23;170,177;133,123;16,27;23,9;23,25;20,32;124,103;18,39;15,17;18,1;63,57;131,162;32,1;57,98;184,194;34,89;17,55;35,29;35,74;15,2;59,105;18,20;101,60;50,12;88,24;16,45;35,58;23,10;38,18;59,60;14,3;44,34;16,21;19,17;33,17
43,48;21,98;27,15;18,3;26,20;15,21;16,30;106,62;38,1;22,41;72,35;126,91;96,59;19,7;70,72;19,9;18,20;25,1;94,98;161,150;18,72;29,94;42,5;34,9;74,37;40,14;44,79;17,15;161,120;52,35;36,27;89,52;21,19;102,112;87,71;14,9;17,94;54,12;13,38;102,77;18,11;17,74;10,21;25,13;17,21;25,17;16,19;120,180;16,17;12,7;13,3;120,136;45,67;92,75;28,35;34,25;50,16;167,172;14,24;55,90;19,13;16,8;36,64;34,34;17,10;58,93;13,6;13,22;39,53;18,19;32,11;47,20;56,6;57,5;68,41;19,36;49,50;15,49;20,13;101,75;17,23;78,72;34,73;14,14;92,56;55,37;97,88;152,128;109,97;30,62;41,12;17,1;19,5;17,2;20,12;73,78;97,64;22,29;63,28;21,11
15,9;17,9;25,40;35,11;118,136;57,51;23,36;14,62;18,4;30,34;17,6;40,94;16,107;19,41;24,50;14,26;13,14;29,38;75,40;17,40;26,29;40,13;17,26;14,31;27,16;90,127;14,12;14,13;173,241;21,7;38,48;31,23;20,22;63,43;27,51;16,2;71,25;47,2;209,224;36,24;30,2;45,44;85,81;18,26;90,56;65,61;81,6;38,44;28,39;62,100;23,3;152,210;53,29;42,70;13,39;32,10;27,60;17,40;16,12;14,21;16,34;58,79;16,36;26,9;27,24;35,25;20,29;18,17;24,47;9,6;111,98;17,30;51,66;101,101;15,20;12,8;115,95;81,102;18,19;17,41;97,92;32,39;24,34;22,7;60,104;64,74;70,67;54,124;59,94;121,125;35,16;17,21;17,12;19,16;88,57;33,35;56,104;42,11;119,101;58,60
33,25;24,22;15,44;54,127;22,12;73,74;19,21;16,6;63,108;13,42;34,21;145,70;141,89;54,63;67,58;143,64;29,13;15,49;48,41;57,69;65,22;19,62;15,55;12,0;16,54;19,3;12,12;16,29;19,20;16,41;98,58;20,7;135,84;123,87;19,6;78,70;19,28;94,60;21,1;145,134;112,111;13,18;17,33;107,50;19,58;63,8;22,96;15,0;155,179;42,22;18,59;57,29;18,7;21,45;46,30;13,29;22,34;49,54;42,78;160,126;93,60;101,94;28,11;96,93;112,52;49,0;101,90;76,41;21,10;54,2;38,12;52,94;14,37;17,54;17,5;69,63;15,51;33,10;14,6;60,53;15,17;132,90;53,31;74,62;59,77;20,4;66,100;19,17;88,103;17,37;16,56;32,96;23,45;29,24;18,82;23,28;25,13;16,32;15,10;22,20
15,15;25,28;27,9;17,4;40,35;17,3;11,9;71,124;37,16;13,4;10,23;17,49;9,3;11,22;233,229;111,206;18,46;9,11;63,103;16,3;12,44;55,35;75,48;13,10;30,40;67,66;51,53;12,7;10,2;34,31;119,128;20,74;15,8;116,107;16,19;52,55;82,112;48,78;13,12;81,93;104,76;57,11;76,15;17,36;10,9;71,159;13,3;17,10;18,34;54,7;14,29;75,93;10,10;71,4;12,9;14,24;84,46;17,7;20,22;16,25;42,68;82,86;13,28;21,10;15,79;44,58;16,51;57,84;15,21;95,87;11,26;20,1;72,54;128,62;50,67;10,17;19,9;65,74;115,137;58,40;101,97;56,111;14,2;34,5;119,87;68,70;33,40;158,104;148,68;42,33;13,16;11,2;27,19;22,8;65,62;87,22;76,31;78,88;15,65;123,85
60,46;52,59;97,83;15,17;27,12;63,63;92,43;13,9;35,72;38,8;139,119;25,48;25,68;21,23;11,12;118,66;18,30;22,16;136,63;38,5;56,36;17,8;78,71;25,7;17,4;113,84;59,62;93,57;78,84;19,3;19,39;17,51;26,0;47,73;51,0;17,42;10,12;27,84;30,58;16,65;103,175;64,69;71,69;12,60;18,22;123,60;14,1;16,42;12,13;70,134;85,41;15,23;25,59;30,0;18,51;16,9;43,67;14,26;15,28;75,98;16,16;12,11;39,2;21,53;16,54;21,71;104,110;10,18;15,7;71,136;108,114;122,140;33,40;30,120;75,89;90,69;55,31;18,12;88,66;44,8;20,24;75,26;19,42;29,89;149,198;120,124;53,43;59,68;41,62;16,16;111,106;26,15;19,34;17,73;94,118;18,18;30,59;20,4;21,3;43,66
11,9;26,20;45,58;63,6;71,90;14,38;67,91;29,28;72,6;17,49;76,130;13,35;22,41;99,85;17,24;115,152;50,25;82,84;93,171;27,7;12,2;150,68;23,32;16,1;89,69;40,12;172,157;15,48;285,271;85,64;19,4;15,8;44,76;25,53;15,21;17,7;17,19;36,18;58,41;71,35;39,38;36,20;73,149;132,123;18,13;195,226;20,36;46,20;39,15;55,64;156,171;50,6;18,17;57,132;14,22;108,84;22,39;32,21;12,0;21,30;203,198;36,29;14,71;10,5;89,83;33,8;73,20;31,22;29,16;90,76;17,61;67,70;19,23;29,23;19,32;75,76;12,22;17,4;21,7;15,9;17,17;81,84;34,12;15,1;15,18;21,26;23,15;60,63;115,126;62,67;65,30;14,27;78,8;37,33;39,6;12,26;28,35;66,84;22,28;45,2
34,5;16,18;40,34;14,72;22,26;12,6;22,12;13,15;15,33;17,18;16,26;113,81;11,2;37,11;88,74;21,7;205,163;18,16;14,16;16,68;37,66;136,236;43,68;15,51;87,122;17,6;91,63;114,80;100,47;14,57;24,47;122,103;24,23;18,0;62,62;18,3;22,22;61,79;109,82;40,42;17,11;49,111;19,11;19,2;54,31;97,119;13,4;19,23;36,62;17,33;63,102;14,29;57,39;20,40;16,1;169,185;39,41;45,2;17,21;24,14;130,96;18,12;46,45;19,21;27,17;20,15;15,76;37,7;40,77;76,32;50,9;180,100;46,18;75,40;49,2;45,72;82,72;19,25;53,49;90,75;14,3;84,139;27,57;16,48;12,6;42,29;43,5;54,11;83,92;25,34;44,46;34,24;23,53;75,27;98,94;139,184;14,17;53,14;226,228;19,75
0,83;43,9;60,112;49,27;78,10;66,4;0,135;77,10;74,80;39,13;75,63;64,69;48,28;46,15;25,218;24,26;19,83;56,4;52,6;30,48;36,19;99,44;39,2;75,3;3,81;74,58;45,73;15,78;1,62;100,31;49,23;66,71;48,60;61,80;38,53;88,3;2,9;48,38;0,210;39,35;25,15;58,7;60,80;29,10;53,81;33,41;91,0;22,33;49,82;16,61;40,23;66,13;14,70;42,21;26,12;83,3;58,4;90,97;28,40;21,101;106,15;16,18;21,2;89,41;75,86;41,80;61,54;80,23;53,31;40,79;51,17;76,173;79,88;41,87;50,4;75,6;62,28;106,3;71,112;50,66;56,36;37,61;61,2;31,116;44,13;39,3;93,81;24,98;50,87;29,8;31,59;47,87;39,132;25,1;61,57;0,19;61,62;23,30;97,24;43,23
74,67;21,15;16,11;92,89;15,1;16,19;44,23;23,25;18,7;34,46;26,8;14,8;15,17;94,134;62,7;114,59;15,10;75,49;93,104;47,12;15,2;96,49;13,8;21,77;25,25;17,51;16,32;25,37;186,251;21,11;39,24;16,25;82,62;16,5;119,128;17,11;20,7;33,22;142,143;51,29;76,68;57,82;12,0;67,47;24,25;43,55;60,62;21,7;34,4;45,17;18,20;127,111;12,10;20,6;54,60;44,25;81,56;16,0;33,9;102,86;25,12;28,15;21,47;123,164;16,20;203,194;19,29;24,25;19,15;91,37;51,109;100,109;18,19;20,20;154,224;25,25;80,62;15,30;19,24;18,4;17,16;16,15;156,86;22,10;31,36;46,85;33,19;20,26;18,2;19,27;68,68;62,58;18,35;108,163;52,71;116,137;71,53;43,55;20,15;53,78
39,14;171,95;21,25;121,97;24,4;25,24;21,27;22,3;20,8;64,33;16,39;57,65;90,76;93,107;46,74;15,33;67,113;14,4;31,28;104,71;21,32;64,103;117,110;48,63;46,49;111,100;37,2;15,9;16,10;20,13;30,58;20,74;143,215;35,59;56,11;23,9;65,71;68,108;16,25;19,29;60,103;25,31;39,2;118,101;28,37;46,3;45,30;52,55;18,61;92,69;20,20;22,25;122,135;19,29;18,8;18,60;42,89;36,51;39,9;30,29;65,118;20,54;29,4;15,0;77,7;89,74;72,92;17,9;46,59;20,38;18,8;33,4;97,84;77,81;51,48;27,43;19,9;26,47;16,7;115,145;14,3;26,25;35,68;103,44;225,251;32,35;44,61;60,37;16,25;19,10;49,12;18,10;18,6;46,54;36,32;16,45;40,57;12,24;18,3;23,24
14,25;48,139;24,0;19,34;149,188;76,106;16,46;13,23;18,50;41,20;38,8;44,74;12,36;104,49;82,56;60,82;19,4;15,74;73,64;179,240;17,35;19,19;42,50;18,9;20,33;168,148;12,9;15,21;21,14;16,4;74,29;38,40;18,5;68,43;18,49;21,36;27,24;115,93;71,39;19,53;25,13;15,7;32,49;120,70;19,16;19,6;20,51;33,32;80,40;92,103;75,68;90,141;17,23;15,43;13,19;61,1;19,6;51,5;79,69;14,36;15,26;53,23;28,5;37,7;18,85;46,85;82,101;75,72;15,4;24,54;62,75;75,71;25,30;50,53;70,53;26,14;143,189;13,38;88,21;22,13;21,12;18,3;152,149;21,67;16,6;35,16;100,80;18,14;68,6;110,109;53,78;53,84;47,4;119,73;49,38;14,10;21,45;48,66;93,97;21,23
75,88;12,4;21,19;19,40;69,9;18,14;62,27;35,9;16,7;42,84;26,73;13,21;39,38;104,130;22,42;18,39;38,40;22,34;68,70;36,68;106,121;55,46;17,24;21,8;169,143;66,73;101,63;32,13;160,154;38,22;49,87;16,2;12,29;111,143;58,18;13,49;16,21;19,27;81,100;64,59;19,4;18,20;15,2;55,87;72,19;15,64;121,82;45,13;65,99;86,117;15,7;16,17;51,7;23,13;19,39;94,84;20,3;13,55;14,68;13,0;18,2;38,61;118,129;71,89;44,38;38,42;85,87;20,20;17,3;85,91;75,56;28,0;16,4;15,8;21,42;76,41;64,39;37,47;18,1;17,46;69,82;49,65;142,203;86,97;18,1;15,10;20,17;15,28;24,78;64,13;75,54;138,101;77,65;171,197;24,42;37,12;147,81;24,21;10,34;14,13
68,60;13,17;32,40;11,13;58,91;63,58;14,32;16,54;78,93;69,5;26,5;42,40;24,11;14,58;75,60;13,4;19,27;18,22;16,32;12,15;57,15;123,132;77,52;31,41;12,30;16,54;19,81;52,3;79,67;13,35;18,9;73,16;145,125;58,10;18,80;73,12;13,16;112,104;53,38;101,86;173,198;26,19;15,6;20,103;36,68;65,7;52,39;102,150;60,72;19,13;18,7;14,24;21,99;23,13;123,61;105,181;67,62;56,25;37,28;105,63;15,36;98,81;17,16;59,65;34,43;17,18;15,16;16,32;12,15;40,39;21,19;14,78;122,79;68,33;19,3;17,37;18,11;13,3;30,77;120,109;22,12;98,76;120,62;151,88;15,3;18,20;17,16;14,30;34,54;89,75;19,34;84,66;45,59;67,101;36,30;148,53;115,141;14,40;27,0;59,37
20,51;95,80;90,78;28,11;35,59;23,29;32,0;49,45;39,47;16,70;57,71;90,69;63,29;130,56;76,99;50,12;111,109;14,2;186,92;32,3;20,47;41,38;19,1;98,98;21,18;64,6;44,47;89,98;61,62;23,5;21,37;22,66;19,28;23,7;16,13;18,5;143,136;19,23;63,1;20,6;71,30;14,10;16,3;155,161;59,16;45,58;17,13;15,7;17,7;41,22;55,52;61,12;51,42;18,28;24,74;21,28;14,12;82,80;51,12;73,111;21,20;33,27;38,31;31,3;47,2;47,12;12,15;21,0;38,35;22,4;63,62;67,28;58,125;49,89;119,76;23,27;15,44;72,10;91,103;82,109;30,76;17,34;17,54;36,76;45,14;48,61;19,48;18,4;97,98;33,66;80,74;38,41;63,80;16,2;19,11;74,198;52,98;91,34;21,15;45,36
41,33;25,43;59,68;15,2;86,78;20,10;69,98;45,18;76,51;98,57;25,30;22,19;12,56;20,86;46,74;13,47;21,6;31,16;13,60;19,8;125,129;22,61;44,88;17,7;18,31;105,91;19,15;20,31;18,47;83,57;17,14;12,10;17,24;18,25;13,13;86,134;16,20;130,93;21,103;55,3;42,57;16,16;17,40;64,14;93,97;71,77;14,65;27,20;13,22;17,7;17,45;51,83;21,15;57,52;130,100;47,60;86,146;17,4;14,56;73,45;13,20;14,43;41,48;124,77;30,12;49,12;18,18;14,19;56,16;20,35;82,112;12,55;17,9;17,24;79,81;19,14;17,7;85,113;35,59;21,4;50,55;26,37;16,21;14,40;141,153;134,128;63,18;70,1;49,4;15,2;70,1;133,56;50,66;109,73;67,49;16,13;15,7;75,125;80,70;19,37
14,27;32,29;17,42;18,36;49,51;59,9;109,79;16,7;116,89;66,126;91,50;214,251;95,46;36,15;14,16;72,32;31,48;9,1;33,13;22,53;44,59;136,128;75,15;21,16;67,6;74,70;34,26;11,12;15,21;18,37;37,10;96,64;16,15;86,122;15,27;64,78;17,14;30,66;13,3;24,103;32,22;26,39;22,53;16,29;74,55;16,52;164,104;156,149;26,16;19,34;62,51;48,54;64,52;66,35;13,11;16,10;17,6;21,63;17,23;64,68;23,16;23,7;17,22;15,60;36,96;15,42;49,7;35,57;34,69;56,61;14,9;35,34;21,9;24,11;18,77;112,82;35,8;15,16;95,100;13,15;13,6;127,99;20,34;167,150;32,64;17,31;16,39;62,128;103,109;16,57;12,110;52,102;20,32;36,101;144,61;15,5;75,24;20,28;15,23;19,37
59,26;70,24;15,4;82,22;29,14;46,56;10,49;39,18;128,99;113,76;34,30;16,4;56,96;38,48;14,12;57,71;59,50;12,24;91,112;18,33;118,106;20,13;14,71;11,15;40,102;12,68;22,0;19,12;18,5;12,32;17,32;120,182;91,106;70,83;47,35;58,58;13,37;121,125;67,19;97,51;66,70;83,63;62,73;120,69;133,189;15,20;31,54;35,51;75,75;10,52;13,13;52,41;51,40;61,111;15,31;58,23;55,7;79,91;10,32;46,78;40,28;17,1;84,89;97,54;17,7;25,39;13,19;26,30;52,39;68,25;96,93;16,18;51,71;15,10;36,5;21,64;24,38;18,3;69,32;12,13;87,0;33,25;28,19;58,81;88,85;25,3;13,27;94,91;14,50;72,28;30,6;114,188;40,9;85,32;96,164;16,29;17,28;71,6;34,35;21,1
25,2;71,68;38,21;20,66;20,17;34,85;45,5;83,135;53,70;115,116;14,57;78,58;12,0;94,104;13,1;216,199;13,24;28,9;91,103;11,4;63,17;17,14;14,6;65,50;59,48;139,110;15,20;18,45;26,49;68,92;14,24;15,0;18,15;17,1;72,10;35,28;109,95;38,30;18,88;49,76;17,15;14,28;27,24;34,111;95,90;38,11;12,69;46,16;92,54;21,16;44,14;74,70;19,22;70,22;97,106;59,94;52,57;11,5;20,34;13,3;39,41;66,62;19,31;39,129;55,40;33,53;79,74;39,11;35,27;25,29;22,10;63,27;153,88;44,8;102,105;143,158;12,40;14,20;41,6;15,11;25,117;16,51;68,25;14,14;86,82;60,20;66,26;45,54;21,38;41,92;15,32;100,100;68,115;19,56;118,80;17,6;17,42;78,120;63,19;15,15
128,53;17,52;18,24;83,64;15,2;49,20;18,31;15,3;100,103;18,24;77,41;125,92;44,67;40,4;41,41;25,14;105,50;21,9;16,9;73,20;58,68;89,87;25,44;17,41;18,5;165,172;108,124;128,81;17,4;100,101;17,31;76,65;56,1;13,6;41,92;17,16;101,58;160,117;14,6;65,49;19,7;16,18;46,29;34,0;98,121;23,46;16,11;19,53;17,60;123,59;38,52;73,100;154,138;16,4;15,18;16,2;34,65;167,132;15,7;71,42;31,33;93,101;15,17;54,34;70,84;15,12;22,27;12,22;116,136;65,73;33,27;76,109;18,81;12,49;44,57;81,52;60,77;15,21;98,89;15,46;10,7;17,23;33,20;40,39;69,97;18,10;71,104;19,22;16,17;18,7;35,21;18,9;91,95;23,16;17,94;15,24;18,38;15,25;67,88;19,26
