13,33;39,89;56,4;63,65;31,17;21,47;41,68;0,38;44,5;86,38;17,16;67,93;62,10;94,24;58,71;70,65;34,60;68,19;40,60;60,64;76,1;46,9;79,90;19,7;63,80;42,26;49,24;74,21;60,92;75,161;61,9;2,2;58,44;49,104;101,15;46,14;37,73;44,13;31,91;74,209;23,28;50,0;50,76;43,27;54,4;105,85;54,143;65,65;40,36;38,81;54,72;49,2;35,39;47,104;56,22;55,78;56,57;47,45;32,63;0,0;25,1;37,31;0,10;59,34;65,61;64,129;33,96;31,52;13,49;83,3;83,0;16,7;48,60;51,18;0,7;78,20;48,49;48,20;38,63;32,8;45,1;36,91;39,7;30,20;2,29;16,20;29,83;38,61;14,107;76,207;48,57;95,4;32,30;38,17;57,32;6,21;53,15;58,43;33,128;43,8
16,7;17,16;51,107;55,184;86,65;101,60;58,40;13,14;87,89;13,6;29,49;93,50;27,13;21,30;17,9;62,18;94,123;111,146;21,60;19,44;40,32;17,12;15,58;19,15;17,50;78,27;107,74;23,16;20,90;16,19;31,27;18,44;21,22;85,60;54,52;13,10;28,14;19,57;21,91;60,41;15,69;45,17;48,50;147,153;71,58;84,57;36,19;49,18;33,13;94,78;46,9;85,62;43,44;45,31;61,42;23,2;98,86;54,98;16,6;15,60;20,41;22,62;53,36;22,12;85,64;59,64;23,64;82,59;18,14;72,112;108,115;65,69;24,26;75,112;40,33;108,92;66,42;64,108;23,57;11,0;65,91;62,59;19,23;17,13;22,23;19,17;17,6;17,7;57,74;34,26;101,183;81,74;18,27;13,41;54,15;19,40;14,67;136,90;26,43;65,59
73,73;204,179;90,66;12,3;13,14;15,23;90,126;33,1;22,24;15,26;84,47;59,59;124,122;35,0;115,79;14,50;78,57;10,24;64,50;12,13;49,69;16,4;16,1;75,62;22,24;24,46;47,59;20,28;14,16;195,188;20,53;18,6;80,82;127,238;131,124;69,16;51,78;132,55;57,42;17,37;16,8;28,83;19,47;57,58;14,7;30,34;15,11;38,42;42,21;91,95;35,84;17,32;16,9;107,64;19,24;79,95;127,155;116,96;15,38;42,52;99,81;22,3;115,125;17,5;75,85;77,51;32,7;53,55;29,43;15,41;30,10;73,7;37,69;130,106;49,19;13,26;162,93;17,11;16,24;18,3;47,103;15,59;37,45;13,3;14,9;13,34;62,37;58,46;63,31;15,21;33,10;32,33;59,61;14,34;16,66;85,93;23,25;12,51;65,70;53,32
60,3;122,157;26,58;15,24;22,26;40,50;150,135;43,71;50,62;64,0;57,71;18,71;73,54;89,125;42,51;164,104;14,18;83,70;22,26;44,4;154,148;39,11;16,7;23,10;56,28;42,4;18,20;66,78;16,7;39,65;15,4;18,34;115,80;14,13;65,19;14,8;97,107;17,92;24,27;174,77;23,19;172,72;74,81;35,31;70,82;58,96;80,93;70,54;18,84;17,16;61,43;71,124;20,27;21,8;47,22;44,27;15,33;66,95;53,65;15,12;81,55;66,37;49,29;23,8;28,7;58,28;11,1;11,46;20,21;100,63;21,47;12,30;15,23;17,21;43,96;91,56;73,172;54,36;21,1;39,24;18,1;99,53;85,57;18,36;22,30;29,30;29,78;15,41;66,88;93,92;76,99;73,67;13,11;16,0;22,2;14,31;91,43;55,1;65,32;64,44
14,56;35,45;38,31;20,6;47,41;24,41;13,17;52,53;10,7;63,102;96,76;15,10;65,116;44,105;55,100;55,116;38,7;208,223;71,30;13,8;105,88;55,83;184,207;14,38;16,2;16,67;15,19;14,0;49,42;15,16;34,24;90,81;82,80;84,58;103,86;71,120;42,26;19,19;20,22;12,48;21,16;57,89;78,21;18,35;20,26;15,14;85,1;87,107;16,20;29,49;17,39;122,53;20,1;16,75;21,21;140,63;17,13;17,21;21,5;42,37;104,49;42,92;11,5;36,9;23,50;12,58;51,105;14,12;15,18;44,91;61,32;94,85;15,14;93,76;55,60;13,6;171,173;11,26;18,19;13,32;38,2;12,12;22,42;18,17;11,11;70,18;41,33;91,41;42,25;19,18;53,55;9,30;137,71;17,7;105,95;116,119;12,32;30,88;34,7;92,62
50,25;96,86;152,126;16,13;49,41;89,87;20,15;15,23;88,37;83,110;80,95;78,50;16,9;13,5;56,27;20,25;41,63;28,5;118,134;16,32;24,11;40,55;17,12;49,28;35,80;16,31;83,59;140,118;66,79;18,7;22,41;19,33;25,2;13,16;94,55;51,59;81,58;17,17;49,47;17,86;84,90;68,118;66,85;28,20;20,3;42,26;19,74;16,35;35,21;63,35;16,11;102,136;34,13;58,20;188,195;76,87;70,30;50,10;136,136;20,25;25,81;36,12;40,79;201,230;25,36;113,80;79,80;35,40;16,7;89,57;15,5;79,81;62,52;18,41;17,0;98,60;11,1;95,56;13,10;20,30;19,28;21,35;49,44;43,20;15,9;18,44;24,31;19,55;18,57;16,16;20,13;15,0;14,87;15,8;55,46;19,3;33,21;51,67;55,97;22,84
16,28;54,4;49,89;47,15;18,19;90,100;11,32;12,8;124,136;14,6;37,74;74,88;53,3;21,16;79,82;18,21;20,6;12,18;99,63;20,20;67,69;68,41;47,43;99,73;80,92;115,52;86,101;23,20;31,6;43,57;38,32;30,21;21,109;15,20;83,154;88,71;68,91;50,52;81,59;17,28;52,65;41,46;28,58;15,23;17,21;175,192;18,3;77,58;29,2;31,43;70,36;138,169;15,41;15,32;85,88;17,85;32,19;19,50;96,62;64,68;99,128;141,110;14,15;150,121;14,2;25,6;12,3;55,3;29,33;96,90;42,98;16,36;14,25;48,16;17,29;49,74;16,25;85,129;75,63;15,41;20,0;15,48;41,67;17,33;16,0;25,14;50,16;120,47;65,48;113,62;25,35;42,27;49,50;12,31;65,71;20,7;15,7;73,66;12,34;16,19
83,78;24,18;55,13;141,122;21,49;18,21;135,127;13,1;14,60;103,101;18,8;11,28;96,125;13,24;17,4;27,24;72,110;20,20;88,97;59,14;19,25;36,58;12,11;68,125;40,39;22,85;34,40;16,52;29,54;28,14;16,25;17,36;142,144;26,23;102,139;16,51;53,51;43,0;84,89;108,49;76,18;67,36;97,68;35,26;17,27;22,26;142,131;64,69;31,60;17,0;20,7;13,17;55,64;25,9;14,37;17,15;134,111;14,13;17,12;66,18;81,83;19,6;14,5;51,93;13,4;19,60;81,38;69,115;15,26;83,92;121,113;57,2;60,66;73,80;19,0;59,107;24,16;13,11;123,103;81,76;53,59;112,54;71,32;19,24;11,1;53,68;57,59;18,88;17,7;78,138;51,18;55,72;43,42;16,18;18,40;121,149;13,38;104,71;13,2;29,25
93,79;109,84;106,96;58,53;46,14;28,15;15,37;16,29;86,2;68,66;46,8;64,5;45,48;82,0;24,21;68,54;16,14;33,43;69,72;135,175;43,42;86,92;86,40;67,67;57,56;13,31;22,5;16,3;88,89;69,64;29,0;21,23;28,24;13,34;69,34;86,28;94,84;18,22;14,10;108,96;97,118;19,65;60,66;26,22;49,49;55,10;67,75;45,25;63,34;72,106;17,34;80,16;43,15;18,8;23,14;14,28;16,34;17,20;18,53;19,38;31,28;15,23;16,26;54,31;16,23;89,90;38,37;15,21;115,101;209,219;71,39;78,117;10,14;23,46;12,26;14,64;32,36;9,6;23,24;134,119;69,69;67,75;128,87;16,24;18,32;23,48;18,49;40,10;113,92;19,9;16,45;156,142;15,17;18,30;37,8;8,7;15,24;19,42;74,69;94,116
12,31;44,122;64,83;36,69;16,29;11,27;77,22;18,15;13,84;15,19;60,93;28,27;13,20;48,129;18,29;91,69;38,0;11,9;51,99;47,65;19,5;187,179;55,52;12,26;46,57;7,0;34,63;78,50;128,53;7,11;4,14;133,76;15,15;35,39;22,0;151,175;164,144;52,25;14,36;131,191;19,42;44,15;86,78;25,9;30,8;16,35;87,111;17,27;123,77;134,143;144,131;9,67;16,44;21,31;10,8;19,21;12,47;83,79;17,3;68,69;14,7;9,51;50,37;56,76;34,25;14,17;11,38;14,11;77,46;39,9;15,18;10,1;16,0;13,35;40,18;15,16;83,6;77,52;102,112;68,74;60,67;41,46;8,83;32,15;16,15;62,63;16,10;50,78;42,35;56,16;15,13;61,9;18,7;18,11;225,226;58,49;11,13;14,28;35,13;94,27
16,39;18,22;13,4;87,131;23,33;57,8;11,22;89,22;46,36;57,14;49,57;17,29;20,40;43,43;15,53;18,33;34,58;14,9;53,67;19,34;23,41;20,5;74,61;63,42;46,0;16,22;158,83;119,75;64,113;56,50;106,73;36,70;115,112;14,15;22,40;24,31;14,50;21,2;85,94;51,5;18,40;34,40;47,39;58,69;33,28;123,82;19,26;47,56;11,95;20,17;61,102;26,12;20,21;22,3;33,28;16,17;27,37;44,40;149,180;22,41;16,15;81,77;19,9;15,51;85,68;27,19;45,50;88,25;22,17;19,59;17,35;44,62;51,68;19,3;119,87;129,112;29,55;18,38;24,28;141,151;19,1;41,80;87,74;39,53;166,120;45,38;83,27;25,1;36,78;108,107;28,43;70,146;72,54;17,7;19,12;19,22;96,60;61,69;60,76;15,14
108,97;67,34;123,161;55,18;43,9;12,52;66,105;86,85;80,98;32,54;12,4;10,36;78,12;46,12;66,19;48,36;41,60;35,15;9,9;86,65;60,99;116,50;59,132;15,11;14,30;67,55;20,68;88,160;121,64;10,0;14,37;32,43;19,30;48,46;14,14;12,19;11,3;54,89;12,16;13,64;13,9;163,113;91,61;51,28;11,17;15,67;19,29;158,58;51,52;10,10;14,8;30,37;48,12;43,82;16,17;120,66;46,36;72,45;50,16;14,1;19,36;7,17;8,8;14,12;15,50;15,15;13,16;14,8;53,103;78,85;50,20;8,55;11,16;33,3;12,5;99,75;17,53;147,119;93,61;54,57;33,61;10,9;80,51;83,83;112,122;76,45;52,87;14,49;14,22;40,7;191,191;78,29;13,9;43,58;136,174;13,2;91,62;25,21;9,4;12,72
29,92;83,132;117,24;69,21;27,93;56,88;29,40;29,62;62,194;76,21;0,15;73,21;25,82;32,46;32,33;44,59;74,11;39,57;83,161;81,4;37,12;50,54;85,3;78,80;57,2;0,18;47,27;0,25;54,40;62,22;60,157;54,24;58,1;32,13;0,11;77,12;58,5;85,58;62,33;0,18;5,7;0,58;21,53;47,32;0,28;32,73;71,20;34,160;37,14;56,45;58,18;68,21;90,65;77,54;92,0;37,77;46,64;77,1;0,62;14,22;60,5;34,61;98,23;7,79;17,14;52,100;40,35;71,54;0,5;30,3;0,28;33,16;57,47;0,61;95,58;50,85;40,7;48,9;38,35;23,21;44,105;57,175;77,182;80,15;128,100;30,34;27,90;0,36;50,39;57,65;33,59;18,166;77,39;53,27;26,26;45,35;66,65;88,10;85,71;35,20
25,16;17,62;18,4;30,72;36,15;74,27;52,70;88,84;31,38;40,20;109,107;55,47;26,70;16,16;51,32;171,141;48,35;37,23;75,88;16,53;44,23;103,172;61,18;52,2;14,20;20,5;83,117;152,113;77,75;28,68;15,18;58,8;53,7;52,16;42,11;38,34;16,30;17,34;18,2;106,108;100,118;21,43;25,80;22,14;77,48;16,25;22,8;15,85;13,16;53,30;22,29;19,10;122,118;45,29;20,0;23,2;91,148;64,60;59,66;12,1;20,39;21,3;75,74;46,8;13,26;19,4;21,10;34,51;16,29;35,12;17,2;45,39;79,3;26,42;149,59;46,76;29,16;17,55;28,20;109,60;16,9;16,1;44,0;57,33;80,166;80,103;124,74;133,58;22,11;19,113;18,6;121,74;21,23;52,88;15,22;13,10;16,49;81,84;134,57;38,42
12,5;15,10;87,72;124,89;39,20;20,65;18,37;117,75;41,42;23,11;32,40;15,25;15,27;13,15;36,15;16,47;159,128;100,63;35,2;14,11;17,17;61,87;10,44;72,110;15,2;44,114;17,5;27,54;11,63;85,84;14,6;38,15;59,132;34,31;119,156;55,58;125,46;73,94;14,2;43,28;21,24;15,23;47,27;70,89;15,92;125,75;47,44;18,15;16,18;63,50;29,36;13,25;20,52;67,80;99,90;12,35;11,10;18,7;119,141;25,59;9,11;45,111;40,57;71,80;49,11;76,58;16,31;13,36;15,8;44,65;13,37;54,45;18,10;38,35;157,253;67,33;19,10;47,58;110,83;54,75;31,22;17,41;37,70;64,62;12,5;96,56;25,79;19,54;109,94;16,7;99,107;51,70;16,27;16,6;33,25;72,3;10,6;17,19;53,62;20,36
87,51;97,74;33,26;19,56;87,84;211,166;20,23;60,62;22,30;18,65;63,26;18,17;20,55;19,9;35,97;94,99;20,54;76,90;99,112;49,26;21,43;18,14;16,34;27,7;17,24;113,113;23,12;172,120;45,3;133,156;51,1;19,68;11,12;71,55;138,82;67,84;147,196;35,27;26,35;20,9;19,3;19,13;25,12;20,16;17,22;19,15;27,35;46,50;18,7;34,61;36,31;141,86;18,14;81,36;27,110;61,65;47,9;113,82;21,12;86,77;168,116;21,10;79,71;22,56;60,73;18,55;16,6;14,3;14,21;108,72;22,58;25,1;50,69;21,24;19,43;18,13;21,47;20,2;58,124;139,146;19,37;58,55;58,19;160,104;35,41;20,40;27,19;22,99;16,59;20,9;19,2;58,92;21,23;18,3;23,5;21,22;31,34;73,45;41,105;52,30
74,122;20,3;42,70;23,24;20,12;16,42;16,22;32,61;72,61;69,66;30,48;62,65;48,12;118,121;46,7;21,4;15,26;13,36;87,64;13,32;29,4;39,39;41,11;122,113;162,211;40,0;12,1;25,61;15,8;18,3;24,37;21,6;27,11;35,47;28,100;81,15;29,48;46,58;59,17;147,157;59,81;14,6;17,42;13,27;43,25;76,102;62,46;14,7;51,45;109,114;21,33;51,121;13,27;216,163;30,10;56,33;51,13;88,177;143,55;32,10;94,106;53,2;114,82;73,19;18,46;37,20;56,23;21,41;86,13;21,82;17,8;22,7;48,70;18,24;60,14;16,42;19,21;28,18;27,9;41,17;87,27;53,56;19,53;93,137;17,1;126,77;29,2;31,43;58,19;79,91;11,23;48,49;21,18;30,13;35,51;133,184;58,21;31,15;21,32;81,68
11,15;78,108;63,60;75,36;119,201;94,117;17,14;15,25;12,17;34,35;12,45;212,181;134,117;12,18;25,56;14,19;18,20;15,13;12,76;29,6;20,5;86,111;18,42;82,82;17,3;64,90;12,1;46,30;18,1;32,48;83,117;48,81;85,66;58,62;50,45;13,5;14,45;67,12;43,77;12,18;39,28;31,45;42,51;76,12;20,26;66,46;169,151;41,51;149,130;37,72;15,11;11,3;39,29;30,106;40,66;17,2;62,108;94,89;21,63;17,96;64,53;57,94;15,30;40,94;59,2;31,34;44,85;100,68;16,35;46,46;14,20;19,71;16,51;100,90;107,87;30,5;65,69;13,46;44,27;29,28;44,76;16,1;89,41;64,60;20,27;8,54;64,94;95,17;12,10;28,21;17,12;87,67;25,14;13,28;30,2;16,32;111,69;24,29;59,1;10,42
26,1;23,22;16,18;46,70;18,11;69,43;19,14;13,19;71,0;204,161;24,16;24,9;22,44;156,63;18,3;70,28;18,10;80,84;30,24;22,60;64,96;149,149;29,25;63,83;19,21;16,23;113,129;129,88;141,208;131,68;14,11;18,5;64,79;17,2;17,48;22,77;57,64;18,0;48,19;98,59;16,13;47,2;47,34;43,80;21,29;22,3;62,112;116,110;36,16;22,23;47,53;23,11;88,87;39,66;23,10;91,88;21,20;21,10;84,171;21,13;72,102;25,7;104,107;62,29;59,61;19,29;50,38;18,24;17,69;78,90;114,65;104,89;22,7;15,8;17,8;41,21;20,13;23,25;22,46;16,13;20,6;39,21;56,106;21,7;89,73;253,210;101,84;13,79;75,94;70,11;19,27;73,73;24,31;37,7;17,18;22,3;67,120;15,53;20,79;22,11
23,46;21,40;65,9;40,23;16,4;33,45;63,72;25,0;72,70;99,140;17,16;75,95;19,36;42,88;19,24;24,76;95,56;20,0;25,33;64,51;107,114;19,3;16,15;49,60;33,12;188,111;28,39;52,73;15,6;21,11;29,14;15,28;76,93;24,67;42,17;36,58;123,87;24,66;16,36;103,93;35,41;66,99;40,44;15,23;88,72;17,56;18,0;87,59;43,56;20,2;21,12;22,1;15,17;96,51;26,34;82,87;157,61;64,16;132,70;30,40;23,41;21,56;13,36;16,16;19,14;17,5;53,2;89,95;27,30;157,115;26,42;18,8;126,54;35,43;31,65;10,73;29,22;49,1;58,33;22,35;102,70;19,5;94,104;14,6;55,72;18,56;23,14;88,91;47,61;21,28;99,75;87,92;63,64;20,40;74,61;19,17;29,11;19,26;21,40;171,77
35,1;24,10;17,7;91,80;12,0;99,60;18,26;10,14;55,91;88,65;18,17;15,3;17,37;16,14;61,70;29,21;54,53;15,7;17,8;100,89;16,3;29,28;40,48;88,64;95,101;17,75;78,27;61,50;23,13;54,103;27,17;39,16;51,37;26,27;44,39;12,7;14,39;18,2;94,49;90,146;115,120;60,62;15,21;21,25;19,16;19,3;9,9;51,73;20,33;16,34;50,47;61,62;14,14;85,60;125,132;92,94;13,79;131,199;31,83;56,11;105,86;12,5;144,141;60,66;53,112;46,37;40,103;80,85;95,90;81,74;12,6;29,42;18,96;45,48;42,52;13,3;13,31;68,99;85,57;17,31;17,81;18,2;23,1;15,42;56,62;14,21;30,64;9,4;121,94;59,112;91,118;15,17;74,11;37,41;28,7;47,68;14,51;9,5;66,5;53,151
16,22;18,36;18,59;18,47;19,11;19,82;18,20;17,34;52,58;28,7;21,35;56,103;15,11;24,48;91,70;38,14;20,49;129,95;56,24;31,42;116,115;86,73;17,6;107,73;64,34;22,25;20,29;50,88;60,44;64,4;23,28;44,55;30,29;24,35;34,39;25,25;44,16;59,78;40,115;64,22;72,7;41,11;51,34;20,22;166,127;30,75;111,97;19,27;67,40;24,10;55,37;81,69;24,32;22,18;33,16;36,65;56,99;20,16;16,21;79,99;60,1;23,26;41,23;65,21;18,15;22,43;115,82;57,29;53,56;19,77;24,15;24,23;89,84;19,11;25,0;16,1;162,150;42,55;21,75;80,74;15,6;200,261;75,82;28,32;25,11;99,100;87,91;24,22;36,12;33,13;182,181;93,94;15,9;52,26;22,46;89,57;49,29;15,6;110,125;18,27
63,74;252,250;36,7;14,6;21,59;98,89;54,53;16,49;26,59;17,66;15,1;25,27;17,22;71,77;66,106;27,62;42,39;18,0;37,3;69,46;15,15;71,75;35,17;23,69;177,206;31,29;43,70;28,69;21,9;14,82;51,92;54,44;32,52;26,19;85,59;16,2;16,60;14,2;8,14;21,58;70,92;20,9;18,20;14,23;109,72;79,41;11,39;12,1;82,130;57,7;36,6;118,116;41,24;30,72;118,80;112,88;99,95;16,9;39,19;80,88;11,10;48,50;17,14;20,46;54,46;13,4;88,54;64,50;73,33;57,46;12,38;49,0;38,59;14,32;14,66;69,79;35,36;94,24;30,35;10,19;74,87;17,3;72,57;131,167;20,6;48,34;41,40;49,6;28,82;12,15;36,21;43,83;68,125;53,57;226,164;15,40;15,41;74,47;21,66;34,30
16,1;25,0;68,102;21,22;19,10;17,7;101,70;19,17;18,17;14,23;17,18;61,29;47,1;16,33;108,111;16,2;81,75;65,66;57,131;23,5;129,127;94,83;50,75;54,7;17,34;37,25;18,33;77,30;75,95;19,35;69,0;49,57;128,109;11,16;110,69;18,31;218,167;15,15;13,11;21,28;22,22;30,53;19,38;56,22;44,53;60,99;18,5;53,4;14,7;82,76;50,64;159,200;16,11;35,49;160,157;125,124;17,25;126,85;15,12;49,33;22,83;14,17;205,162;78,63;28,12;19,17;18,75;88,133;71,86;50,19;19,53;19,30;81,54;20,12;22,1;23,28;61,68;17,29;76,80;21,22;18,21;59,74;80,100;109,87;72,83;24,38;47,11;41,91;21,2;16,3;14,5;77,1;14,25;21,41;109,187;26,29;18,9;116,85;47,35;19,26
