0,106;46,9;72,122;22,17;61,7;57,71;58,0;42,55;59,98;48,16;67,38;93,45;15,6;75,117;11,17;26,58;46,129;110,63;59,31;10,27;46,17;48,85;40,5;67,44;49,7;58,53;56,15;8,70;0,57;49,22;34,2;99,46;60,17;43,8;40,22;72,4;7,47;37,74;39,14;39,98;16,10;34,50;45,3;77,300;39,7;47,12;46,24;28,44;74,53;26,83;42,22;71,9;58,7;19,145;110,36;43,37;69,210;41,13;15,20;65,37;48,14;47,41;53,9;3,34;37,33;8,117;22,61;206,69;25,39;108,24;60,81;89,15;66,13;48,68;26,104;59,28;42,0;88,51;68,114;44,9;16,53;31,61;45,64;17,5;13,6;21,73;33,9;43,14;34,3;66,49;45,60;37,29;51,91;28,31;50,14;58,19;58,92;95,50;14,60;49,29
23,16;31,36;58,41;17,27;49,104;19,52;31,36;90,151;19,12;91,61;63,116;54,95;73,18;50,32;71,105;58,82;30,12;15,63;37,13;19,10;52,102;80,107;12,60;12,22;89,94;18,23;92,70;38,16;27,4;26,9;71,87;14,3;17,42;19,50;83,73;52,60;26,60;22,52;15,24;119,65;47,59;50,55;122,145;92,35;50,7;12,10;21,18;77,46;29,10;57,52;51,32;17,23;75,101;22,27;15,5;12,1;70,66;21,29;71,15;13,22;67,88;19,23;13,6;66,60;245,159;73,22;18,11;36,13;40,20;33,53;16,23;15,65;19,1;26,0;11,14;23,2;66,98;67,22;16,54;53,0;13,17;17,25;125,197;62,55;12,11;39,42;70,110;70,84;71,110;47,7;16,25;17,8;104,97;12,12;101,87;54,18;38,79;62,44;17,31;22,8
19,5;110,125;20,19;16,19;14,18;37,4;137,135;19,30;21,9;61,81;12,7;31,9;19,68;15,22;18,17;20,10;35,17;16,43;22,44;13,82;44,48;26,3;61,37;17,31;20,32;55,7;100,118;14,20;18,25;17,34;18,17;15,24;12,47;18,12;49,40;101,132;75,8;28,69;83,37;17,0;47,70;13,30;17,28;23,69;13,30;11,24;166,142;45,14;14,33;15,18;108,61;288,224;23,52;50,9;108,56;136,48;141,51;71,79;54,64;15,30;23,11;103,115;48,72;60,95;20,60;105,131;19,12;111,82;13,12;15,66;66,82;66,43;19,33;15,50;40,7;29,10;17,2;97,121;41,82;56,55;32,30;14,18;17,16;49,76;21,6;94,130;43,38;15,37;18,32;17,6;126,153;101,103;74,81;89,92;18,47;22,8;18,32;31,74;61,45;40,21
11,70;57,49;16,23;13,48;33,5;12,5;14,35;9,25;16,47;153,158;13,6;12,24;12,24;32,47;13,8;73,93;147,160;14,19;12,39;11,10;15,30;40,13;30,21;37,36;71,52;63,65;82,90;29,82;47,30;14,6;45,45;54,52;88,69;33,8;114,131;12,0;17,53;128,58;68,62;88,164;70,40;129,165;84,46;55,39;25,57;53,30;14,13;17,89;59,40;66,12;123,203;10,44;10,10;75,57;13,76;22,91;124,141;13,43;38,77;48,27;87,33;86,84;78,35;75,32;14,31;10,35;42,12;46,107;12,38;25,0;40,5;17,40;16,7;28,15;67,70;96,102;10,62;15,44;23,11;13,53;11,26;34,3;90,79;42,14;246,158;15,5;31,11;83,76;107,62;16,43;16,37;92,105;94,76;17,1;106,81;93,107;46,44;16,21;57,78;15,28
15,12;72,60;16,14;51,20;16,31;17,2;36,60;193,62;28,21;69,64;62,53;21,17;61,36;85,28;62,29;15,26;90,55;25,18;18,21;13,2;86,36;18,9;21,30;55,36;19,33;11,36;124,91;19,25;73,86;17,8;17,8;99,66;17,25;34,75;18,35;13,45;87,104;73,121;75,88;25,15;16,0;64,30;15,35;92,49;59,28;33,39;49,16;16,13;18,28;64,105;61,69;130,106;107,75;114,88;48,31;61,68;49,64;109,71;73,25;34,23;65,67;81,47;23,9;139,176;178,174;40,28;19,35;62,55;57,21;15,37;51,74;66,71;124,89;20,30;27,35;23,47;47,43;23,26;38,28;46,63;101,75;68,73;17,25;14,41;15,79;57,51;19,80;27,19;60,71;20,57;41,27;82,121;78,112;20,28;64,20;150,122;23,22;16,14;25,22;14,4
39,17;65,92;53,26;24,15;71,66;84,105;32,36;17,107;28,51;111,153;14,1;92,110;186,172;47,101;48,2;18,20;81,116;75,50;37,40;15,4;79,124;36,78;14,37;80,86;28,63;47,18;19,4;36,3;19,27;18,5;47,1;21,42;70,76;15,19;19,9;36,28;18,27;13,11;11,11;16,2;15,38;59,17;18,17;21,28;138,132;17,34;72,92;16,13;18,17;18,10;46,6;98,69;44,62;33,65;77,33;16,22;99,106;87,70;60,77;22,17;10,12;123,93;44,60;80,42;16,38;41,29;12,36;118,51;15,22;17,2;52,60;19,22;33,93;18,8;49,43;62,46;12,5;131,81;41,61;12,15;24,16;31,14;117,119;10,9;101,150;119,71;84,56;25,51;23,15;58,39;110,102;17,27;29,27;169,122;46,62;64,78;15,15;15,5;12,3;57,3
54,40;48,34;21,10;54,43;16,9;21,22;69,45;20,46;17,18;28,15;72,103;74,32;26,21;30,29;89,143;21,25;15,55;16,29;34,28;18,33;131,139;95,92;16,21;12,16;18,16;120,104;45,66;17,44;127,107;47,67;125,98;37,31;120,73;20,5;36,14;101,70;69,21;16,40;19,35;16,15;13,30;26,61;11,2;107,131;35,65;15,19;40,72;27,9;70,71;56,19;182,152;18,84;69,51;16,76;15,62;13,44;33,44;13,9;20,46;117,103;28,42;54,72;36,50;16,47;80,61;109,123;48,2;86,135;19,49;14,15;45,16;65,33;21,21;118,121;19,12;78,93;14,0;18,33;21,1;16,0;36,25;76,120;33,7;64,52;68,10;37,97;12,26;44,35;23,66;62,81;111,76;16,12;17,21;66,110;16,60;21,14;17,9;20,32;67,69;146,231
43,9;11,1;14,56;17,1;75,96;75,83;67,3;15,28;90,61;93,59;20,8;41,4;83,61;37,7;16,43;13,4;13,3;63,5;14,28;15,8;64,20;86,84;18,1;79,41;126,69;19,93;46,52;54,29;160,163;103,83;126,150;21,7;59,103;12,0;30,22;106,117;55,102;74,23;10,3;168,185;55,50;12,47;29,53;20,47;17,23;15,14;24,27;12,16;12,15;64,117;13,23;69,49;5,0;13,12;15,14;26,14;15,38;19,103;43,10;15,8;21,41;80,109;81,109;59,62;13,12;15,19;97,63;13,19;20,13;21,11;47,59;99,106;40,30;19,9;15,41;130,120;115,136;111,54;57,48;9,7;44,78;88,25;74,65;126,113;53,105;15,7;69,76;49,49;61,14;16,0;16,15;87,95;49,39;67,26;81,69;216,185;19,16;85,52;69,75;13,7
17,5;15,24;17,24;57,96;53,17;116,81;57,87;57,6;81,63;19,26;124,143;27,72;76,120;34,15;28,33;22,24;21,4;18,50;56,43;23,12;85,64;20,2;60,31;18,42;23,72;13,6;16,4;86,81;15,6;18,26;19,57;64,91;22,3;46,65;23,61;13,3;76,47;117,119;59,23;21,3;19,24;79,56;21,11;18,8;80,85;76,25;32,35;163,83;52,22;26,21;68,89;25,63;15,54;67,49;105,76;97,106;27,4;40,25;18,62;71,79;23,42;18,25;111,53;174,182;23,8;39,29;18,49;21,38;21,9;21,35;58,22;18,59;145,53;19,1;15,9;82,91;24,18;25,80;21,0;60,24;73,40;29,32;16,49;14,42;20,28;22,9;83,67;165,126;84,70;64,4;112,84;16,10;46,7;23,35;28,39;15,74;93,94;39,72;41,33;24,18
39,100;39,39;35,26;93,103;15,10;34,6;31,42;58,113;99,118;87,92;59,32;11,20;16,2;101,144;12,3;107,75;55,49;103,78;28,35;12,11;12,58;14,59;17,47;33,18;10,21;129,114;22,57;9,12;37,56;19,40;15,46;107,90;14,42;14,17;10,3;11,77;17,48;15,58;10,29;38,0;95,83;13,10;60,73;88,62;32,3;78,69;24,11;48,112;15,45;44,52;69,77;18,15;15,0;15,20;11,49;98,53;16,7;153,81;31,4;76,75;14,14;14,27;149,154;45,41;151,196;12,4;105,50;41,25;16,33;14,27;12,1;44,8;112,218;59,90;114,83;32,49;63,15;80,102;47,37;15,34;11,4;36,68;166,127;19,19;51,53;13,43;13,29;49,15;15,47;17,69;14,73;14,22;110,164;15,37;44,30;66,81;13,30;15,4;28,6;54,32
18,24;83,1;37,21;87,75;21,58;19,57;56,82;15,2;59,71;75,101;21,5;17,25;128,127;18,7;42,5;15,20;20,3;18,81;15,16;49,12;78,56;38,41;18,33;59,4;40,20;38,25;193,168;22,56;94,56;90,21;17,0;17,8;75,89;77,31;51,37;40,28;13,11;18,23;75,108;20,20;57,10;16,7;75,77;46,38;19,26;85,72;101,85;109,64;86,33;18,3;23,62;46,12;22,30;160,140;93,68;46,67;19,58;20,108;71,74;21,58;48,39;92,19;107,121;22,33;50,41;18,8;15,117;86,63;71,74;54,12;210,188;22,4;22,17;39,21;46,51;173,174;19,17;29,45;20,43;93,99;18,3;17,8;17,49;100,77;17,16;20,15;68,52;22,76;11,44;20,16;15,34;114,122;127,78;56,50;42,4;19,25;24,19;57,7;12,48;21,47
19,24;17,97;68,70;19,50;52,45;141,77;16,20;89,73;14,5;33,24;21,20;47,7;109,69;18,27;94,100;20,5;70,57;68,61;35,47;13,71;57,69;17,22;15,26;13,54;68,24;51,69;13,23;20,3;13,32;95,62;23,0;23,16;14,3;91,128;69,86;119,107;62,61;21,1;12,9;29,51;95,141;80,66;25,7;12,59;19,24;15,7;13,28;35,82;21,9;15,16;56,49;17,51;96,89;137,59;26,11;93,69;12,7;14,3;17,56;50,22;75,45;11,33;14,42;15,4;14,20;274,301;16,17;68,93;123,106;128,93;42,100;66,96;14,17;47,47;54,64;20,13;44,68;15,15;41,64;84,52;16,82;43,68;19,27;15,25;13,11;27,19;14,4;99,79;83,25;75,98;13,19;16,16;69,108;122,89;34,82;52,1;15,13;78,81;22,17;70,12
0,33;75,4;41,12;64,7;76,12;60,120;34,24;39,14;0,54;12,9;79,20;53,107;80,87;78,90;42,31;3,92;71,3;44,24;114,9;47,18;48,15;40,106;66,5;0,12;0,50;57,37;7,25;19,54;18,32;42,129;39,49;73,2;0,71;62,17;22,5;23,89;53,73;59,32;73,22;30,18;0,61;59,34;79,12;68,33;39,29;54,75;35,45;61,58;47,91;39,5;64,14;63,2;86,86;16,298;3,67;76,6;71,16;105,103;50,46;64,30;60,69;14,112;15,12;66,25;61,80;66,7;78,5;40,21;71,13;56,75;57,23;67,19;17,23;40,52;46,126;28,28;23,55;59,17;31,7;57,76;44,0;49,103;68,19;75,11;76,19;20,35;34,87;77,57;83,96;19,12;68,141;79,6;90,2;74,27;16,55;14,80;27,38;63,42;0,6;66,72
12,21;11,7;115,107;45,24;33,32;102,78;15,1;17,20;106,71;36,34;14,2;49,128;116,99;43,58;115,66;12,15;69,109;23,21;15,11;100,54;43,1;53,25;29,74;20,63;50,15;10,29;16,48;16,59;16,42;38,81;40,41;42,91;148,58;33,49;7,76;18,82;14,4;36,46;17,23;97,123;42,11;95,111;94,77;14,65;16,10;19,28;16,14;12,3;62,73;14,42;106,79;27,10;27,17;39,7;18,7;53,72;29,79;16,34;22,19;58,78;19,0;20,63;14,32;35,38;13,6;14,50;64,59;94,114;80,108;13,125;16,13;16,31;13,5;15,28;94,69;25,59;131,133;10,1;10,6;17,66;132,96;52,52;50,40;20,18;15,1;116,142;19,57;50,8;30,41;89,101;10,9;19,38;29,104;59,74;83,69;236,223;12,4;13,44;28,81;132,129
44,14;41,60;18,14;23,9;47,6;76,48;81,92;29,51;159,150;146,141;94,140;22,26;49,75;59,0;17,28;26,15;34,53;28,28;19,28;87,132;35,63;18,14;77,112;47,40;18,48;43,39;110,104;22,14;14,3;26,49;20,28;82,100;50,155;26,69;19,5;23,23;18,55;51,51;35,23;19,11;19,38;102,115;33,6;33,33;162,170;64,45;61,82;21,15;55,88;61,25;19,43;134,144;69,61;50,60;23,14;14,43;44,36;63,60;21,18;24,28;103,69;45,17;45,41;19,12;245,275;104,91;127,125;16,16;96,94;17,22;46,69;22,30;93,60;20,60;23,62;16,0;123,70;16,22;95,74;22,25;16,1;56,23;27,2;22,20;69,77;89,97;19,1;18,34;53,35;21,23;14,14;67,56;28,1;46,80;18,16;19,24;21,43;256,168;67,74;18,13
84,116;64,41;110,149;30,70;20,64;41,73;16,10;25,1;13,18;67,79;37,15;19,19;67,81;110,164;15,2;50,64;82,56;49,41;16,24;18,26;19,48;61,91;65,22;20,47;22,51;22,34;46,43;17,21;101,104;105,107;18,15;47,73;143,154;17,17;87,87;71,9;90,33;11,0;23,33;42,38;209,237;19,24;31,81;25,3;135,74;17,42;64,28;18,17;68,74;72,121;71,76;59,2;17,43;14,16;53,41;21,42;167,116;24,17;19,2;45,20;71,138;32,25;71,74;61,58;105,123;20,10;19,18;23,33;18,24;119,117;22,26;14,13;47,28;79,41;55,29;20,23;173,212;58,22;34,23;13,21;109,175;23,33;34,22;39,11;19,32;83,9;19,36;19,39;84,66;78,48;151,126;141,51;140,70;19,5;18,54;17,5;18,5;68,122;16,7;19,17
47,42;69,103;13,16;61,28;100,109;13,15;67,36;15,36;21,61;48,8;10,0;16,15;18,22;55,57;14,15;12,16;19,30;20,25;100,80;9,0;68,15;50,29;98,114;48,39;33,18;12,19;50,12;18,3;15,1;69,15;22,6;39,26;18,22;63,19;19,32;17,22;22,48;36,31;70,17;58,26;17,2;36,33;92,76;91,49;38,80;24,27;27,64;133,67;13,0;15,3;14,16;15,56;30,7;26,14;199,232;69,40;47,82;16,5;142,141;69,65;12,11;18,50;15,2;236,223;188,213;150,94;15,17;16,25;31,33;36,7;18,23;18,11;12,8;17,14;95,101;98,81;21,17;93,53;34,6;17,19;116,94;65,54;49,80;121,101;105,84;17,79;21,22;106,112;20,30;44,17;155,80;15,106;12,66;44,5;124,125;117,117;16,21;14,49;146,56;95,82
149,115;101,61;19,20;68,94;40,23;44,28;25,27;20,29;26,34;80,151;95,136;63,29;47,6;100,63;18,55;63,19;77,65;47,40;55,61;115,71;38,77;55,24;15,32;17,5;22,5;21,6;20,7;16,1;51,45;100,116;22,6;18,3;60,20;71,111;17,25;21,50;18,9;36,42;34,66;36,91;22,27;45,17;56,82;97,136;40,9;30,31;38,35;74,88;72,15;85,62;114,116;21,32;25,54;39,2;21,15;33,55;82,84;41,16;44,54;116,74;51,39;59,44;89,86;13,10;44,32;86,79;17,27;30,17;23,20;17,2;17,19;19,24;23,11;81,82;27,54;77,108;56,5;121,179;25,102;66,4;17,41;82,99;23,3;57,60;33,36;65,16;14,1;29,22;22,24;27,62;14,85;70,120;23,45;19,53;21,25;54,43;19,18;59,51;17,115;34,53
90,156;24,64;61,55;14,19;20,56;14,39;70,86;26,24;18,15;12,8;17,13;123,112;20,69;16,9;46,65;19,52;47,41;18,24;54,63;54,77;17,7;19,17;15,36;104,110;13,45;137,46;17,48;11,26;75,84;12,7;51,32;12,38;20,16;19,2;100,65;87,97;40,7;19,3;18,5;16,20;42,24;20,32;54,41;42,33;145,168;66,69;85,12;63,125;42,86;12,32;21,0;69,77;34,16;19,77;55,6;151,151;70,98;29,45;19,30;35,116;13,20;20,26;58,16;19,25;87,36;38,89;19,5;17,37;19,5;88,132;42,3;83,68;36,76;41,1;17,17;85,8;13,27;146,60;60,68;13,76;28,7;87,58;86,70;53,61;38,4;36,97;14,12;18,17;115,135;20,31;45,55;17,9;41,39;196,194;37,20;101,137;181,74;22,18;84,58;17,22
18,5;16,11;21,29;83,49;13,19;77,71;133,139;20,6;87,11;19,18;14,1;97,57;40,55;21,69;95,73;13,22;32,42;24,33;42,5;18,1;16,25;147,153;133,84;118,121;19,2;20,63;41,40;64,65;39,27;67,74;102,102;25,14;157,188;54,23;44,38;20,13;27,67;20,69;133,115;19,7;41,48;72,14;17,14;18,33;96,108;20,1;93,97;18,28;27,56;122,99;16,42;18,7;84,87;18,34;87,114;14,1;21,3;16,1;49,28;95,74;15,1;63,10;71,99;22,14;80,86;14,49;21,19;91,21;55,34;62,37;116,67;28,13;42,70;45,69;60,15;116,183;97,77;13,62;89,82;61,45;16,10;55,64;13,4;27,35;22,74;123,75;55,24;21,26;35,42;21,6;20,8;14,0;20,44;18,8;20,15;16,3;16,98;14,16;53,37;79,65
18,3;62,62;58,36;70,98;68,70;69,73;27,45;10,9;21,87;76,76;13,22;107,125;12,7;28,23;44,74;77,45;35,38;55,13;95,58;55,88;16,32;18,10;17,24;58,61;102,91;25,70;63,79;88,97;80,90;22,4;27,2;19,13;62,51;85,126;81,93;16,29;85,113;22,39;94,133;57,51;20,46;18,56;20,49;21,7;13,37;98,93;21,3;75,31;12,3;24,56;58,26;22,11;127,64;13,15;88,98;63,32;56,11;128,93;24,24;14,51;14,31;23,0;25,56;148,146;155,190;110,108;30,37;35,106;47,47;19,24;58,125;18,45;22,3;17,42;18,49;41,22;22,54;11,42;95,60;41,24;18,7;19,11;79,129;43,31;18,8;50,68;17,30;24,13;70,30;69,60;14,19;20,38;18,1;92,107;25,42;40,53;45,76;13,29;15,21;12,10
143,41;16,3;13,15;63,7;87,45;16,33;68,14;16,23;13,20;55,4;104,86;43,63;14,9;151,80;194,210;20,0;13,1;13,29;15,1;60,48;16,11;12,59;87,96;79,58;79,107;96,92;15,25;70,23;41,18;118,107;13,31;12,5;70,69;15,13;10,47;18,6;77,74;24,8;27,18;17,47;16,13;23,61;10,5;141,87;15,11;59,80;62,143;44,20;64,71;182,133;53,60;21,54;20,7;16,27;20,34;11,48;21,48;15,80;13,5;53,60;15,0;46,74;111,87;114,126;61,26;28,20;116,103;7,8;15,22;118,114;11,26;60,1;13,19;88,57;89,104;56,72;35,12;70,47;33,16;12,28;72,49;77,109;14,10;15,4;33,20;50,9;48,23;133,87;15,58;78,114;57,30;16,16;122,121;11,5;17,19;92,25;17,18;124,118;60,75;39,32
21,138;9,1;74,44;71,67;129,137;79,24;12,59;14,16;67,47;18,63;26,4;12,23;35,11;13,86;19,13;142,142;67,56;31,6;71,134;17,5;24,9;18,24;21,13;34,26;19,26;66,68;112,74;10,44;28,75;33,42;14,74;67,5;81,90;152,105;14,16;44,44;15,14;14,18;11,38;68,63;190,195;15,7;16,9;16,76;61,62;15,20;24,34;16,16;30,14;10,46;14,7;91,63;79,87;16,5;16,5;152,148;16,7;22,23;132,123;118,77;12,2;119,74;59,67;80,98;96,112;33,52;11,4;37,9;39,2;48,32;19,4;48,100;46,49;77,110;118,111;16,18;48,108;16,19;53,69;14,2;13,9;50,45;18,24;42,97;34,1;12,2;97,98;86,98;15,6;49,35;16,67;65,60;67,19;13,44;13,11;45,62;39,19;18,14;40,74;55,60
164,144;23,15;44,3;113,129;20,11;62,99;17,2;14,19;51,49;10,11;23,47;107,54;37,11;113,63;29,24;18,60;72,103;9,46;89,85;14,17;156,77;15,23;21,61;47,6;157,103;11,23;19,31;92,102;80,30;14,59;53,39;12,71;60,22;36,42;15,0;13,24;137,65;17,29;18,8;81,45;13,1;79,59;13,8;105,86;67,25;15,9;28,15;67,90;10,4;139,145;19,26;15,30;59,141;14,26;146,151;115,80;47,49;64,55;17,3;14,40;15,21;75,86;78,92;93,76;16,17;81,4;59,78;140,77;14,57;16,54;23,36;6,4;17,7;50,82;68,29;16,8;20,15;14,41;16,10;19,55;51,114;84,73;60,1;131,109;13,17;11,86;20,72;49,76;14,5;31,27;18,12;42,50;14,17;17,11;14,0;82,82;17,13;52,17;108,65;62,17
