126,35;137,81;0,92;35,21;35,9;53,56;94,31;59,0;126,5;162,116;68,66;101,8;86,63;89,25;140,86;94,58;35,44;116,118;29,104;105,26;162,73;96,76;139,14;61,29;0,50;96,103;111,16;68,58;87,97;177,21;0,83;86,25;62,36;144,9;85,7;82,100;129,77;102,2;32,636;25,2;73,25;79,84;86,59;115,53;58,36;102,53;71,0;138,17;32,18;111,74;120,0;97,63;89,37;104,1;83,67;109,1;134,38;120,55;3,42;52,67;61,54;64,19;0,83;56,1;48,0;114,48;62,0;60,6;80,55;140,92;0,83;88,43;72,17;0,55;69,77;75,87;113,25;49,27;83,3;55,9;73,79;79,77;50,28;56,45;119,88;102,10;0,26;69,52;83,9;51,5;101,12;0,13;85,25;139,68;147,17;83,72;128,47;0,26;12,73;124,56
24,11;19,27;95,54;14,36;27,25;16,16;94,86;45,12;40,71;26,18;90,105;74,78;17,25;39,68;23,12;39,28;13,21;36,22;108,50;58,1;22,28;67,34;36,15;75,71;28,51;54,106;56,21;14,39;95,67;17,76;21,84;95,110;132,67;24,10;67,131;20,27;68,36;19,7;22,15;16,51;30,4;29,15;15,10;22,16;48,13;63,90;21,2;61,66;29,45;80,106;24,15;25,40;54,33;23,80;28,39;45,1;70,20;21,13;63,55;76,67;25,2;95,50;53,85;23,4;25,2;56,52;17,3;20,22;19,60;106,63;20,7;33,29;54,29;15,27;21,72;93,66;82,102;86,61;66,61;25,18;31,58;77,68;25,43;85,58;80,113;86,88;71,52;23,57;72,96;28,16;30,35;56,135;19,28;19,13;164,155;84,91;114,104;96,128;26,47;168,191
23,29;24,23;20,3;80,35;48,18;53,0;100,69;23,44;131,99;137,121;20,10;51,34;39,82;22,53;34,5;19,20;76,27;81,78;39,52;18,82;50,4;28,24;21,31;14,8;18,23;18,26;66,85;52,30;68,67;59,44;48,45;21,22;20,75;26,59;67,72;21,29;29,22;23,3;68,66;112,123;96,116;78,108;21,22;118,114;22,20;56,45;25,33;16,4;115,134;28,18;21,29;82,67;35,53;122,116;11,13;19,15;19,54;31,62;26,8;27,10;23,50;13,25;103,53;48,61;15,5;89,59;155,59;93,103;17,15;146,161;18,47;18,37;64,74;20,7;60,84;14,22;13,6;18,40;64,51;64,37;46,55;57,15;25,26;18,0;25,9;22,88;39,86;45,8;22,7;31,16;177,112;134,107;30,43;16,25;68,130;40,15;21,25;114,59;77,63;36,45
53,47;77,70;27,97;18,12;59,69;14,41;16,68;14,3;14,23;52,13;13,24;38,12;50,32;48,13;38,32;97,61;14,75;16,33;118,95;19,0;28,8;56,15;51,7;13,26;40,0;37,24;38,10;17,23;66,62;45,15;58,70;17,15;15,64;33,27;56,20;17,29;38,30;16,0;19,38;24,22;79,52;37,57;45,61;16,23;24,54;56,104;84,35;36,40;14,9;110,111;13,5;138,62;109,77;15,32;36,13;19,66;152,95;44,36;102,113;56,98;20,52;158,212;78,55;36,21;156,151;14,61;14,68;26,30;26,9;15,17;19,15;20,1;20,36;103,115;37,22;105,142;17,15;47,25;109,62;19,4;20,23;74,72;44,26;12,31;38,26;48,34;93,88;13,26;33,56;14,11;24,83;17,43;73,28;80,69;115,97;162,179;95,86;20,44;18,2;17,25
92,68;39,52;52,13;47,50;19,38;24,50;40,9;13,27;57,109;30,75;9,13;127,186;18,12;38,66;119,89;14,4;107,92;16,8;19,99;51,41;73,143;82,145;11,11;28,1;16,4;34,41;49,57;28,36;52,77;9,39;14,13;11,16;40,23;28,71;72,113;12,8;27,31;17,59;45,87;44,42;114,116;60,45;37,9;112,95;18,19;17,9;12,53;57,40;13,9;12,17;16,12;38,113;15,4;18,16;21,44;137,98;53,125;77,97;46,62;82,91;168,139;66,55;14,78;63,51;12,12;15,11;131,65;172,72;15,39;35,59;33,4;11,2;40,25;72,16;11,10;138,124;41,40;13,38;14,36;150,203;70,40;44,102;82,97;19,42;74,81;64,31;9,1;11,9;50,15;16,16;15,14;45,37;15,10;17,28;70,100;33,12;16,6;43,60;88,117;57,30
21,60;53,64;50,104;99,82;70,45;147,78;16,25;83,42;16,10;16,7;33,8;16,27;18,50;80,35;20,92;172,147;59,25;58,58;20,5;60,66;158,97;58,17;123,67;46,21;17,80;62,30;13,71;28,4;37,46;67,47;18,17;75,21;95,122;43,54;12,9;119,101;104,139;53,27;21,22;80,8;60,53;13,11;197,158;32,42;15,34;60,7;34,29;17,18;21,13;19,3;13,3;21,12;81,125;38,33;22,12;16,10;36,19;120,81;16,8;45,43;11,40;67,10;42,51;18,38;29,7;20,21;87,148;22,119;21,1;15,31;14,38;16,18;18,15;124,159;61,31;121,52;68,53;16,8;16,51;72,48;16,49;54,40;16,23;13,9;55,0;104,60;108,96;58,87;141,65;78,76;13,5;50,4;33,32;16,9;72,56;17,20;43,58;67,10;51,37;44,2
100,79;120,78;84,76;12,22;11,29;21,75;25,3;15,58;70,55;15,41;15,15;11,4;14,15;16,56;16,16;11,77;15,24;65,14;15,31;34,25;142,150;47,59;11,105;30,14;19,17;32,46;9,0;128,55;24,18;14,5;108,112;137,109;169,107;65,56;127,94;16,34;107,72;11,30;8,13;21,71;116,60;47,32;46,100;13,12;141,114;49,62;18,11;14,35;66,57;85,60;19,0;18,46;19,18;14,6;14,8;73,74;19,10;13,52;16,64;14,4;113,59;59,119;39,21;82,94;32,29;43,2;17,19;108,102;58,68;125,63;29,34;10,16;16,2;71,0;13,12;72,139;15,37;14,13;59,43;12,31;18,15;16,31;93,66;56,35;39,58;14,88;10,49;21,24;16,94;75,89;93,81;15,58;19,25;14,18;26,28;10,28;53,15;39,103;38,8;45,87
24,31;16,58;61,25;20,46;19,8;37,45;64,64;75,64;17,24;26,21;21,2;34,8;19,22;19,19;34,19;77,115;185,209;56,107;108,84;20,37;78,77;14,34;19,24;56,94;31,8;83,86;21,11;27,138;14,22;16,16;39,21;57,77;74,109;69,38;52,58;20,32;43,103;20,10;21,8;188,192;98,154;83,54;23,35;122,128;20,12;54,69;69,91;100,76;12,12;61,114;17,13;14,48;17,5;112,50;60,67;30,39;46,17;21,31;17,8;65,64;17,8;42,35;57,38;15,13;28,71;73,64;18,68;22,5;88,10;19,52;79,32;21,38;31,2;41,114;23,58;88,76;12,14;125,100;18,14;106,108;49,53;42,38;86,91;30,24;23,25;18,23;11,13;114,54;20,58;62,18;41,21;23,21;23,78;77,109;17,1;60,3;46,5;49,9;38,70;21,7
69,27;117,85;95,115;14,27;119,120;50,36;58,64;107,72;81,82;58,63;19,58;32,48;15,7;15,17;26,36;71,71;20,9;142,138;19,41;10,23;24,25;22,41;27,35;34,59;41,27;77,63;28,38;26,14;19,17;86,114;17,18;15,14;55,34;46,67;27,26;31,2;15,11;22,5;43,56;55,51;169,208;93,140;19,4;116,83;23,28;60,27;18,2;17,46;59,22;107,60;17,51;16,11;78,66;90,129;33,38;20,23;33,45;40,24;120,72;13,4;114,172;79,95;72,92;40,21;20,30;10,67;17,9;61,3;20,68;22,17;143,137;38,41;105,145;23,33;55,24;17,22;104,60;13,14;69,53;26,3;18,0;20,5;17,11;37,27;149,206;20,23;22,24;20,31;31,34;23,14;31,21;90,73;96,81;16,6;14,3;56,138;90,82;14,52;18,14;76,86
124,71;30,67;64,26;15,1;136,155;22,4;17,20;42,55;22,26;19,16;21,25;17,0;14,25;16,27;32,4;20,13;108,74;16,8;18,19;101,74;45,80;53,9;73,39;74,44;56,55;14,31;56,30;44,57;18,15;14,36;18,34;84,67;87,89;89,99;20,33;251,192;55,54;20,40;14,2;17,43;12,19;114,121;60,27;35,27;14,37;108,134;45,26;48,7;68,110;101,51;78,27;17,4;86,102;18,48;24,20;76,102;22,38;14,41;23,9;74,82;13,28;107,76;22,11;18,18;17,9;19,20;116,68;86,62;14,12;31,20;51,75;159,58;63,65;32,38;39,57;45,23;100,48;154,168;84,131;18,30;37,41;19,18;27,66;16,36;14,5;26,13;18,28;50,49;96,76;22,6;15,7;17,6;49,16;52,32;87,92;112,61;15,75;49,18;57,44;17,1
61,116;85,31;15,54;21,1;18,5;135,111;80,126;18,49;91,53;112,75;15,20;16,54;34,13;12,2;15,0;127,114;134,123;16,16;17,2;21,14;55,23;50,73;41,48;16,41;75,115;27,39;37,20;15,7;13,16;48,44;16,14;32,111;17,20;18,1;26,26;20,90;119,82;44,30;117,86;19,3;17,10;17,15;18,30;41,83;18,14;31,15;17,17;18,35;29,10;18,96;71,79;120,91;93,61;17,11;65,23;72,1;25,38;20,13;165,162;19,39;102,117;16,19;43,2;191,198;42,39;63,67;67,123;16,135;45,85;50,90;74,79;14,114;15,32;17,9;53,36;55,68;19,115;48,43;19,6;78,82;48,52;46,48;17,21;22,14;17,19;13,9;15,18;16,72;18,0;48,137;64,70;47,86;42,95;21,0;19,63;49,64;42,66;69,89;105,95;14,19
43,57;92,112;24,36;35,3;68,44;54,64;14,6;63,5;26,54;16,44;56,42;49,43;62,2;17,21;71,102;23,19;64,99;66,85;80,72;19,7;28,53;19,0;30,44;19,13;176,62;68,60;53,90;23,4;37,30;16,4;80,39;24,6;118,50;96,110;20,37;83,74;65,61;31,13;36,23;29,24;20,8;34,1;33,3;21,29;24,33;15,39;17,19;18,12;81,97;81,54;58,70;88,74;33,40;15,31;46,48;13,31;135,146;111,77;77,71;59,36;45,33;19,15;22,32;24,14;18,18;21,4;21,11;15,13;14,13;82,47;68,68;133,54;17,30;137,86;52,20;97,127;141,65;167,140;21,3;134,87;34,7;20,42;15,13;20,11;16,22;18,34;187,140;114,98;110,144;22,0;42,53;62,41;64,50;91,119;15,2;20,55;21,27;19,12;77,86;20,4
44,41;58,34;31,26;56,158;59,61;4,75;56,36;45,111;24,41;0,22;66,14;69,25;31,102;30,14;34,3;63,14;60,131;0,29;55,1;36,106;50,5;40,105;62,9;56,3;53,141;21,3;20,21;52,58;34,0;52,25;71,34;38,20;70,63;0,68;50,10;38,32;47,53;7,83;11,115;48,17;0,8;41,84;67,30;45,7;21,10;32,20;52,33;29,60;55,25;43,103;63,35;38,108;26,193;63,12;62,30;52,86;66,41;39,51;35,64;83,65;42,4;68,33;24,135;71,76;65,0;21,27;6,103;53,6;50,83;0,85;21,16;54,113;23,61;58,87;26,24;50,107;17,99;46,59;35,67;47,80;27,48;41,30;90,3;74,33;168,12;54,6;39,58;64,36;93,12;89,30;31,80;54,39;53,51;27,33;57,25;38,13;5,48;56,6;50,39;33,92
63,1;113,90;68,24;90,81;10,5;18,29;65,40;98,80;12,8;23,5;20,68;99,101;29,11;97,93;19,31;26,21;58,9;14,21;18,81;30,50;31,63;69,58;21,32;19,42;22,16;23,32;17,63;52,54;20,3;14,55;48,98;117,101;13,6;66,88;100,60;40,28;39,82;38,20;17,13;109,110;67,84;65,61;66,100;47,8;19,6;32,36;80,79;17,30;20,34;19,26;20,6;92,108;156,79;51,103;23,4;23,25;20,25;11,20;50,46;174,161;45,73;15,25;18,58;24,7;14,67;64,36;47,4;19,26;50,94;62,75;17,46;47,60;110,109;16,20;137,197;160,132;21,8;16,3;17,78;95,6;17,1;32,22;15,28;94,75;72,22;67,61;13,0;20,30;19,17;70,2;19,2;163,96;124,60;33,34;24,33;135,65;15,15;28,58;19,7;63,0
17,98;56,49;42,12;16,15;17,18;159,140;17,69;37,63;92,52;18,29;126,118;53,37;29,66;20,25;20,4;13,24;150,210;30,31;21,27;33,36;13,24;15,5;66,98;20,28;162,88;185,197;74,12;23,4;21,105;68,81;25,25;18,14;19,94;145,85;15,7;24,16;18,18;18,24;52,92;52,61;17,7;46,2;14,9;158,196;16,24;40,50;101,89;17,19;83,11;18,8;15,18;20,0;48,72;18,11;17,40;18,20;38,84;93,12;68,105;13,6;56,39;75,27;132,83;13,5;196,172;87,128;7,29;17,13;70,54;37,34;100,94;50,57;23,26;13,1;22,16;23,31;23,24;44,48;41,4;68,116;13,32;52,53;12,12;17,24;17,57;90,128;69,83;22,3;13,16;40,71;68,67;13,27;14,45;57,31;91,73;42,96;30,16;17,18;18,38;17,50
31,19;43,71;19,89;45,32;50,21;90,78;36,25;62,1;58,73;22,10;16,5;49,59;52,60;19,4;57,46;13,19;18,1;52,63;62,31;40,2;44,27;31,53;14,12;13,20;78,68;20,3;19,61;38,31;135,63;18,9;17,21;94,106;67,45;20,15;96,117;19,48;15,0;11,6;73,10;18,35;42,58;30,29;17,11;35,29;54,68;111,138;18,49;45,3;38,97;18,13;16,28;54,74;142,173;42,30;36,11;27,15;12,24;161,166;58,32;91,84;226,193;15,9;33,4;46,94;67,1;98,49;103,159;24,25;51,59;18,4;32,15;44,83;16,18;160,180;17,3;42,51;37,42;109,103;102,57;20,42;39,86;127,94;18,7;63,71;19,38;29,34;19,22;74,13;116,81;18,67;34,9;14,31;66,67;41,20;101,110;67,90;20,37;42,27;20,18;17,26
39,30;326,283;34,7;75,77;74,105;16,6;12,10;15,60;47,78;11,6;230,197;15,23;48,58;27,31;14,70;16,12;18,26;23,23;21,34;35,41;24,16;54,6;70,20;40,1;16,102;35,22;193,179;13,15;104,69;51,55;55,45;113,63;30,24;89,70;103,90;23,16;49,21;21,53;45,118;21,16;37,0;95,65;11,24;13,6;90,9;17,13;116,93;14,35;55,58;16,9;29,13;115,89;108,118;20,21;87,96;44,1;17,18;17,29;43,22;14,58;15,61;74,124;126,158;17,10;19,102;43,104;13,26;14,12;36,4;17,17;43,25;15,24;55,2;15,4;108,117;32,57;66,70;37,33;23,64;16,7;56,31;43,50;11,24;50,55;13,6;86,72;19,1;15,61;14,0;17,5;21,33;34,29;18,25;125,176;88,18;74,11;14,8;15,21;20,26;10,18
62,36;14,69;16,38;15,16;124,116;14,36;27,45;47,53;20,8;13,2;73,62;71,41;12,3;22,25;121,72;75,95;107,85;63,29;76,32;30,37;18,30;18,67;41,75;20,61;14,15;71,69;73,70;22,25;64,163;13,0;36,33;16,71;22,20;19,55;77,120;48,0;17,20;61,6;17,2;18,18;16,7;47,94;21,45;101,109;139,167;17,19;90,112;20,38;20,25;18,2;163,164;15,14;81,50;60,59;16,10;156,155;20,16;62,68;17,18;92,78;59,37;19,11;96,84;14,7;27,9;96,41;24,2;110,120;17,4;18,33;18,53;27,8;34,88;18,16;172,107;24,3;87,40;106,62;33,111;66,93;28,2;17,57;54,3;45,49;52,33;25,47;27,36;17,24;83,124;101,90;32,61;19,54;19,57;34,13;11,80;21,26;34,34;15,22;69,26;20,22
57,93;13,15;15,13;35,51;78,50;102,69;20,16;22,3;19,4;15,59;13,51;89,87;109,90;21,18;31,53;95,82;76,104;157,152;20,56;57,4;68,34;21,5;15,2;18,6;29,32;18,16;50,63;20,14;20,2;24,21;24,0;20,42;30,61;26,2;21,2;20,86;55,79;129,64;66,33;23,12;128,166;28,66;44,26;20,45;31,71;27,8;21,16;49,49;17,17;66,60;15,45;78,69;148,168;39,30;129,71;62,60;66,75;21,46;15,26;78,118;93,65;25,9;52,71;57,32;16,40;16,56;56,36;16,6;36,62;86,54;29,15;15,17;23,22;48,68;148,157;28,5;18,65;17,10;37,0;50,41;68,118;39,0;17,47;18,14;20,23;127,67;47,28;112,121;47,19;79,67;130,150;16,25;63,37;18,32;49,46;71,69;80,41;26,15;73,71;70,36
58,51;12,8;41,27;24,24;71,66;90,59;92,7;34,58;19,5;41,10;101,101;70,63;58,35;69,26;24,40;49,8;43,9;18,65;30,38;17,70;20,38;77,18;19,21;44,27;19,9;21,2;20,36;172,195;16,9;49,32;30,58;18,8;58,52;16,61;17,31;15,6;11,47;132,190;25,10;85,90;16,27;25,8;17,40;82,95;22,16;69,56;73,91;57,55;10,14;33,38;16,11;154,154;83,104;25,18;37,93;20,10;150,86;117,92;55,48;18,1;23,62;93,85;88,96;16,6;85,6;17,1;35,62;17,4;17,63;88,63;107,43;16,27;30,6;48,27;53,119;27,2;17,1;59,102;15,5;18,11;41,16;67,65;38,58;22,20;38,8;117,94;14,33;29,41;18,60;19,11;13,19;59,48;19,33;152,127;14,12;63,59;75,105;76,37;21,41;67,77
21,4;28,2;24,42;53,30;16,50;13,64;19,73;14,38;24,23;56,58;23,31;121,160;16,8;15,70;14,0;92,103;16,11;16,5;20,28;14,1;30,30;25,94;48,65;67,70;60,15;109,55;17,9;174,165;15,13;13,29;43,42;27,34;12,21;16,19;11,2;25,16;26,1;173,213;100,147;121,133;21,2;55,83;75,46;108,106;14,4;104,89;16,8;22,34;12,10;19,67;17,20;39,46;92,86;42,45;15,35;18,82;18,36;24,41;35,9;12,6;81,72;73,111;73,105;140,113;19,53;14,48;137,99;12,33;17,10;19,33;53,99;17,10;9,33;69,102;68,5;30,54;19,19;53,49;64,100;15,24;55,33;89,127;83,84;50,71;15,41;16,108;44,23;18,15;15,24;142,106;26,27;32,37;20,5;21,18;12,3;35,7;133,94;160,186;16,18;73,63
16,26;94,51;18,5;70,56;15,17;20,0;21,58;86,13;17,18;75,74;21,17;99,79;105,96;66,35;13,12;135,180;25,17;21,38;30,23;19,1;26,41;89,76;18,19;11,36;123,68;108,151;21,17;18,31;14,26;20,26;15,6;300,304;13,11;19,26;66,73;19,35;52,19;47,66;73,46;15,23;52,63;15,8;27,46;16,19;113,79;96,158;15,3;54,47;37,5;67,69;185,82;67,72;47,13;32,10;16,6;18,15;92,125;37,60;11,35;102,81;138,81;137,143;48,35;14,61;39,1;73,54;17,21;37,26;18,28;29,74;32,0;72,44;14,5;18,4;59,123;67,93;18,37;20,22;83,19;17,8;17,43;39,24;18,16;19,24;64,81;84,40;22,27;62,33;27,17;157,179;18,20;103,86;16,34;33,46;64,72;20,100;62,104;19,29;62,17;103,106
15,40;45,67;20,40;85,115;22,24;38,43;22,3;18,13;56,62;15,19;13,19;18,31;68,66;94,131;130,134;19,9;16,20;90,7;46,36;33,22;22,15;139,103;49,62;52,17;10,111;14,57;20,11;13,0;69,7;36,48;19,39;51,53;43,36;16,11;23,10;106,73;100,152;12,19;83,56;66,66;56,11;92,96;72,47;27,9;20,58;93,86;39,30;27,21;40,77;61,44;21,81;17,26;150,158;101,175;79,64;24,21;19,37;106,82;152,196;41,13;78,128;120,84;15,30;91,96;16,45;60,44;15,47;41,44;174,73;34,17;22,88;105,107;22,1;36,23;146,71;20,32;80,67;16,45;16,55;58,46;101,98;15,3;20,12;17,6;16,28;16,62;14,42;14,36;77,54;95,69;17,22;46,60;25,9;35,32;24,10;44,42;18,23;50,47;21,57;16,50
118,91;18,54;97,44;37,38;15,25;66,84;47,42;25,98;34,29;9,34;14,30;62,0;16,19;12,3;171,149;82,93;61,71;19,49;37,28;18,1;147,120;45,91;10,21;18,41;14,7;71,66;65,48;50,17;19,63;135,78;120,86;28,17;57,4;15,26;79,66;15,46;22,11;42,39;34,81;79,72;18,68;55,38;17,0;37,42;83,67;17,1;108,106;74,50;119,87;16,12;13,2;57,73;17,60;56,44;31,34;14,17;15,7;23,51;63,38;50,120;25,34;134,84;15,10;136,87;44,58;53,11;45,55;22,13;40,114;20,10;65,0;17,58;44,41;58,23;17,49;82,17;94,103;35,8;95,112;14,3;106,91;83,83;27,30;80,3;17,1;52,16;71,35;133,75;15,21;13,9;61,4;8,22;82,58;128,110;40,26;18,21;70,14;43,27;18,38;58,23
