50,24;79,48;67,107;62,190;87,149;55,72;0,49;13,71;52,62;66,36;40,49;23,6;40,41;56,68;51,33;65,65;0,0;34,90;50,65;26,1;43,17;57,36;45,111;48,49;48,35;62,183;51,46;15,101;76,11;25,41;85,2;291,4;58,29;3,67;9,20;69,11;26,6;67,35;94,26;76,30;44,9;22,28;87,19;49,62;0,16;46,67;25,63;64,13;63,99;69,0;0,1;33,11;77,18;8,10;46,54;60,85;46,11;58,13;72,39;40,60;89,94;39,11;36,60;34,56;28,157;45,93;41,13;89,31;32,92;60,65;34,1;61,101;44,14;0,14;46,9;33,35;34,22;30,175;81,12;0,36;54,44;36,18;25,79;67,15;44,3;54,109;66,120;53,49;59,19;72,65;29,70;46,69;26,92;54,40;58,0;8,18;26,75;48,49;36,5;44,5
57,71;20,65;25,14;60,58;14,20;15,3;18,9;116,91;14,39;83,98;95,88;12,37;81,30;19,3;15,37;120,96;14,40;14,27;12,57;17,3;51,114;13,40;23,15;43,40;19,11;103,88;107,66;20,8;123,107;20,32;149,125;12,57;147,65;76,54;15,18;76,71;50,107;13,22;118,105;61,101;40,78;37,21;90,68;195,244;39,24;70,49;22,7;101,84;24,5;75,112;19,16;17,16;14,9;60,98;29,4;20,29;22,36;14,1;15,4;50,80;92,106;63,78;63,59;11,28;25,19;67,78;42,53;17,30;56,92;66,36;33,39;42,24;87,70;23,27;119,91;12,8;21,20;38,40;68,79;59,96;55,9;18,20;23,45;28,26;67,80;76,112;17,16;38,49;24,0;79,114;16,18;18,22;17,8;18,20;12,13;46,58;83,85;18,38;48,69;81,69
44,67;22,0;62,65;28,16;92,11;29,21;21,20;22,65;57,58;25,15;34,53;115,81;24,51;30,25;44,34;19,40;96,58;48,26;22,21;28,4;24,5;100,52;188,184;71,67;42,98;33,18;17,31;38,6;20,7;25,5;22,19;60,23;78,74;79,104;62,89;83,39;21,30;18,9;14,49;20,16;102,67;21,43;42,59;132,83;12,45;16,40;20,37;122,145;152,77;37,49;25,13;73,36;57,70;52,10;94,88;44,53;42,34;62,79;43,38;20,15;65,62;44,45;120,80;77,49;119,78;19,21;52,3;101,100;18,9;87,89;40,61;73,27;149,173;96,108;25,119;33,6;23,31;23,0;18,41;46,8;24,25;24,17;28,10;41,50;55,8;15,0;42,28;23,27;28,36;27,4;23,44;67,13;16,21;65,76;24,98;85,65;41,44;22,1;62,66;76,121
48,19;25,6;39,18;162,203;18,99;17,39;14,58;15,35;36,53;20,38;17,17;164,181;15,12;35,42;143,124;15,7;15,50;76,104;124,107;45,54;67,40;30,9;75,58;56,40;42,13;14,10;22,54;53,65;116,106;20,8;114,71;34,11;98,165;9,10;69,56;52,81;63,61;9,3;102,98;138,124;54,57;18,6;14,28;66,62;91,58;7,34;12,2;14,12;18,60;55,21;14,10;12,15;42,11;15,47;87,116;59,45;11,13;80,93;36,53;16,49;8,19;14,24;22,52;53,84;47,70;15,11;42,111;17,12;17,32;6,0;14,10;78,84;70,117;20,15;11,6;182,140;28,36;46,65;76,29;122,56;15,56;50,16;18,12;36,16;67,100;43,57;10,35;10,6;93,83;20,16;34,26;15,33;14,35;32,11;78,76;63,100;49,73;52,14;48,78;19,12
19,54;29,87;137,107;97,109;38,16;45,41;181,140;21,17;21,0;22,11;51,19;81,58;17,0;36,34;168,190;76,33;30,1;22,21;16,28;75,100;20,5;21,50;65,69;22,25;15,33;24,73;109,64;47,83;51,69;21,33;23,134;30,96;17,26;41,2;71,100;37,8;124,87;30,27;89,32;36,35;49,100;72,57;18,1;60,52;54,64;150,66;23,35;68,64;23,38;18,7;17,46;34,53;15,51;24,39;66,4;24,7;86,101;86,69;21,22;23,1;24,23;78,64;26,70;42,9;95,72;134,119;58,24;64,86;99,81;32,71;56,17;24,82;21,26;57,35;51,31;23,56;35,24;25,27;15,52;76,176;19,0;35,4;19,12;21,25;25,65;23,10;24,10;102,58;92,103;18,40;22,42;51,66;25,22;69,104;20,12;42,65;166,150;66,81;69,18;20,29
33,37;33,9;24,31;23,33;25,5;54,36;16,9;22,2;24,29;19,2;17,32;54,30;136,135;17,2;29,42;93,136;20,25;19,3;21,1;15,2;63,119;21,58;54,103;89,87;67,28;18,24;129,78;50,43;152,73;137,61;20,1;19,26;17,48;14,47;12,13;12,53;95,145;96,75;38,91;12,32;22,18;99,126;14,3;118,92;35,34;29,92;17,13;18,41;43,2;43,53;26,15;23,19;55,53;44,9;136,173;111,121;18,5;41,46;70,47;86,58;69,39;45,81;38,25;44,50;142,206;76,107;142,68;152,91;78,63;24,12;114,117;17,5;42,42;73,82;95,53;19,40;19,33;39,8;80,59;16,15;102,65;54,100;16,0;84,102;77,10;16,14;90,80;20,37;16,33;15,15;11,3;11,3;29,17;72,9;23,14;78,47;18,47;29,6;96,136;17,5
59,28;19,57;15,71;57,0;43,3;61,37;67,88;26,33;45,45;18,37;9,19;15,4;97,87;19,3;105,81;15,10;17,16;27,30;15,4;65,79;19,11;98,67;102,53;123,150;24,34;50,13;92,114;177,93;16,70;86,83;19,2;18,17;26,24;9,4;47,26;169,85;14,3;36,49;23,31;17,8;13,1;37,13;99,138;15,74;17,14;17,5;55,35;106,85;49,67;15,33;82,34;25,1;16,21;79,112;56,73;66,80;45,34;125,65;44,68;51,84;24,2;71,22;16,21;89,56;20,6;51,2;18,59;34,110;24,25;20,40;19,49;21,6;72,57;21,16;25,77;68,69;18,0;15,46;103,117;107,73;27,15;18,47;95,58;17,21;77,122;99,91;26,50;19,37;51,21;17,11;76,71;70,64;56,72;11,15;16,29;92,54;14,14;76,83;80,105;21,2
44,2;65,7;108,65;90,139;8,70;79,104;90,64;17,6;49,31;184,98;37,7;15,38;71,73;33,37;33,51;17,10;90,71;132,129;14,20;39,42;76,17;88,65;17,9;26,21;29,56;87,98;124,67;43,79;20,58;65,173;148,101;14,3;65,42;16,29;90,87;59,140;84,76;19,21;19,2;17,27;57,32;19,0;49,12;42,45;15,4;20,38;24,30;174,210;76,127;19,17;14,23;27,22;19,28;12,13;13,18;46,60;81,58;43,106;14,9;42,18;22,63;19,41;48,13;18,61;25,1;55,87;17,11;18,26;50,34;14,20;13,8;31,34;50,69;17,13;78,63;102,64;17,34;15,14;14,15;14,8;61,67;65,59;34,66;33,26;66,14;16,37;21,1;18,28;20,29;20,24;17,18;18,22;10,6;37,45;51,6;20,2;41,2;161,180;22,15;46,29
63,110;101,101;54,78;43,22;37,10;44,50;18,1;87,103;15,8;15,103;102,100;16,39;43,35;84,74;73,30;31,20;17,58;73,12;30,56;168,171;56,71;30,35;59,49;27,12;19,29;15,45;13,45;39,9;17,22;17,2;38,57;97,81;124,150;70,29;31,61;50,41;75,46;23,3;80,20;63,41;81,104;48,81;9,7;16,12;14,10;24,12;13,5;105,71;27,3;14,12;16,66;32,34;36,31;39,17;35,28;32,29;34,88;34,38;37,17;49,61;45,64;22,22;75,86;10,0;15,60;18,44;14,19;36,6;19,61;16,18;110,69;31,36;24,21;20,55;15,11;34,72;119,56;38,46;120,91;93,160;52,85;11,8;13,43;39,40;14,87;18,17;53,68;110,114;15,0;86,46;27,5;14,1;15,2;13,11;72,74;96,161;32,68;13,55;13,7;128,88
69,83;158,185;32,41;45,40;34,51;36,45;12,73;14,13;173,201;107,116;119,99;56,20;24,0;34,5;44,48;36,17;14,8;61,103;53,26;67,105;44,63;15,21;34,95;11,9;13,22;13,13;68,168;64,77;77,66;51,46;55,75;78,89;14,3;17,44;10,5;50,22;132,168;13,50;53,109;119,90;16,1;56,51;17,39;48,31;15,4;73,59;11,31;12,46;12,50;64,7;14,13;12,60;65,43;14,26;14,1;27,1;17,11;25,11;17,23;14,10;26,23;35,64;51,21;90,63;18,20;78,10;147,201;38,8;17,28;10,3;59,106;39,22;123,71;12,15;71,81;11,10;29,48;13,10;154,179;42,16;31,59;110,99;17,40;16,2;74,39;12,16;44,30;18,14;72,96;58,73;101,73;110,73;41,52;30,12;27,36;80,73;16,12;101,48;14,8;35,56
160,169;23,4;15,10;43,34;98,79;68,19;11,9;24,21;42,13;121,68;75,117;22,3;20,85;67,95;59,65;18,57;129,138;146,176;54,9;93,11;24,36;26,31;21,15;26,4;24,20;81,76;24,22;27,59;117,87;76,50;38,49;41,25;54,67;38,50;62,1;22,7;29,6;21,33;57,73;14,63;24,1;28,34;35,0;49,61;21,31;130,156;25,21;17,21;56,37;61,80;73,45;19,30;64,66;94,86;27,21;22,20;44,17;33,10;50,44;18,7;14,16;89,88;89,149;59,55;23,17;22,56;84,86;20,52;21,7;15,2;56,1;29,49;116,163;23,20;53,36;37,44;24,49;21,17;90,58;27,25;82,80;42,55;37,18;88,81;18,0;29,17;20,11;22,20;19,28;109,115;66,107;20,53;37,22;22,50;94,136;19,18;85,74;74,63;78,35;69,104
37,36;16,15;106,113;14,7;98,129;15,64;120,61;137,144;47,57;13,45;91,76;44,72;23,0;14,21;60,70;56,29;21,21;10,14;9,31;45,67;14,20;103,106;41,39;72,64;9,0;15,5;139,125;150,79;70,74;43,60;30,39;17,24;22,29;38,44;66,75;14,15;67,65;64,8;14,8;37,28;14,1;12,1;15,45;13,38;10,27;91,103;29,5;12,8;127,89;45,70;20,1;58,10;194,184;43,9;19,24;16,36;16,3;31,30;59,13;37,55;112,96;73,42;12,14;19,16;44,36;33,5;64,70;96,82;8,1;55,5;49,74;132,153;17,10;20,34;118,63;83,90;23,3;25,31;25,50;16,33;93,65;106,79;55,76;24,34;46,73;57,7;17,34;31,2;39,30;20,22;83,105;12,23;13,37;12,34;15,0;12,9;35,1;134,177;9,46;122,108
25,15;62,51;5,58;45,93;77,25;58,89;71,45;9,19;47,13;71,123;36,73;12,28;44,56;0,57;74,8;39,18;35,28;46,65;44,56;42,32;64,65;42,41;26,33;22,85;16,29;42,2;27,27;33,117;23,71;69,40;65,24;81,45;34,69;51,19;38,68;101,90;48,52;36,75;47,19;62,29;50,64;56,26;35,4;42,28;38,57;27,7;46,68;27,22;72,78;81,4;105,54;88,31;84,0;65,86;43,6;69,1;51,66;70,71;44,143;27,61;40,15;25,27;63,12;11,104;33,30;59,126;35,78;55,73;35,27;48,99;28,56;62,19;24,17;67,5;45,136;32,16;59,100;37,9;79,56;27,29;31,97;67,11;70,21;61,31;7,50;63,20;51,26;64,81;50,16;0,24;20,1;35,84;49,18;46,7;41,2;21,56;19,94;66,22;54,82;33,6
35,45;227,247;70,81;47,52;22,10;115,87;12,85;93,103;19,31;20,13;44,17;11,59;111,56;14,1;12,15;29,78;13,6;19,33;16,2;183,218;114,59;15,55;19,43;16,36;17,15;64,72;61,40;14,31;12,35;63,18;89,77;45,40;67,112;20,17;15,3;17,45;40,45;65,83;19,12;34,17;29,3;17,0;106,109;117,76;37,16;13,1;46,19;89,70;21,35;31,64;8,1;17,30;38,58;14,62;18,10;16,45;55,140;40,103;11,8;17,1;66,22;80,53;43,33;22,12;15,32;68,40;37,73;8,40;16,2;108,153;34,13;98,78;135,47;39,3;94,80;48,35;34,10;34,13;54,68;18,14;24,19;65,90;16,24;68,53;31,11;39,38;15,2;38,10;17,58;79,38;18,64;56,42;46,49;150,177;41,55;81,5;24,9;12,8;18,77;65,108
18,3;20,7;34,21;18,14;20,23;28,59;14,39;32,7;18,16;38,78;92,72;44,41;23,9;23,36;15,15;14,2;29,2;35,27;19,32;112,74;18,29;19,8;68,33;67,57;23,28;19,37;70,78;201,200;21,4;57,78;83,101;41,12;96,94;71,79;70,93;198,178;81,42;18,28;74,71;24,3;18,0;20,3;52,86;44,66;78,90;32,26;20,2;15,9;64,32;53,105;16,8;19,18;36,21;90,114;21,82;23,4;93,62;16,31;119,86;84,79;18,59;95,78;87,79;84,100;17,20;21,41;17,18;18,14;31,62;15,14;32,78;21,13;22,103;99,50;30,26;20,40;21,40;23,55;16,2;69,72;23,12;25,53;18,8;108,76;13,3;111,78;64,73;21,31;158,80;70,92;77,58;20,19;36,10;21,38;114,144;73,133;32,68;17,1;17,13;51,2
23,33;89,83;18,58;79,14;60,26;30,35;24,34;54,81;103,67;56,53;48,57;19,6;16,32;15,2;18,14;17,5;18,51;19,24;25,56;56,48;20,72;19,6;18,36;84,80;69,24;23,6;13,10;86,90;89,65;50,73;22,20;30,42;20,38;90,49;37,16;17,23;79,76;88,90;25,4;13,17;39,80;19,42;22,18;128,114;26,73;19,32;44,65;40,35;55,22;54,12;20,35;16,36;101,90;13,30;20,21;56,12;19,9;22,1;55,98;58,56;21,15;20,83;42,8;19,23;17,8;151,78;22,0;56,70;85,20;22,14;67,14;34,27;18,39;31,86;37,56;18,21;40,17;103,66;23,2;46,18;73,19;160,93;15,17;85,67;14,4;58,116;90,73;138,41;88,161;114,115;57,101;14,42;14,14;52,7;51,22;73,43;42,29;98,118;62,32;35,101
58,23;46,56;17,38;163,172;53,43;14,18;15,14;11,8;11,59;35,38;55,80;14,28;14,3;16,32;92,125;44,19;140,62;67,76;77,68;19,31;92,77;13,2;75,111;125,144;12,24;51,63;17,28;27,0;143,205;15,2;75,70;54,64;16,5;35,9;40,38;17,43;93,135;35,49;48,24;96,62;16,56;16,24;126,55;44,44;77,11;107,97;16,72;15,27;15,87;19,45;25,4;38,11;63,77;86,30;90,70;42,62;17,46;30,56;10,1;15,4;62,74;30,20;19,55;33,38;32,25;99,128;16,41;15,2;17,46;22,5;28,83;15,7;11,5;60,60;16,16;72,59;48,97;57,79;14,9;16,42;22,62;88,53;28,19;90,148;15,39;14,1;96,83;45,125;72,44;16,18;14,15;15,14;42,39;14,6;30,65;14,10;73,116;48,45;11,50;41,11
56,71;15,25;66,28;18,50;206,216;93,63;14,6;12,36;19,21;14,7;115,93;10,3;63,90;13,8;122,63;12,68;23,47;34,7;43,3;101,117;33,42;66,54;15,5;76,77;57,45;95,90;50,30;148,195;98,55;75,35;17,36;116,107;28,19;26,55;44,59;53,48;102,61;14,5;17,25;15,39;58,34;88,92;117,113;50,81;77,143;18,0;34,40;110,133;38,7;29,33;19,35;104,121;22,84;13,13;87,81;48,7;35,46;13,28;25,22;11,39;74,79;20,3;12,2;15,9;18,9;20,32;14,21;10,1;91,77;113,129;95,109;19,6;57,53;15,33;18,3;165,125;48,44;17,26;16,85;78,33;73,90;16,116;76,77;16,21;28,22;12,9;38,67;17,37;20,24;34,40;62,67;60,2;67,76;24,54;76,10;20,62;18,9;18,41;60,13;41,10
19,20;13,21;129,98;13,32;59,48;16,19;116,113;17,1;85,91;99,87;93,78;69,1;48,39;50,13;116,182;22,5;54,54;93,113;103,93;42,7;13,21;69,129;77,61;20,10;40,39;28,46;39,58;30,29;95,96;104,134;18,23;14,38;25,30;21,11;37,19;11,4;24,15;19,19;79,56;18,20;179,167;65,39;41,88;55,30;27,1;17,12;120,94;16,11;111,52;110,72;52,15;73,41;22,18;19,47;18,3;20,98;11,19;14,7;82,9;182,191;49,6;102,57;36,66;14,21;73,102;14,21;18,1;20,20;20,46;20,6;77,68;17,59;79,34;20,12;61,89;139,156;14,14;15,18;15,5;13,14;42,52;12,1;12,20;22,3;30,29;18,5;15,0;15,41;17,25;20,21;35,11;52,78;96,51;129,66;102,97;52,13;19,24;151,149;37,24;19,55
24,49;44,20;18,47;32,36;105,51;39,50;18,34;38,5;83,17;17,29;101,147;31,75;87,70;12,29;13,15;63,17;33,48;19,3;75,88;92,64;16,12;36,31;103,124;13,21;32,25;21,15;67,63;46,38;34,9;87,55;20,2;17,11;17,23;92,137;40,54;16,12;22,68;108,62;96,113;18,17;16,17;13,53;28,51;97,70;16,26;109,157;21,1;17,17;74,47;28,28;20,40;14,44;40,10;19,3;19,12;20,3;90,41;85,99;34,101;94,92;18,47;20,26;21,9;70,24;142,108;14,36;17,26;89,84;20,17;31,21;57,46;49,54;24,11;57,77;30,16;15,1;17,38;27,29;63,71;71,113;62,2;42,35;52,25;68,24;44,48;51,93;21,44;30,0;50,11;20,17;42,20;56,58;15,69;12,54;44,118;143,160;61,47;16,2;39,81;148,94
9,1;21,4;10,29;92,60;32,145;13,24;9,9;28,72;32,92;16,35;90,65;49,75;13,18;83,77;16,18;81,134;80,64;27,36;36,55;25,100;61,39;141,114;83,62;11,12;13,0;42,38;13,16;15,11;97,70;28,67;46,38;76,47;31,49;17,7;14,13;39,8;17,8;60,67;15,27;10,19;14,32;33,29;16,8;85,140;15,7;18,14;62,63;14,13;45,131;36,27;15,34;75,31;15,53;74,98;22,68;47,73;48,80;69,14;42,56;107,118;13,4;168,188;102,89;57,124;57,56;17,25;15,0;74,57;56,25;124,85;118,61;11,7;11,0;13,19;21,4;141,156;40,38;55,7;88,89;29,28;29,72;9,29;112,111;84,57;16,39;14,4;11,3;11,2;128,151;58,43;84,93;70,81;78,84;30,87;30,13;13,12;15,19;14,34;12,31;83,80
24,36;21,0;95,94;16,7;26,22;65,82;88,18;30,22;15,21;63,63;19,35;102,93;101,92;19,14;183,136;21,1;58,106;24,32;109,123;48,24;87,92;24,48;115,57;19,11;177,229;16,15;118,83;95,105;50,93;17,29;16,32;16,49;153,95;109,125;19,9;90,92;18,6;47,35;10,22;50,13;18,23;53,28;17,5;56,38;54,62;47,17;16,27;19,22;19,38;26,16;19,21;34,0;15,13;19,2;25,29;18,7;29,40;89,72;21,17;24,20;44,4;21,52;72,66;130,68;14,21;145,87;15,25;23,50;14,58;86,143;17,91;85,5;9,11;209,189;37,38;19,3;36,33;34,27;20,12;16,21;30,29;28,15;19,42;36,83;122,72;48,59;50,45;40,73;108,86;22,33;24,17;80,93;23,8;48,60;58,72;20,21;21,7;20,1;169,155;18,64
18,20;104,101;15,46;56,104;70,60;50,33;37,79;116,85;80,6;101,99;21,9;21,5;70,61;95,113;14,3;17,49;21,27;20,15;16,17;78,132;35,10;45,45;76,160;11,18;53,0;13,22;27,65;10,9;14,4;23,13;38,13;98,77;14,47;30,12;44,46;18,64;21,39;37,53;36,10;21,85;110,121;12,36;159,107;17,4;38,9;19,9;95,61;16,18;89,72;10,36;13,27;14,59;20,6;40,2;131,64;72,16;46,16;68,123;40,19;62,6;16,82;47,55;15,34;81,105;66,12;64,66;66,54;19,24;96,76;90,75;44,11;15,107;17,34;12,28;56,55;30,81;33,33;56,86;17,4;33,29;119,135;26,28;16,9;70,120;52,75;41,44;16,3;184,170;42,60;31,16;16,42;27,9;67,53;59,23;16,0;42,27;64,21;132,118;101,77;48,72
19,4;65,87;40,34;51,59;20,19;18,9;61,4;18,41;34,110;70,80;18,43;54,1;20,87;61,7;82,95;102,56;37,21;13,20;53,13;139,66;22,55;25,23;47,2;21,18;26,72;85,63;18,0;19,1;96,59;19,11;91,102;18,25;69,31;121,102;20,54;27,13;13,3;16,26;91,55;33,38;72,23;23,26;30,54;122,118;46,99;47,2;87,125;18,6;25,9;37,27;87,22;16,34;86,81;17,0;18,102;44,94;18,13;100,111;19,21;106,126;18,36;65,19;46,47;58,71;16,58;120,58;208,164;46,49;100,87;17,21;16,36;17,18;64,55;18,14;18,57;47,8;127,103;20,24;21,43;52,38;126,66;56,31;52,54;14,17;24,36;17,7;87,83;15,7;23,19;30,39;50,68;16,31;52,59;28,17;15,33;67,62;24,101;67,61;72,111;21,33
