17,23;10,8;5,1;5,1;7,0;0,23;8,3;9,17;6,7;11,1;14,20;12,1;6,17;10,23;8,1;9,1;38,22;6,14;14,5;13,6
2,1;5,4;12,4;3,6;15,19;18,9;21,18;4,5;0,1;1,2;6,0;11,5;4,3;15,15;2,10;21,25;2,5;15,22;9,10;28,7
5,1;2,5;40,52;5,5;18,15;3,11;1,0;13,15;21,17;2,2;3,5;2,3;3,2;8,4;8,14;3,4;10,9;15,15;2,1;7,33
20,26;5,5;5,5;18,4;15,18;6,10;0,1;3,4;9,13;5,6;1,2;12,9;5,6;4,2;3,2;34,12;4,0;36,29;7,10;21,14
3,0;3,3;8,7;4,11;7,6;8,1;3,3;2,4;14,3;8,3;3,4;3,8;8,6;2,9;42,30;16,35;3,3;33,40;4,3;4,0
8,6;10,11;6,4;6,8;5,8;6,16;11,5;6,6;10,16;24,18;16,12;11,2;9,4;6,8;12,26;4,5;17,17;1,2;8,5;3,12
5,0;10,1;3,5;6,4;4,1;7,9;27,13;13,6;4,5;2,10;7,0;8,21;6,14;17,7;12,2;16,19;9,0;2,1;13,3;20,12
5,12;1,8;2,2;1,7;4,3;4,5;1,13;1,2;12,4;3,5;3,9;16,12;13,6;8,13;14,15;1,2;3,21;35,9;3,8;3,9
18,13;2,0;5,6;16,9;15,9;6,3;7,17;2,4;2,9;3,0;2,8;1,2;2,0;17,22;11,12;11,10;21,12;1,20;9,14;14,16
8,0;4,9;27,25;21,21;6,8;5,11;6,1;6,10;2,6;10,3;12,5;12,5;4,12;7,4;4,13;16,1;15,12;11,18;7,9;3,6
30,28;1,1;3,5;2,4;18,13;13,9;4,8;3,3;20,18;11,18;21,28;0,2;2,1;2,0;1,1;16,15;1,4;10,0;20,20;1,1
2,19;5,5;4,4;2,7;30,43;5,5;8,7;7,6;8,5;6,1;5,0;13,12;5,6;11,2;13,2;17,18;5,3;9,20;18,20;6,6
2,10;4,2;9,6;8,12;8,6;9,29;13,1;18,2;6,15;15,19;15,2;18,13;21,2;4,17;6,2;12,9;11,11;3,9;9,6;0,14
7,4;4,1;9,6;4,2;8,6;23,15;2,0;4,16;0,0;20,32;7,13;3,10;40,36;11,9;8,11;14,24;2,1;0,0;18,18;3,4
5,8;5,11;15,18;5,6;8,4;5,1;5,5;3,2;12,8;3,1;6,7;28,8;15,19;4,0;3,12;26,12;4,4;21,18;6,8;29,13
9,2;11,13;14,6;2,5;10,5;20,31;11,5;2,0;4,7;13,5;3,4;4,23;11,13;5,6;2,3;11,21;7,4;4,0;6,0;16,10
7,11;15,20;1,12;10,9;42,39;1,3;5,8;4,4;3,1;2,2;10,9;3,3;18,12;12,21;0,0;2,8;17,15;6,9;2,0;3,12
11,0;13,8;12,9;6,6;3,15;5,1;8,12;14,6;13,2;16,15;3,3;14,9;5,7;18,5;6,0;7,8;4,9;3,8;22,14;15,22
1,2;3,7;2,4;2,0;2,3;2,4;2,7;17,26;5,7;5,7;17,13;2,7;22,18;16,15;3,1;11,1;25,21;8,5;14,17;0,6
12,13;19,11;9,2;10,13;6,7;13,10;20,17;9,5;5,0;11,18;2,3;5,5;2,3;3,7;14,11;9,16;13,20;7,3;1,0;1,0
3,8;5,5;6,6;17,2;5,3;3,6;4,5;4,10;17,18;8,5;24,16;14,12;14,17;9,10;9,15;5,0;5,2;2,7;7,16;3,1
10,16;11,17;6,3;14,20;4,7;11,1;10,9;1,2;5,13;1,1;2,9;23,23;1,3;11,11;5,5;10,3;7,0;10,8;8,1;14,15
6,5;4,5;4,5;2,1;6,2;2,4;15,0;4,1;12,12;11,10;3,3;11,9;19,10;14,16;2,2;5,10;3,16;14,15;9,9;21,20
4,8;7,0;3,0;6,14;2,1;4,10;3,13;3,0;20,11;7,1;9,13;7,10;5,11;17,20;12,1;11,20;16,13;3,5;1,9;15,18
