9,3;11,3;15,17;11,6;8,0;7,25;10,0;9,21;5,3;6,2;8,17;13,4;3,6;8,1;23,9;8,8;6,46;12,0;6,9;5,1
11,18;19,16;20,17;7,4;5,4;14,3;7,9;16,13;5,10;3,1;18,11;3,4;6,8;7,5;5,0;4,7;12,12;9,11;4,1;6,13
5,9;20,14;12,13;0,1;2,1;2,12;2,0;12,12;11,4;7,3;21,35;2,6;4,13;13,16;2,19;3,7;17,9;7,4;12,19;13,2
3,1;8,19;2,4;1,3;9,9;37,32;1,2;2,2;0,5;10,4;3,3;3,0;17,10;16,16;4,1;21,20;5,13;20,23;29,18;8,0
4,4;17,4;14,8;5,4;16,23;5,12;10,10;6,9;25,23;7,12;1,4;10,6;3,3;13,12;4,7;9,13;8,0;15,11;12,21;1,20
22,9;25,10;2,7;7,6;2,3;18,6;20,13;15,6;2,3;28,17;4,3;0,3;2,4;15,16;2,1;4,5;2,6;13,14;6,6;17,15
9,13;15,33;8,13;5,0;8,4;3,10;4,0;8,0;13,3;2,19;9,3;7,7;9,3;3,4;10,5;22,9;6,10;7,2;1,3;4,3
3,3;4,7;8,2;4,11;2,0;2,3;20,23;15,18;5,7;4,4;6,13;0,0;3,13;6,0;4,2;9,19;5,1;5,5;21,16;18,18
4,11;6,4;14,16;3,3;29,31;4,9;17,21;2,4;9,16;2,1;4,2;4,8;3,1;3,5;4,4;10,11;17,15;8,9;13,13;9,5
4,3;3,12;4,8;4,4;31,13;4,0;10,13;7,14;6,4;14,6;9,4;2,0;3,5;15,10;10,12;17,4;6,1;27,32;6,4;7,4
23,23;11,7;2,1;1,1;3,24;8,8;7,9;12,15;26,12;14,14;3,3;2,1;7,6;1,5;14,18;1,13;2,12;5,9;7,2;4,6
11,10;1,1;11,9;3,0;5,4;11,12;3,1;20,9;18,20;3,9;13,13;14,17;12,12;3,12;26,11;11,7;3,1;3,0;2,4;16,8
13,5;7,6;13,15;11,0;6,2;4,0;3,2;19,20;8,18;6,13;8,7;9,11;6,12;4,10;6,12;10,6;12,15;5,7;5,11;5,16
8,10;6,1;7,4;5,3;2,5;12,11;3,0;15,15;5,8;3,2;3,6;22,16;7,10;3,4;10,14;9,2;28,37;19,6;6,14;15,5
17,16;3,3;10,6;9,1;7,2;6,0;4,10;14,18;15,17;3,10;5,2;3,20;6,3;6,2;17,14;5,1;8,7;6,15;26,26;3,13
19,19;2,4;16,23;7,19;3,7;2,12;2,4;13,8;3,3;2,6;17,12;30,30;5,2;10,2;3,9;23,17;21,24;4,2;3,3;1,1
4,3;3,2;4,5;10,11;3,1;1,5;54,32;17,16;9,8;12,0;3,4;23,23;4,9;3,11;12,10;7,22;6,2;12,18;10,6;10,8
4,4;13,9;2,1;4,0;9,9;3,2;3,19;18,20;13,1;2,11;19,19;20,17;23,20;10,0;5,9;2,5;7,2;13,5;6,1;20,14
4,7;2,9;13,7;2,7;21,12;19,8;2,6;28,25;2,0;12,15;8,2;15,18;6,6;4,1;4,1;6,2;3,10;3,9;6,13;8,14
9,6;2,2;13,13;3,3;25,33;2,13;18,18;1,5;1,13;4,3;10,20;11,7;16,10;2,14;2,1;9,1;22,16;9,4;11,8;2,0
21,17;6,5;37,45;4,2;3,5;4,2;5,6;2,0;14,5;16,15;6,9;21,28;10,20;3,4;7,0;3,3;3,3;13,8;9,13;3,4
4,1;4,1;25,24;15,19;9,3;5,2;14,15;2,0;4,18;4,2;5,5;5,1;12,6;21,14;7,15;22,13;17,17;13,18;5,3;1,6
0,0;2,5;3,2;15,7;2,9;19,20;5,0;8,3;25,18;3,2;0,0;11,11;11,15;26,30;3,3;18,38;4,4;23,30;3,4;2,1
6,17;12,8;10,12;21,22;4,1;3,4;4,5;24,19;17,24;22,20;18,5;19,19;1,2;4,2;9,6;4,6;18,21;1,1;3,4;2,2
