7,1;4,0;2,3;6,5;3,2;7,2;8,2;5,4;1,3;7,0
0,0;5,6;2,2;0,0;2,5;6,3;0,0;0,0;0,0;7,5
3,7;0,1;6,8;0,0;0,0;0,1;9,6;0,3;2,3;1,0
4,1;2,3;2,0;1,0;0,0;0,3;4,11;2,2;2,1;12,12
2,3;1,2;1,9;2,1;3,1;4,12;11,0;4,3;3,0;2,0
0,3;1,3;16,13;0,1;0,0;2,1;11,5;1,1;0,4;0,7
2,0;1,1;2,5;0,0;12,9;11,8;1,3;0,0;3,2;6,5
3,4;7,7;3,1;0,0;2,4;1,4;9,7;2,1;6,1;0,0
