1,2;2,6;3,0;2,3;1,1;5,1;3,4;9,2;3,4;3,9
2,2;9,9;5,5;0,1;0,0;2,2;11,10;3,0;0,1;0,0
6,3;10,6;3,1;1,3;1,4;4,6;1,3;0,0;2,2;2,0
1,1;1,6;0,1;4,7;1,1;3,3;4,3;0,0;3,1;11,12
5,3;0,3;1,0;0,0;1,2;2,1;1,3;2,13;3,5;20,1
1,2;0,2;4,7;4,2;3,2;1,1;7,4;7,8;4,3;0,0
0,0;0,2;6,7;0,5;11,10;2,2;0,0;2,3;0,1;10,7
3,3;1,2;1,0;3,3;8,8;1,0;7,7;3,1;5,5;5,5
