3;2;136;0;e;e;e;e
1;4;19;0;e;e;e;e
5;2;1;0;e;e;e;e
6;2;1;0;e;e;e;e
7;2;15;0;e;e;e;e
8;2;2;0;e;e;e;e
1;9;16;0;e;e;e;e
1;10;4;0;e;e;e;e
11;2;27;0;e;e;e;e
1;12;5;0;e;e;e;e
1;13;12;0;e;e;e;e
1;14;16;0;e;e;e;e
15;2;4;0;e;e;e;e
1;16;20;0;e;e;e;e
1;17;7;0;e;e;e;e
1;18;6;0;e;e;e;e
1;19;3;0;e;e;e;e
1;20;21;0;e;e;e;e
21;2;10;0;e;e;e;e
1;22;11;0;e;e;e;e
1;23;23;0;e;e;e;e
1;24;1;0;e;e;e;e
1;26;3;0;e;e;e;e
1;28;7;0;e;e;e;e
1;29;5;0;e;e;e;e
1;30;3;0;e;e;e;e
31;2;2;0;e;e;e;e
1;32;2;0;e;e;e;e
1;33;3;0;e;e;e;e
34;2;5;0;e;e;e;e
35;2;1;0;e;e;e;e
36;2;2;0;e;e;e;e
1;37;1;0;e;e;e;e
38;2;8;0;e;e;e;e
1;39;6;0;e;e;e;e
40;2;5;0;e;e;e;e
1;41;5;0;e;e;e;e
1;42;5;0;e;e;e;e
1;43;2;0;e;e;e;e
1;44;5;0;e;e;e;e
1;45;3;0;e;e;e;e
46;2;5;0;e;e;e;e
47;2;4;0;e;e;e;e
48;2;2;0;e;e;e;e
1;49;2;0;e;e;e;e
1;50;1;0;e;e;e;e
1;51;5;0;e;e;e;e
1;52;7;0;e;e;e;e
1;53;1;0;e;e;e;e
54;2;1;0;e;e;e;e
1;55;1;0;e;e;e;e
1;56;1;0;e;e;e;e
1;57;6;0;e;e;e;e
1;58;4;0;e;e;e;e
1;59;8;0;e;e;e;e
1;60;1;0;e;e;e;e
61;2;6;0;e;e;e;e
62;2;1;0;e;e;e;e
63;2;7;0;e;e;e;e
64;2;7;0;e;e;e;e
65;2;5;0;e;e;e;e
66;2;1;0;e;e;e;e
1;67;7;0;e;e;e;e
68;2;1;0;e;e;e;e
1;69;3;0;e;e;e;e
1;70;8;0;e;e;e;e
71;2;4;0;e;e;e;e
72;2;4;0;e;e;e;e
1;73;5;0;e;e;e;e
1;74;1;0;e;e;e;e
75;2;1;0;e;e;e;e
1;76;3;0;e;e;e;e
1;77;8;0;e;e;e;e
1;78;3;0;e;e;e;e
79;2;15;0;e;e;e;e
80;2;1;0;e;e;e;e
81;2;2;0;e;e;e;e
82;2;5;0;e;e;e;e
1;83;1;0;e;e;e;e
1;84;8;0;e;e;e;e
1;85;2;0;e;e;e;e
86;2;1;0;e;e;e;e
1;87;4;0;e;e;e;e
1;88;2;0;e;e;e;e
89;2;8;0;e;e;e;e
90;2;13;0;e;e;e;e
1;91;9;0;e;e;e;e
92;2;6;0;e;e;e;e
93;2;7;0;e;e;e;e
94;2;3;0;e;e;e;e
95;2;4;0;e;e;e;e
1;96;5;0;e;e;e;e
97;2;7;0;e;e;e;e
1;98;3;0;e;e;e;e
99;2;1;0;e;e;e;e
100;2;6;0;e;e;e;e
1;101;5;0;e;e;e;e
1;102;8;0;e;e;e;e
1;103;7;0;e;e;e;e
104;2;15;0;e;e;e;e
105;2;1;0;e;e;e;e
107;2;12;0;e;e;e;e
1;108;4;0;e;e;e;e
1;109;3;0;e;e;e;e
110;2;2;0;e;e;e;e
1;111;3;0;e;e;e;e
1;112;6;0;e;e;e;e
113;2;2;0;e;e;e;e
1;115;14;0;e;e;e;e
1;117;1;0;e;e;e;e
118;2;4;0;e;e;e;e
119;2;2;0;e;e;e;e
1;121;12;0;e;e;e;e
122;2;9;0;e;e;e;e
1;123;3;0;e;e;e;e
125;2;2;0;e;e;e;e
1;126;2;0;e;e;e;e
1;127;3;0;e;e;e;e
128;2;11;0;e;e;e;e
1;129;2;0;e;e;e;e
131;2;1;0;e;e;e;e
1;132;1;0;e;e;e;e
1;133;5;0;e;e;e;e
1;134;4;0;e;e;e;e
135;2;5;0;e;e;e;e
136;2;1;0;e;e;e;e
137;2;6;0;e;e;e;e
1;138;2;0;e;e;e;e
1;140;6;0;e;e;e;e
141;2;12;0;e;e;e;e
143;2;1;0;e;e;e;e
1;144;20;0;e;e;e;e
146;2;1;0;e;e;e;e
1;148;4;0;e;e;e;e
149;2;8;0;e;e;e;e
1;150;11;0;e;e;e;e
1;151;5;0;e;e;e;e
152;2;7;0;e;e;e;e
155;2;7;0;e;e;e;e
1;156;4;0;e;e;e;e
1;157;5;0;e;e;e;e
1;158;1;0;e;e;e;e
159;2;1;0;e;e;e;e
160;2;4;0;e;e;e;e
1;161;8;0;e;e;e;e
1;162;4;0;e;e;e;e
163;2;7;0;e;e;e;e
164;2;12;0;e;e;e;e
1;165;15;0;e;e;e;e
1;166;2;0;e;e;e;e
1;167;6;0;e;e;e;e
168;2;5;0;e;e;e;e
169;2;1;0;e;e;e;e
170;2;3;0;e;e;e;e
1;171;1;0;e;e;e;e
1;172;10;0;e;e;e;e
173;2;6;0;e;e;e;e
174;2;5;0;e;e;e;e
177;2;7;0;e;e;e;e
1;178;3;0;e;e;e;e
1;179;4;0;e;e;e;e
180;2;1;0;e;e;e;e
181;2;5;0;e;e;e;e
1;182;2;0;e;e;e;e
1;183;6;0;e;e;e;e
184;2;6;0;e;e;e;e
185;2;14;0;e;e;e;e
186;2;1;0;e;e;e;e
187;2;6;0;e;e;e;e
189;2;1;0;e;e;e;e
190;2;7;0;e;e;e;e
191;2;18;0;e;e;e;e
1;192;4;0;e;e;e;e
193;2;1;0;e;e;e;e
194;2;2;0;e;e;e;e
195;2;2;0;e;e;e;e
1;196;7;0;e;e;e;e
1;197;3;0;e;e;e;e
198;2;7;0;e;e;e;e
199;2;4;0;e;e;e;e
1;200;3;0;e;e;e;e
201;2;8;0;e;e;e;e
1;204;3;0;e;e;e;e
1;205;23;0;e;e;e;e
206;2;1;0;e;e;e;e
1;207;6;0;e;e;e;e
1;208;3;0;e;e;e;e
1;209;3;0;e;e;e;e
1;210;6;0;e;e;e;e
1;211;8;0;e;e;e;e
212;2;16;0;e;e;e;e
1;213;3;0;e;e;e;e
1;214;1;0;e;e;e;e
216;2;8;0;e;e;e;e
1;217;3;0;e;e;e;e
218;2;2;0;e;e;e;e
220;2;1;0;e;e;e;e
1;221;3;0;e;e;e;e
223;2;1;0;e;e;e;e
224;2;1;0;e;e;e;e
225;2;16;0;e;e;e;e
227;2;6;0;e;e;e;e
229;2;1;0;e;e;e;e
1;231;5;0;e;e;e;e
1;232;5;0;e;e;e;e
1;233;6;0;e;e;e;e
234;2;2;0;e;e;e;e
1;235;2;0;e;e;e;e
1;236;2;0;e;e;e;e
1;237;3;0;e;e;e;e
1;238;1;0;e;e;e;e
1;239;7;0;e;e;e;e
1;240;3;0;e;e;e;e
1;241;1;0;e;e;e;e
243;2;5;0;e;e;e;e
244;2;2;0;e;e;e;e
1;245;6;0;e;e;e;e
1;246;1;0;e;e;e;e
1;247;2;0;e;e;e;e
1;248;6;0;e;e;e;e
249;2;10;0;e;e;e;e
250;2;1;0;e;e;e;e
251;2;6;0;e;e;e;e
1;252;12;0;e;e;e;e
1;253;13;0;e;e;e;e
254;2;4;0;e;e;e;e
255;2;1;0;e;e;e;e
256;2;13;0;e;e;e;e
1;257;11;0;e;e;e;e
258;2;10;0;e;e;e;e
259;2;5;0;e;e;e;e
1;260;11;0;e;e;e;e
1;261;1;0;e;e;e;e
262;2;3;0;e;e;e;e
263;2;2;0;e;e;e;e
1;264;9;0;e;e;e;e
265;2;7;0;e;e;e;e
266;2;2;0;e;e;e;e
1;268;2;0;e;e;e;e
269;2;8;0;e;e;e;e
1;271;4;0;e;e;e;e
1;272;2;0;e;e;e;e
273;2;5;0;e;e;e;e
1;274;9;0;e;e;e;e
275;2;3;0;e;e;e;e
1;276;11;0;e;e;e;e
277;2;3;0;e;e;e;e
278;2;8;0;e;e;e;e
1;279;2;0;e;e;e;e
280;2;14;0;e;e;e;e
1;281;2;0;e;e;e;e
1;282;5;0;e;e;e;e
284;2;9;0;e;e;e;e
285;2;3;0;e;e;e;e
1;286;1;0;e;e;e;e
1;287;8;0;e;e;e;e
1;288;5;0;e;e;e;e
289;2;5;0;e;e;e;e
1;290;1;0;e;e;e;e
1;291;4;0;e;e;e;e
292;2;6;0;e;e;e;e
1;293;4;0;e;e;e;e
294;2;5;0;e;e;e;e
295;2;1;0;e;e;e;e
296;2;8;0;e;e;e;e
1;297;3;0;e;e;e;e
1;298;4;0;e;e;e;e
1;299;10;0;e;e;e;e
300;2;2;0;e;e;e;e
301;2;1;0;e;e;e;e
302;2;2;0;e;e;e;e
1;303;1;0;e;e;e;e
1;304;7;0;e;e;e;e
1;305;2;0;e;e;e;e
1;306;1;0;e;e;e;e
1;307;7;0;e;e;e;e
308;2;7;0;e;e;e;e
310;2;4;0;e;e;e;e
1;311;1;0;e;e;e;e
312;2;9;0;e;e;e;e
313;2;12;0;e;e;e;e
1;314;4;0;e;e;e;e
1;315;4;0;e;e;e;e
316;2;3;0;e;e;e;e
1;317;3;0;e;e;e;e
318;2;10;0;e;e;e;e
319;2;10;0;e;e;e;e
1;320;6;0;e;e;e;e
1;321;5;0;e;e;e;e
323;2;2;0;e;e;e;e
324;2;8;0;e;e;e;e
1;325;2;0;e;e;e;e
1;326;1;0;e;e;e;e
327;2;12;0;e;e;e;e
1;328;6;0;e;e;e;e
1;329;4;0;e;e;e;e
1;330;1;0;e;e;e;e
331;2;9;0;e;e;e;e
1;333;3;0;e;e;e;e
334;2;3;0;e;e;e;e
1;335;4;0;e;e;e;e
1;336;8;0;e;e;e;e
1;337;1;0;e;e;e;e
1;338;4;0;e;e;e;e
1;339;1;0;e;e;e;e
340;2;6;0;e;e;e;e
341;2;2;0;e;e;e;e
1;345;2;0;e;e;e;e
1;346;2;0;e;e;e;e
1;347;1;0;e;e;e;e
1;348;11;0;e;e;e;e
349;2;3;0;e;e;e;e
1;350;6;0;e;e;e;e
1;351;2;0;e;e;e;e
352;2;2;0;e;e;e;e
353;2;3;0;e;e;e;e
354;2;2;0;e;e;e;e
355;2;4;0;e;e;e;e
356;2;5;0;e;e;e;e
357;2;8;0;e;e;e;e
358;2;1;0;e;e;e;e
1;359;5;0;e;e;e;e
1;360;1;0;e;e;e;e
362;2;2;0;e;e;e;e
1;363;4;0;e;e;e;e
1;364;3;0;e;e;e;e
365;2;6;0;e;e;e;e
1;366;3;0;e;e;e;e
367;2;5;0;e;e;e;e
368;2;11;0;e;e;e;e
1;369;3;0;e;e;e;e
1;370;1;0;e;e;e;e
1;371;5;0;e;e;e;e
1;372;1;0;e;e;e;e
1;374;5;0;e;e;e;e
1;375;2;0;e;e;e;e
1;376;6;0;e;e;e;e
377;2;5;0;e;e;e;e
1;378;6;0;e;e;e;e
379;2;6;0;e;e;e;e
1;380;3;0;e;e;e;e
381;2;1;0;e;e;e;e
1;382;2;0;e;e;e;e
1;383;8;0;e;e;e;e
1;384;1;0;e;e;e;e
1;385;3;0;e;e;e;e
386;2;7;0;e;e;e;e
1;387;5;0;e;e;e;e
388;2;2;0;e;e;e;e
1;389;8;0;e;e;e;e
1;390;1;0;e;e;e;e
392;2;1;0;e;e;e;e
1;393;9;0;e;e;e;e
394;2;1;0;e;e;e;e
395;2;1;0;e;e;e;e
396;2;5;0;e;e;e;e
1;397;2;0;e;e;e;e
398;2;5;0;e;e;e;e
399;2;2;0;e;e;e;e
1;400;3;0;e;e;e;e
1;401;5;0;e;e;e;e
1;402;4;0;e;e;e;e
1;403;2;0;e;e;e;e
404;2;2;0;e;e;e;e
1;406;15;0;e;e;e;e
407;2;2;0;e;e;e;e
409;2;10;0;e;e;e;e
410;2;5;0;e;e;e;e
411;2;6;0;e;e;e;e
1;412;8;0;e;e;e;e
413;2;2;0;e;e;e;e
415;2;1;0;e;e;e;e
416;2;1;0;e;e;e;e
1;417;1;0;e;e;e;e
1;419;6;0;e;e;e;e
420;2;6;0;e;e;e;e
421;2;4;0;e;e;e;e
422;2;1;0;e;e;e;e
423;2;2;0;e;e;e;e
1;424;4;0;e;e;e;e
425;2;3;0;e;e;e;e
426;2;12;0;e;e;e;e
1;427;8;0;e;e;e;e
428;2;6;0;e;e;e;e
429;2;1;0;e;e;e;e
430;2;3;0;e;e;e;e
1;431;8;0;e;e;e;e
432;2;1;0;e;e;e;e
1;434;2;0;e;e;e;e
1;435;2;0;e;e;e;e
436;2;1;0;e;e;e;e
437;2;5;0;e;e;e;e
438;2;5;0;e;e;e;e
1;440;4;0;e;e;e;e
441;2;1;0;e;e;e;e
442;2;4;0;e;e;e;e
443;2;8;0;e;e;e;e
1;444;12;0;e;e;e;e
1;445;13;0;e;e;e;e
446;2;3;0;e;e;e;e
1;447;2;0;e;e;e;e
1;448;8;0;e;e;e;e
1;449;8;0;e;e;e;e
1;450;3;0;e;e;e;e
451;2;2;0;e;e;e;e
452;2;5;0;e;e;e;e
453;2;2;0;e;e;e;e
454;2;6;0;e;e;e;e
1;455;1;0;e;e;e;e
1;456;8;0;e;e;e;e
1;457;3;0;e;e;e;e
1;458;4;0;e;e;e;e
1;459;1;0;e;e;e;e
1;461;3;0;e;e;e;e
1;462;5;0;e;e;e;e
463;2;2;0;e;e;e;e
464;2;5;0;e;e;e;e
465;2;4;0;e;e;e;e
1;466;3;0;e;e;e;e
467;2;3;0;e;e;e;e
1;468;8;0;e;e;e;e
469;2;4;0;e;e;e;e
470;2;4;0;e;e;e;e
472;2;4;0;e;e;e;e
473;2;2;0;e;e;e;e
474;2;5;0;e;e;e;e
475;2;6;0;e;e;e;e
1;476;1;0;e;e;e;e
1;477;1;0;e;e;e;e
478;2;6;0;e;e;e;e
479;2;1;0;e;e;e;e
1;480;5;0;e;e;e;e
1;481;5;0;e;e;e;e
482;2;4;0;e;e;e;e
1;483;3;0;e;e;e;e
483;3;-1;0;l;20;e;e
482;3;-1;0;l;19;e;e
481;3;-1;0;l;18;e;e
480;3;-1;0;l;17;e;e
479;3;-1;0;l;16;e;e
478;3;-1;0;l;15;e;e
477;3;-1;0;l;14;e;e
476;3;-1;0;l;13;e;e
475;3;-1;0;l;12;e;e
474;3;-1;0;l;11;e;e
473;3;-1;0;l;10;e;e
472;3;-1;0;l;9;e;e
471;3;-1;0;l;8;e;e
470;3;-1;0;l;7;e;e
469;3;-1;0;l;6;e;e
468;3;-1;0;l;5;e;e
467;3;-1;0;l;4;e;e
466;3;-1;0;l;3;e;e
465;3;-1;0;l;2;e;e
464;3;-1;0;l;1;e;e
4;24;-1;0;e;e;e;e
5;25;-1;0;e;e;e;e
6;26;-1;0;e;e;e;e
7;27;-1;0;e;e;e;e
8;28;-1;0;e;e;e;e
9;29;-1;0;e;e;e;e
10;30;-1;0;e;e;e;e
11;31;-1;0;e;e;e;e
12;32;-1;0;e;e;e;e
13;33;-1;0;e;e;e;e
14;34;-1;0;e;e;e;e
15;35;-1;0;e;e;e;e
16;36;-1;0;e;e;e;e
17;37;-1;0;e;e;e;e
18;38;-1;0;e;e;e;e
19;39;-1;0;e;e;e;e
20;40;-1;0;e;e;e;e
21;41;-1;0;e;e;e;e
22;42;-1;0;e;e;e;e
23;43;-1;0;e;e;e;e
24;44;-1;0;e;e;e;e
25;45;-1;0;e;e;e;e
26;46;-1;0;e;e;e;e
27;47;-1;0;e;e;e;e
28;48;-1;0;e;e;e;e
29;49;-1;0;e;e;e;e
30;50;-1;0;e;e;e;e
31;51;-1;0;e;e;e;e
32;52;-1;0;e;e;e;e
33;53;-1;0;e;e;e;e
34;54;-1;0;e;e;e;e
35;55;-1;0;e;e;e;e
36;56;-1;0;e;e;e;e
37;57;-1;0;e;e;e;e
38;58;-1;0;e;e;e;e
39;59;-1;0;e;e;e;e
40;60;-1;0;e;e;e;e
41;61;-1;0;e;e;e;e
42;62;-1;0;e;e;e;e
43;63;-1;0;e;e;e;e
44;64;-1;0;e;e;e;e
45;65;-1;0;e;e;e;e
46;66;-1;0;e;e;e;e
47;67;-1;0;e;e;e;e
48;68;-1;0;e;e;e;e
49;69;-1;0;e;e;e;e
50;70;-1;0;e;e;e;e
51;71;-1;0;e;e;e;e
52;72;-1;0;e;e;e;e
53;73;-1;0;e;e;e;e
54;74;-1;0;e;e;e;e
55;75;-1;0;e;e;e;e
56;76;-1;0;e;e;e;e
57;77;-1;0;e;e;e;e
58;78;-1;0;e;e;e;e
59;79;-1;0;e;e;e;e
60;80;-1;0;e;e;e;e
61;81;-1;0;e;e;e;e
62;82;-1;0;e;e;e;e
63;83;-1;0;e;e;e;e
64;84;-1;0;e;e;e;e
65;85;-1;0;e;e;e;e
66;86;-1;0;e;e;e;e
67;87;-1;0;e;e;e;e
68;88;-1;0;e;e;e;e
69;89;-1;0;e;e;e;e
70;90;-1;0;e;e;e;e
71;91;-1;0;e;e;e;e
72;92;-1;0;e;e;e;e
73;93;-1;0;e;e;e;e
74;94;-1;0;e;e;e;e
75;95;-1;0;e;e;e;e
76;96;-1;0;e;e;e;e
77;97;-1;0;e;e;e;e
78;98;-1;0;e;e;e;e
79;99;-1;0;e;e;e;e
80;100;-1;0;e;e;e;e
81;101;-1;0;e;e;e;e
82;102;-1;0;e;e;e;e
83;103;-1;0;e;e;e;e
84;104;-1;0;e;e;e;e
85;105;-1;0;e;e;e;e
86;106;-1;0;e;e;e;e
87;107;-1;0;e;e;e;e
88;108;-1;0;e;e;e;e
89;109;-1;0;e;e;e;e
90;110;-1;0;e;e;e;e
91;111;-1;0;e;e;e;e
92;112;-1;0;e;e;e;e
93;113;-1;0;e;e;e;e
94;114;-1;0;e;e;e;e
95;115;-1;0;e;e;e;e
96;116;-1;0;e;e;e;e
97;117;-1;0;e;e;e;e
98;118;-1;0;e;e;e;e
99;119;-1;0;e;e;e;e
100;120;-1;0;e;e;e;e
101;121;-1;0;e;e;e;e
102;122;-1;0;e;e;e;e
103;123;-1;0;e;e;e;e
104;124;-1;0;e;e;e;e
105;125;-1;0;e;e;e;e
106;126;-1;0;e;e;e;e
107;127;-1;0;e;e;e;e
108;128;-1;0;e;e;e;e
109;129;-1;0;e;e;e;e
110;130;-1;0;e;e;e;e
111;131;-1;0;e;e;e;e
112;132;-1;0;e;e;e;e
113;133;-1;0;e;e;e;e
114;134;-1;0;e;e;e;e
115;135;-1;0;e;e;e;e
116;136;-1;0;e;e;e;e
117;137;-1;0;e;e;e;e
118;138;-1;0;e;e;e;e
119;139;-1;0;e;e;e;e
120;140;-1;0;e;e;e;e
121;141;-1;0;e;e;e;e
122;142;-1;0;e;e;e;e
123;143;-1;0;e;e;e;e
124;144;-1;0;e;e;e;e
125;145;-1;0;e;e;e;e
126;146;-1;0;e;e;e;e
127;147;-1;0;e;e;e;e
128;148;-1;0;e;e;e;e
129;149;-1;0;e;e;e;e
130;150;-1;0;e;e;e;e
131;151;-1;0;e;e;e;e
132;152;-1;0;e;e;e;e
133;153;-1;0;e;e;e;e
134;154;-1;0;e;e;e;e
135;155;-1;0;e;e;e;e
136;156;-1;0;e;e;e;e
137;157;-1;0;e;e;e;e
138;158;-1;0;e;e;e;e
139;159;-1;0;e;e;e;e
140;160;-1;0;e;e;e;e
141;161;-1;0;e;e;e;e
142;162;-1;0;e;e;e;e
143;163;-1;0;e;e;e;e
144;164;-1;0;e;e;e;e
145;165;-1;0;e;e;e;e
146;166;-1;0;e;e;e;e
147;167;-1;0;e;e;e;e
148;168;-1;0;e;e;e;e
149;169;-1;0;e;e;e;e
150;170;-1;0;e;e;e;e
151;171;-1;0;e;e;e;e
152;172;-1;0;e;e;e;e
153;173;-1;0;e;e;e;e
154;174;-1;0;e;e;e;e
155;175;-1;0;e;e;e;e
156;176;-1;0;e;e;e;e
157;177;-1;0;e;e;e;e
158;178;-1;0;e;e;e;e
159;179;-1;0;e;e;e;e
160;180;-1;0;e;e;e;e
161;181;-1;0;e;e;e;e
162;182;-1;0;e;e;e;e
163;183;-1;0;e;e;e;e
164;184;-1;0;e;e;e;e
165;185;-1;0;e;e;e;e
166;186;-1;0;e;e;e;e
167;187;-1;0;e;e;e;e
168;188;-1;0;e;e;e;e
169;189;-1;0;e;e;e;e
170;190;-1;0;e;e;e;e
171;191;-1;0;e;e;e;e
172;192;-1;0;e;e;e;e
173;193;-1;0;e;e;e;e
174;194;-1;0;e;e;e;e
175;195;-1;0;e;e;e;e
176;196;-1;0;e;e;e;e
177;197;-1;0;e;e;e;e
178;198;-1;0;e;e;e;e
179;199;-1;0;e;e;e;e
180;200;-1;0;e;e;e;e
181;201;-1;0;e;e;e;e
182;202;-1;0;e;e;e;e
183;203;-1;0;e;e;e;e
184;204;-1;0;e;e;e;e
185;205;-1;0;e;e;e;e
186;206;-1;0;e;e;e;e
187;207;-1;0;e;e;e;e
188;208;-1;0;e;e;e;e
189;209;-1;0;e;e;e;e
190;210;-1;0;e;e;e;e
191;211;-1;0;e;e;e;e
192;212;-1;0;e;e;e;e
193;213;-1;0;e;e;e;e
194;214;-1;0;e;e;e;e
195;215;-1;0;e;e;e;e
196;216;-1;0;e;e;e;e
197;217;-1;0;e;e;e;e
198;218;-1;0;e;e;e;e
199;219;-1;0;e;e;e;e
200;220;-1;0;e;e;e;e
201;221;-1;0;e;e;e;e
202;222;-1;0;e;e;e;e
203;223;-1;0;e;e;e;e
204;224;-1;0;e;e;e;e
205;225;-1;0;e;e;e;e
206;226;-1;0;e;e;e;e
207;227;-1;0;e;e;e;e
208;228;-1;0;e;e;e;e
209;229;-1;0;e;e;e;e
210;230;-1;0;e;e;e;e
211;231;-1;0;e;e;e;e
212;232;-1;0;e;e;e;e
213;233;-1;0;e;e;e;e
214;234;-1;0;e;e;e;e
215;235;-1;0;e;e;e;e
216;236;-1;0;e;e;e;e
217;237;-1;0;e;e;e;e
218;238;-1;0;e;e;e;e
219;239;-1;0;e;e;e;e
220;240;-1;0;e;e;e;e
221;241;-1;0;e;e;e;e
222;242;-1;0;e;e;e;e
223;243;-1;0;e;e;e;e
224;244;-1;0;e;e;e;e
225;245;-1;0;e;e;e;e
226;246;-1;0;e;e;e;e
227;247;-1;0;e;e;e;e
228;248;-1;0;e;e;e;e
229;249;-1;0;e;e;e;e
230;250;-1;0;e;e;e;e
231;251;-1;0;e;e;e;e
232;252;-1;0;e;e;e;e
233;253;-1;0;e;e;e;e
234;254;-1;0;e;e;e;e
235;255;-1;0;e;e;e;e
236;256;-1;0;e;e;e;e
237;257;-1;0;e;e;e;e
238;258;-1;0;e;e;e;e
239;259;-1;0;e;e;e;e
240;260;-1;0;e;e;e;e
241;261;-1;0;e;e;e;e
242;262;-1;0;e;e;e;e
243;263;-1;0;e;e;e;e
244;264;-1;0;e;e;e;e
245;265;-1;0;e;e;e;e
246;266;-1;0;e;e;e;e
247;267;-1;0;e;e;e;e
248;268;-1;0;e;e;e;e
249;269;-1;0;e;e;e;e
250;270;-1;0;e;e;e;e
251;271;-1;0;e;e;e;e
252;272;-1;0;e;e;e;e
253;273;-1;0;e;e;e;e
254;274;-1;0;e;e;e;e
255;275;-1;0;e;e;e;e
256;276;-1;0;e;e;e;e
257;277;-1;0;e;e;e;e
258;278;-1;0;e;e;e;e
259;279;-1;0;e;e;e;e
260;280;-1;0;e;e;e;e
261;281;-1;0;e;e;e;e
262;282;-1;0;e;e;e;e
263;283;-1;0;e;e;e;e
264;284;-1;0;e;e;e;e
265;285;-1;0;e;e;e;e
266;286;-1;0;e;e;e;e
267;287;-1;0;e;e;e;e
268;288;-1;0;e;e;e;e
269;289;-1;0;e;e;e;e
270;290;-1;0;e;e;e;e
271;291;-1;0;e;e;e;e
272;292;-1;0;e;e;e;e
273;293;-1;0;e;e;e;e
274;294;-1;0;e;e;e;e
275;295;-1;0;e;e;e;e
276;296;-1;0;e;e;e;e
277;297;-1;0;e;e;e;e
278;298;-1;0;e;e;e;e
279;299;-1;0;e;e;e;e
280;300;-1;0;e;e;e;e
281;301;-1;0;e;e;e;e
282;302;-1;0;e;e;e;e
283;303;-1;0;e;e;e;e
284;304;-1;0;e;e;e;e
285;305;-1;0;e;e;e;e
286;306;-1;0;e;e;e;e
287;307;-1;0;e;e;e;e
288;308;-1;0;e;e;e;e
289;309;-1;0;e;e;e;e
290;310;-1;0;e;e;e;e
291;311;-1;0;e;e;e;e
292;312;-1;0;e;e;e;e
293;313;-1;0;e;e;e;e
294;314;-1;0;e;e;e;e
295;315;-1;0;e;e;e;e
296;316;-1;0;e;e;e;e
297;317;-1;0;e;e;e;e
298;318;-1;0;e;e;e;e
299;319;-1;0;e;e;e;e
300;320;-1;0;e;e;e;e
301;321;-1;0;e;e;e;e
302;322;-1;0;e;e;e;e
303;323;-1;0;e;e;e;e
304;324;-1;0;e;e;e;e
305;325;-1;0;e;e;e;e
306;326;-1;0;e;e;e;e
307;327;-1;0;e;e;e;e
308;328;-1;0;e;e;e;e
309;329;-1;0;e;e;e;e
310;330;-1;0;e;e;e;e
311;331;-1;0;e;e;e;e
312;332;-1;0;e;e;e;e
313;333;-1;0;e;e;e;e
314;334;-1;0;e;e;e;e
315;335;-1;0;e;e;e;e
316;336;-1;0;e;e;e;e
317;337;-1;0;e;e;e;e
318;338;-1;0;e;e;e;e
319;339;-1;0;e;e;e;e
320;340;-1;0;e;e;e;e
321;341;-1;0;e;e;e;e
322;342;-1;0;e;e;e;e
323;343;-1;0;e;e;e;e
324;344;-1;0;e;e;e;e
325;345;-1;0;e;e;e;e
326;346;-1;0;e;e;e;e
327;347;-1;0;e;e;e;e
328;348;-1;0;e;e;e;e
329;349;-1;0;e;e;e;e
330;350;-1;0;e;e;e;e
331;351;-1;0;e;e;e;e
332;352;-1;0;e;e;e;e
333;353;-1;0;e;e;e;e
334;354;-1;0;e;e;e;e
335;355;-1;0;e;e;e;e
336;356;-1;0;e;e;e;e
337;357;-1;0;e;e;e;e
338;358;-1;0;e;e;e;e
339;359;-1;0;e;e;e;e
340;360;-1;0;e;e;e;e
341;361;-1;0;e;e;e;e
342;362;-1;0;e;e;e;e
343;363;-1;0;e;e;e;e
344;364;-1;0;e;e;e;e
345;365;-1;0;e;e;e;e
346;366;-1;0;e;e;e;e
347;367;-1;0;e;e;e;e
348;368;-1;0;e;e;e;e
349;369;-1;0;e;e;e;e
350;370;-1;0;e;e;e;e
351;371;-1;0;e;e;e;e
352;372;-1;0;e;e;e;e
353;373;-1;0;e;e;e;e
354;374;-1;0;e;e;e;e
355;375;-1;0;e;e;e;e
356;376;-1;0;e;e;e;e
357;377;-1;0;e;e;e;e
358;378;-1;0;e;e;e;e
359;379;-1;0;e;e;e;e
360;380;-1;0;e;e;e;e
361;381;-1;0;e;e;e;e
362;382;-1;0;e;e;e;e
363;383;-1;0;e;e;e;e
364;384;-1;0;e;e;e;e
365;385;-1;0;e;e;e;e
366;386;-1;0;e;e;e;e
367;387;-1;0;e;e;e;e
368;388;-1;0;e;e;e;e
369;389;-1;0;e;e;e;e
370;390;-1;0;e;e;e;e
371;391;-1;0;e;e;e;e
372;392;-1;0;e;e;e;e
373;393;-1;0;e;e;e;e
374;394;-1;0;e;e;e;e
375;395;-1;0;e;e;e;e
376;396;-1;0;e;e;e;e
377;397;-1;0;e;e;e;e
378;398;-1;0;e;e;e;e
379;399;-1;0;e;e;e;e
380;400;-1;0;e;e;e;e
381;401;-1;0;e;e;e;e
382;402;-1;0;e;e;e;e
383;403;-1;0;e;e;e;e
384;404;-1;0;e;e;e;e
385;405;-1;0;e;e;e;e
386;406;-1;0;e;e;e;e
387;407;-1;0;e;e;e;e
388;408;-1;0;e;e;e;e
389;409;-1;0;e;e;e;e
390;410;-1;0;e;e;e;e
391;411;-1;0;e;e;e;e
392;412;-1;0;e;e;e;e
393;413;-1;0;e;e;e;e
394;414;-1;0;e;e;e;e
395;415;-1;0;e;e;e;e
396;416;-1;0;e;e;e;e
397;417;-1;0;e;e;e;e
398;418;-1;0;e;e;e;e
399;419;-1;0;e;e;e;e
400;420;-1;0;e;e;e;e
401;421;-1;0;e;e;e;e
402;422;-1;0;e;e;e;e
403;423;-1;0;e;e;e;e
404;424;-1;0;e;e;e;e
405;425;-1;0;e;e;e;e
406;426;-1;0;e;e;e;e
407;427;-1;0;e;e;e;e
408;428;-1;0;e;e;e;e
409;429;-1;0;e;e;e;e
410;430;-1;0;e;e;e;e
411;431;-1;0;e;e;e;e
412;432;-1;0;e;e;e;e
413;433;-1;0;e;e;e;e
414;434;-1;0;e;e;e;e
415;435;-1;0;e;e;e;e
416;436;-1;0;e;e;e;e
417;437;-1;0;e;e;e;e
418;438;-1;0;e;e;e;e
419;439;-1;0;e;e;e;e
420;440;-1;0;e;e;e;e
421;441;-1;0;e;e;e;e
422;442;-1;0;e;e;e;e
423;443;-1;0;e;e;e;e
424;444;-1;0;e;e;e;e
425;445;-1;0;e;e;e;e
426;446;-1;0;e;e;e;e
427;447;-1;0;e;e;e;e
428;448;-1;0;e;e;e;e
429;449;-1;0;e;e;e;e
430;450;-1;0;e;e;e;e
431;451;-1;0;e;e;e;e
432;452;-1;0;e;e;e;e
433;453;-1;0;e;e;e;e
434;454;-1;0;e;e;e;e
435;455;-1;0;e;e;e;e
436;456;-1;0;e;e;e;e
437;457;-1;0;e;e;e;e
438;458;-1;0;e;e;e;e
439;459;-1;0;e;e;e;e
440;460;-1;0;e;e;e;e
441;461;-1;0;e;e;e;e
442;462;-1;0;e;e;e;e
443;463;-1;0;e;e;e;e
444;464;-1;0;e;e;e;e
445;465;-1;0;e;e;e;e
446;466;-1;0;e;e;e;e
447;467;-1;0;e;e;e;e
448;468;-1;0;e;e;e;e
449;469;-1;0;e;e;e;e
450;470;-1;0;e;e;e;e
451;471;-1;0;e;e;e;e
452;472;-1;0;e;e;e;e
453;473;-1;0;e;e;e;e
454;474;-1;0;e;e;e;e
455;475;-1;0;e;e;e;e
456;476;-1;0;e;e;e;e
457;477;-1;0;e;e;e;e
458;478;-1;0;e;e;e;e
459;479;-1;0;e;e;e;e
460;480;-1;0;e;e;e;e
461;481;-1;0;e;e;e;e
462;482;-1;0;e;e;e;e
463;483;-1;0;e;e;e;e
4;5;-1;1;t;1;2;1
4;6;-1;1;t;1;3;1
4;7;-1;1;t;1;4;1
4;8;-1;1;t;1;5;1
4;9;-1;1;t;1;6;1
4;10;-1;1;t;1;7;1
4;11;-1;1;t;1;8;1
4;12;-1;1;t;1;9;1
4;13;-1;1;t;1;10;1
4;14;-1;1;t;1;11;1
4;15;-1;1;t;1;12;1
4;16;-1;1;t;1;13;1
4;17;-1;1;t;1;14;1
4;18;-1;1;t;1;15;1
4;19;-1;1;t;1;16;1
4;20;-1;1;t;1;17;1
4;21;-1;1;t;1;18;1
4;22;-1;1;t;1;19;1
4;23;-1;1;t;1;20;1
5;4;-1;1;t;2;1;1
5;6;-1;1;t;2;3;1
5;7;-1;1;t;2;4;1
5;8;-1;1;t;2;5;1
5;9;-1;1;t;2;6;1
5;10;-1;1;t;2;7;1
5;11;-1;1;t;2;8;1
5;12;-1;1;t;2;9;1
5;13;-1;1;t;2;10;1
5;14;-1;1;t;2;11;1
5;15;-1;1;t;2;12;1
5;16;-1;1;t;2;13;1
5;17;-1;1;t;2;14;1
5;18;-1;1;t;2;15;1
5;19;-1;1;t;2;16;1
5;20;-1;1;t;2;17;1
5;21;-1;1;t;2;18;1
5;22;-1;1;t;2;19;1
5;23;-1;1;t;2;20;1
6;4;-1;1;t;3;1;1
6;5;-1;1;t;3;2;1
6;7;-1;1;t;3;4;1
6;8;-1;1;t;3;5;1
6;9;-1;1;t;3;6;1
6;10;-1;1;t;3;7;1
6;11;-1;1;t;3;8;1
6;12;-1;1;t;3;9;1
6;13;-1;1;t;3;10;1
6;14;-1;1;t;3;11;1
6;15;-1;1;t;3;12;1
6;16;-1;1;t;3;13;1
6;17;-1;1;t;3;14;1
6;18;-1;1;t;3;15;1
6;19;-1;1;t;3;16;1
6;20;-1;1;t;3;17;1
6;21;-1;1;t;3;18;1
6;22;-1;1;t;3;19;1
6;23;-1;1;t;3;20;1
7;4;-1;1;t;4;1;1
7;5;-1;1;t;4;2;1
7;6;-1;1;t;4;3;1
7;8;-1;1;t;4;5;1
7;9;-1;1;t;4;6;1
7;10;-1;1;t;4;7;1
7;11;-1;1;t;4;8;1
7;12;-1;1;t;4;9;1
7;13;-1;1;t;4;10;1
7;14;-1;1;t;4;11;1
7;15;-1;1;t;4;12;1
7;16;-1;1;t;4;13;1
7;17;-1;1;t;4;14;1
7;18;-1;1;t;4;15;1
7;19;-1;1;t;4;16;1
7;20;-1;1;t;4;17;1
7;21;-1;1;t;4;18;1
7;22;-1;1;t;4;19;1
7;23;-1;1;t;4;20;1
8;4;-1;1;t;5;1;1
8;5;-1;1;t;5;2;1
8;6;-1;1;t;5;3;1
8;7;-1;1;t;5;4;1
8;9;-1;1;t;5;6;1
8;10;-1;1;t;5;7;1
8;11;-1;1;t;5;8;1
8;12;-1;1;t;5;9;1
8;13;-1;1;t;5;10;1
8;14;-1;1;t;5;11;1
8;15;-1;1;t;5;12;1
8;16;-1;1;t;5;13;1
8;17;-1;1;t;5;14;1
8;18;-1;1;t;5;15;1
8;19;-1;1;t;5;16;1
8;20;-1;1;t;5;17;1
8;21;-1;1;t;5;18;1
8;22;-1;1;t;5;19;1
8;23;-1;1;t;5;20;1
9;4;-1;1;t;6;1;1
9;5;-1;1;t;6;2;1
9;6;-1;1;t;6;3;1
9;7;-1;1;t;6;4;1
9;8;-1;1;t;6;5;1
9;10;-1;1;t;6;7;1
9;11;-1;1;t;6;8;1
9;12;-1;1;t;6;9;1
9;13;-1;1;t;6;10;1
9;14;-1;1;t;6;11;1
9;15;-1;1;t;6;12;1
9;16;-1;1;t;6;13;1
9;17;-1;1;t;6;14;1
9;18;-1;1;t;6;15;1
9;19;-1;1;t;6;16;1
9;20;-1;1;t;6;17;1
9;21;-1;1;t;6;18;1
9;22;-1;1;t;6;19;1
9;23;-1;1;t;6;20;1
10;4;-1;1;t;7;1;1
10;5;-1;1;t;7;2;1
10;6;-1;1;t;7;3;1
10;7;-1;1;t;7;4;1
10;8;-1;1;t;7;5;1
10;9;-1;1;t;7;6;1
10;11;-1;1;t;7;8;1
10;12;-1;1;t;7;9;1
10;13;-1;1;t;7;10;1
10;14;-1;1;t;7;11;1
10;15;-1;1;t;7;12;1
10;16;-1;1;t;7;13;1
10;17;-1;1;t;7;14;1
10;18;-1;1;t;7;15;1
10;19;-1;1;t;7;16;1
10;20;-1;1;t;7;17;1
10;21;-1;1;t;7;18;1
10;22;-1;1;t;7;19;1
10;23;-1;1;t;7;20;1
11;4;-1;1;t;8;1;1
11;5;-1;1;t;8;2;1
11;6;-1;1;t;8;3;1
11;7;-1;1;t;8;4;1
11;8;-1;1;t;8;5;1
11;9;-1;1;t;8;6;1
11;10;-1;1;t;8;7;1
11;12;-1;1;t;8;9;1
11;13;-1;1;t;8;10;1
11;14;-1;1;t;8;11;1
11;15;-1;1;t;8;12;1
11;16;-1;1;t;8;13;1
11;17;-1;1;t;8;14;1
11;18;-1;1;t;8;15;1
11;19;-1;1;t;8;16;1
11;20;-1;1;t;8;17;1
11;21;-1;1;t;8;18;1
11;22;-1;1;t;8;19;1
11;23;-1;1;t;8;20;1
12;4;-1;1;t;9;1;1
12;5;-1;1;t;9;2;1
12;6;-1;1;t;9;3;1
12;7;-1;1;t;9;4;1
12;8;-1;1;t;9;5;1
12;9;-1;1;t;9;6;1
12;10;-1;1;t;9;7;1
12;11;-1;1;t;9;8;1
12;13;-1;1;t;9;10;1
12;14;-1;1;t;9;11;1
12;15;-1;1;t;9;12;1
12;16;-1;1;t;9;13;1
12;17;-1;1;t;9;14;1
12;18;-1;1;t;9;15;1
12;19;-1;1;t;9;16;1
12;20;-1;1;t;9;17;1
12;21;-1;1;t;9;18;1
12;22;-1;1;t;9;19;1
12;23;-1;1;t;9;20;1
13;4;-1;1;t;10;1;1
13;5;-1;1;t;10;2;1
13;6;-1;1;t;10;3;1
13;7;-1;1;t;10;4;1
13;8;-1;1;t;10;5;1
13;9;-1;1;t;10;6;1
13;10;-1;1;t;10;7;1
13;11;-1;1;t;10;8;1
13;12;-1;1;t;10;9;1
13;14;-1;1;t;10;11;1
13;15;-1;1;t;10;12;1
13;16;-1;1;t;10;13;1
13;17;-1;1;t;10;14;1
13;18;-1;1;t;10;15;1
13;19;-1;1;t;10;16;1
13;20;-1;1;t;10;17;1
13;21;-1;1;t;10;18;1
13;22;-1;1;t;10;19;1
13;23;-1;1;t;10;20;1
14;4;-1;1;t;11;1;1
14;5;-1;1;t;11;2;1
14;6;-1;1;t;11;3;1
14;7;-1;1;t;11;4;1
14;8;-1;1;t;11;5;1
14;9;-1;1;t;11;6;1
14;10;-1;1;t;11;7;1
14;11;-1;1;t;11;8;1
14;12;-1;1;t;11;9;1
14;13;-1;1;t;11;10;1
14;15;-1;1;t;11;12;1
14;16;-1;1;t;11;13;1
14;17;-1;1;t;11;14;1
14;18;-1;1;t;11;15;1
14;19;-1;1;t;11;16;1
14;20;-1;1;t;11;17;1
14;21;-1;1;t;11;18;1
14;22;-1;1;t;11;19;1
14;23;-1;1;t;11;20;1
15;4;-1;1;t;12;1;1
15;5;-1;1;t;12;2;1
15;6;-1;1;t;12;3;1
15;7;-1;1;t;12;4;1
15;8;-1;1;t;12;5;1
15;9;-1;1;t;12;6;1
15;10;-1;1;t;12;7;1
15;11;-1;1;t;12;8;1
15;12;-1;1;t;12;9;1
15;13;-1;1;t;12;10;1
15;14;-1;1;t;12;11;1
15;16;-1;1;t;12;13;1
15;17;-1;1;t;12;14;1
15;18;-1;1;t;12;15;1
15;19;-1;1;t;12;16;1
15;20;-1;1;t;12;17;1
15;21;-1;1;t;12;18;1
15;22;-1;1;t;12;19;1
15;23;-1;1;t;12;20;1
16;4;-1;1;t;13;1;1
16;5;-1;1;t;13;2;1
16;6;-1;1;t;13;3;1
16;7;-1;1;t;13;4;1
16;8;-1;1;t;13;5;1
16;9;-1;1;t;13;6;1
16;10;-1;1;t;13;7;1
16;11;-1;1;t;13;8;1
16;12;-1;1;t;13;9;1
16;13;-1;1;t;13;10;1
16;14;-1;1;t;13;11;1
16;15;-1;1;t;13;12;1
16;17;-1;1;t;13;14;1
16;18;-1;1;t;13;15;1
16;19;-1;1;t;13;16;1
16;20;-1;1;t;13;17;1
16;21;-1;1;t;13;18;1
16;22;-1;1;t;13;19;1
16;23;-1;1;t;13;20;1
17;4;-1;1;t;14;1;1
17;5;-1;1;t;14;2;1
17;6;-1;1;t;14;3;1
17;7;-1;1;t;14;4;1
17;8;-1;1;t;14;5;1
17;9;-1;1;t;14;6;1
17;10;-1;1;t;14;7;1
17;11;-1;1;t;14;8;1
17;12;-1;1;t;14;9;1
17;13;-1;1;t;14;10;1
17;14;-1;1;t;14;11;1
17;15;-1;1;t;14;12;1
17;16;-1;1;t;14;13;1
17;18;-1;1;t;14;15;1
17;19;-1;1;t;14;16;1
17;20;-1;1;t;14;17;1
17;21;-1;1;t;14;18;1
17;22;-1;1;t;14;19;1
17;23;-1;1;t;14;20;1
18;4;-1;1;t;15;1;1
18;5;-1;1;t;15;2;1
18;6;-1;1;t;15;3;1
18;7;-1;1;t;15;4;1
18;8;-1;1;t;15;5;1
18;9;-1;1;t;15;6;1
18;10;-1;1;t;15;7;1
18;11;-1;1;t;15;8;1
18;12;-1;1;t;15;9;1
18;13;-1;1;t;15;10;1
18;14;-1;1;t;15;11;1
18;15;-1;1;t;15;12;1
18;16;-1;1;t;15;13;1
18;17;-1;1;t;15;14;1
18;19;-1;1;t;15;16;1
18;20;-1;1;t;15;17;1
18;21;-1;1;t;15;18;1
18;22;-1;1;t;15;19;1
18;23;-1;1;t;15;20;1
19;4;-1;1;t;16;1;1
19;5;-1;1;t;16;2;1
19;6;-1;1;t;16;3;1
19;7;-1;1;t;16;4;1
19;8;-1;1;t;16;5;1
19;9;-1;1;t;16;6;1
19;10;-1;1;t;16;7;1
19;11;-1;1;t;16;8;1
19;12;-1;1;t;16;9;1
19;13;-1;1;t;16;10;1
19;14;-1;1;t;16;11;1
19;15;-1;1;t;16;12;1
19;16;-1;1;t;16;13;1
19;17;-1;1;t;16;14;1
19;18;-1;1;t;16;15;1
19;20;-1;1;t;16;17;1
19;21;-1;1;t;16;18;1
19;22;-1;1;t;16;19;1
19;23;-1;1;t;16;20;1
20;4;-1;1;t;17;1;1
20;5;-1;1;t;17;2;1
20;6;-1;1;t;17;3;1
20;7;-1;1;t;17;4;1
20;8;-1;1;t;17;5;1
20;9;-1;1;t;17;6;1
20;10;-1;1;t;17;7;1
20;11;-1;1;t;17;8;1
20;12;-1;1;t;17;9;1
20;13;-1;1;t;17;10;1
20;14;-1;1;t;17;11;1
20;15;-1;1;t;17;12;1
20;16;-1;1;t;17;13;1
20;17;-1;1;t;17;14;1
20;18;-1;1;t;17;15;1
20;19;-1;1;t;17;16;1
20;21;-1;1;t;17;18;1
20;22;-1;1;t;17;19;1
20;23;-1;1;t;17;20;1
21;4;-1;1;t;18;1;1
21;5;-1;1;t;18;2;1
21;6;-1;1;t;18;3;1
21;7;-1;1;t;18;4;1
21;8;-1;1;t;18;5;1
21;9;-1;1;t;18;6;1
21;10;-1;1;t;18;7;1
21;11;-1;1;t;18;8;1
21;12;-1;1;t;18;9;1
21;13;-1;1;t;18;10;1
21;14;-1;1;t;18;11;1
21;15;-1;1;t;18;12;1
21;16;-1;1;t;18;13;1
21;17;-1;1;t;18;14;1
21;18;-1;1;t;18;15;1
21;19;-1;1;t;18;16;1
21;20;-1;1;t;18;17;1
21;22;-1;1;t;18;19;1
21;23;-1;1;t;18;20;1
22;4;-1;1;t;19;1;1
22;5;-1;1;t;19;2;1
22;6;-1;1;t;19;3;1
22;7;-1;1;t;19;4;1
22;8;-1;1;t;19;5;1
22;9;-1;1;t;19;6;1
22;10;-1;1;t;19;7;1
22;11;-1;1;t;19;8;1
22;12;-1;1;t;19;9;1
22;13;-1;1;t;19;10;1
22;14;-1;1;t;19;11;1
22;15;-1;1;t;19;12;1
22;16;-1;1;t;19;13;1
22;17;-1;1;t;19;14;1
22;18;-1;1;t;19;15;1
22;19;-1;1;t;19;16;1
22;20;-1;1;t;19;17;1
22;21;-1;1;t;19;18;1
22;23;-1;1;t;19;20;1
23;4;-1;1;t;20;1;1
23;5;-1;1;t;20;2;1
23;6;-1;1;t;20;3;1
23;7;-1;1;t;20;4;1
23;8;-1;1;t;20;5;1
23;9;-1;1;t;20;6;1
23;10;-1;1;t;20;7;1
23;11;-1;1;t;20;8;1
23;12;-1;1;t;20;9;1
23;13;-1;1;t;20;10;1
23;14;-1;1;t;20;11;1
23;15;-1;1;t;20;12;1
23;16;-1;1;t;20;13;1
23;17;-1;1;t;20;14;1
23;18;-1;1;t;20;15;1
23;19;-1;1;t;20;16;1
23;20;-1;1;t;20;17;1
23;21;-1;1;t;20;18;1
23;22;-1;1;t;20;19;1
244;245;-1;1;t;1;2;13
244;246;-1;1;t;1;3;13
244;247;-1;1;t;1;4;13
244;248;-1;1;t;1;5;13
244;249;-1;1;t;1;6;13
244;250;-1;1;t;1;7;13
244;251;-1;1;t;1;8;13
244;252;-1;1;t;1;9;13
244;253;-1;1;t;1;10;13
244;254;-1;1;t;1;11;13
244;255;-1;1;t;1;12;13
244;256;-1;1;t;1;13;13
244;257;-1;1;t;1;14;13
244;258;-1;1;t;1;15;13
244;259;-1;1;t;1;16;13
244;260;-1;1;t;1;17;13
244;261;-1;1;t;1;18;13
244;262;-1;1;t;1;19;13
244;263;-1;1;t;1;20;13
245;244;-1;1;t;2;1;13
245;246;-1;1;t;2;3;13
245;247;-1;1;t;2;4;13
245;248;-1;1;t;2;5;13
245;249;-1;1;t;2;6;13
245;250;-1;1;t;2;7;13
245;251;-1;1;t;2;8;13
245;252;-1;1;t;2;9;13
245;253;-1;1;t;2;10;13
245;254;-1;1;t;2;11;13
245;255;-1;1;t;2;12;13
245;256;-1;1;t;2;13;13
245;257;-1;1;t;2;14;13
245;258;-1;1;t;2;15;13
245;259;-1;1;t;2;16;13
245;260;-1;1;t;2;17;13
245;261;-1;1;t;2;18;13
245;262;-1;1;t;2;19;13
245;263;-1;1;t;2;20;13
246;244;-1;1;t;3;1;13
246;245;-1;1;t;3;2;13
246;247;-1;1;t;3;4;13
246;248;-1;1;t;3;5;13
246;249;-1;1;t;3;6;13
246;250;-1;1;t;3;7;13
246;251;-1;1;t;3;8;13
246;252;-1;1;t;3;9;13
246;253;-1;1;t;3;10;13
246;254;-1;1;t;3;11;13
246;255;-1;1;t;3;12;13
246;256;-1;1;t;3;13;13
246;257;-1;1;t;3;14;13
246;258;-1;1;t;3;15;13
246;259;-1;1;t;3;16;13
246;260;-1;1;t;3;17;13
246;261;-1;1;t;3;18;13
246;262;-1;1;t;3;19;13
246;263;-1;1;t;3;20;13
247;244;-1;1;t;4;1;13
247;245;-1;1;t;4;2;13
247;246;-1;1;t;4;3;13
247;248;-1;1;t;4;5;13
247;249;-1;1;t;4;6;13
247;250;-1;1;t;4;7;13
247;251;-1;1;t;4;8;13
247;252;-1;1;t;4;9;13
247;253;-1;1;t;4;10;13
247;254;-1;1;t;4;11;13
247;255;-1;1;t;4;12;13
247;256;-1;1;t;4;13;13
247;257;-1;1;t;4;14;13
247;258;-1;1;t;4;15;13
247;259;-1;1;t;4;16;13
247;260;-1;1;t;4;17;13
247;261;-1;1;t;4;18;13
247;262;-1;1;t;4;19;13
247;263;-1;1;t;4;20;13
248;244;-1;1;t;5;1;13
248;245;-1;1;t;5;2;13
248;246;-1;1;t;5;3;13
248;247;-1;1;t;5;4;13
248;249;-1;1;t;5;6;13
248;250;-1;1;t;5;7;13
248;251;-1;1;t;5;8;13
248;252;-1;1;t;5;9;13
248;253;-1;1;t;5;10;13
248;254;-1;1;t;5;11;13
248;255;-1;1;t;5;12;13
248;256;-1;1;t;5;13;13
248;257;-1;1;t;5;14;13
248;258;-1;1;t;5;15;13
248;259;-1;1;t;5;16;13
248;260;-1;1;t;5;17;13
248;261;-1;1;t;5;18;13
248;262;-1;1;t;5;19;13
248;263;-1;1;t;5;20;13
249;244;-1;1;t;6;1;13
249;245;-1;1;t;6;2;13
249;246;-1;1;t;6;3;13
249;247;-1;1;t;6;4;13
249;248;-1;1;t;6;5;13
249;250;-1;1;t;6;7;13
249;251;-1;1;t;6;8;13
249;252;-1;1;t;6;9;13
249;253;-1;1;t;6;10;13
249;254;-1;1;t;6;11;13
249;255;-1;1;t;6;12;13
249;256;-1;1;t;6;13;13
249;257;-1;1;t;6;14;13
249;258;-1;1;t;6;15;13
249;259;-1;1;t;6;16;13
249;260;-1;1;t;6;17;13
249;261;-1;1;t;6;18;13
249;262;-1;1;t;6;19;13
249;263;-1;1;t;6;20;13
250;244;-1;1;t;7;1;13
250;245;-1;1;t;7;2;13
250;246;-1;1;t;7;3;13
250;247;-1;1;t;7;4;13
250;248;-1;1;t;7;5;13
250;249;-1;1;t;7;6;13
250;251;-1;1;t;7;8;13
250;252;-1;1;t;7;9;13
250;253;-1;1;t;7;10;13
250;254;-1;1;t;7;11;13
250;255;-1;1;t;7;12;13
250;256;-1;1;t;7;13;13
250;257;-1;1;t;7;14;13
250;258;-1;1;t;7;15;13
250;259;-1;1;t;7;16;13
250;260;-1;1;t;7;17;13
250;261;-1;1;t;7;18;13
250;262;-1;1;t;7;19;13
250;263;-1;1;t;7;20;13
251;244;-1;1;t;8;1;13
251;245;-1;1;t;8;2;13
251;246;-1;1;t;8;3;13
251;247;-1;1;t;8;4;13
251;248;-1;1;t;8;5;13
251;249;-1;1;t;8;6;13
251;250;-1;1;t;8;7;13
251;252;-1;1;t;8;9;13
251;253;-1;1;t;8;10;13
251;254;-1;1;t;8;11;13
251;255;-1;1;t;8;12;13
251;256;-1;1;t;8;13;13
251;257;-1;1;t;8;14;13
251;258;-1;1;t;8;15;13
251;259;-1;1;t;8;16;13
251;260;-1;1;t;8;17;13
251;261;-1;1;t;8;18;13
251;262;-1;1;t;8;19;13
251;263;-1;1;t;8;20;13
252;244;-1;1;t;9;1;13
252;245;-1;1;t;9;2;13
252;246;-1;1;t;9;3;13
252;247;-1;1;t;9;4;13
252;248;-1;1;t;9;5;13
252;249;-1;1;t;9;6;13
252;250;-1;1;t;9;7;13
252;251;-1;1;t;9;8;13
252;253;-1;1;t;9;10;13
252;254;-1;1;t;9;11;13
252;255;-1;1;t;9;12;13
252;256;-1;1;t;9;13;13
252;257;-1;1;t;9;14;13
252;258;-1;1;t;9;15;13
252;259;-1;1;t;9;16;13
252;260;-1;1;t;9;17;13
252;261;-1;1;t;9;18;13
252;262;-1;1;t;9;19;13
252;263;-1;1;t;9;20;13
253;244;-1;1;t;10;1;13
253;245;-1;1;t;10;2;13
253;246;-1;1;t;10;3;13
253;247;-1;1;t;10;4;13
253;248;-1;1;t;10;5;13
253;249;-1;1;t;10;6;13
253;250;-1;1;t;10;7;13
253;251;-1;1;t;10;8;13
253;252;-1;1;t;10;9;13
253;254;-1;1;t;10;11;13
253;255;-1;1;t;10;12;13
253;256;-1;1;t;10;13;13
253;257;-1;1;t;10;14;13
253;258;-1;1;t;10;15;13
253;259;-1;1;t;10;16;13
253;260;-1;1;t;10;17;13
253;261;-1;1;t;10;18;13
253;262;-1;1;t;10;19;13
253;263;-1;1;t;10;20;13
254;244;-1;1;t;11;1;13
254;245;-1;1;t;11;2;13
254;246;-1;1;t;11;3;13
254;247;-1;1;t;11;4;13
254;248;-1;1;t;11;5;13
254;249;-1;1;t;11;6;13
254;250;-1;1;t;11;7;13
254;251;-1;1;t;11;8;13
254;252;-1;1;t;11;9;13
254;253;-1;1;t;11;10;13
254;255;-1;1;t;11;12;13
254;256;-1;1;t;11;13;13
254;257;-1;1;t;11;14;13
254;258;-1;1;t;11;15;13
254;259;-1;1;t;11;16;13
254;260;-1;1;t;11;17;13
254;261;-1;1;t;11;18;13
254;262;-1;1;t;11;19;13
254;263;-1;1;t;11;20;13
255;244;-1;1;t;12;1;13
255;245;-1;1;t;12;2;13
255;246;-1;1;t;12;3;13
255;247;-1;1;t;12;4;13
255;248;-1;1;t;12;5;13
255;249;-1;1;t;12;6;13
255;250;-1;1;t;12;7;13
255;251;-1;1;t;12;8;13
255;252;-1;1;t;12;9;13
255;253;-1;1;t;12;10;13
255;254;-1;1;t;12;11;13
255;256;-1;1;t;12;13;13
255;257;-1;1;t;12;14;13
255;258;-1;1;t;12;15;13
255;259;-1;1;t;12;16;13
255;260;-1;1;t;12;17;13
255;261;-1;1;t;12;18;13
255;262;-1;1;t;12;19;13
255;263;-1;1;t;12;20;13
256;244;-1;1;t;13;1;13
256;245;-1;1;t;13;2;13
256;246;-1;1;t;13;3;13
256;247;-1;1;t;13;4;13
256;248;-1;1;t;13;5;13
256;249;-1;1;t;13;6;13
256;250;-1;1;t;13;7;13
256;251;-1;1;t;13;8;13
256;252;-1;1;t;13;9;13
256;253;-1;1;t;13;10;13
256;254;-1;1;t;13;11;13
256;255;-1;1;t;13;12;13
256;257;-1;1;t;13;14;13
256;258;-1;1;t;13;15;13
256;259;-1;1;t;13;16;13
256;260;-1;1;t;13;17;13
256;261;-1;1;t;13;18;13
256;262;-1;1;t;13;19;13
256;263;-1;1;t;13;20;13
257;244;-1;1;t;14;1;13
257;245;-1;1;t;14;2;13
257;246;-1;1;t;14;3;13
257;247;-1;1;t;14;4;13
257;248;-1;1;t;14;5;13
257;249;-1;1;t;14;6;13
257;250;-1;1;t;14;7;13
257;251;-1;1;t;14;8;13
257;252;-1;1;t;14;9;13
257;253;-1;1;t;14;10;13
257;254;-1;1;t;14;11;13
257;255;-1;1;t;14;12;13
257;256;-1;1;t;14;13;13
257;258;-1;1;t;14;15;13
257;259;-1;1;t;14;16;13
257;260;-1;1;t;14;17;13
257;261;-1;1;t;14;18;13
257;262;-1;1;t;14;19;13
257;263;-1;1;t;14;20;13
258;244;-1;1;t;15;1;13
258;245;-1;1;t;15;2;13
258;246;-1;1;t;15;3;13
258;247;-1;1;t;15;4;13
258;248;-1;1;t;15;5;13
258;249;-1;1;t;15;6;13
258;250;-1;1;t;15;7;13
258;251;-1;1;t;15;8;13
258;252;-1;1;t;15;9;13
258;253;-1;1;t;15;10;13
258;254;-1;1;t;15;11;13
258;255;-1;1;t;15;12;13
258;256;-1;1;t;15;13;13
258;257;-1;1;t;15;14;13
258;259;-1;1;t;15;16;13
258;260;-1;1;t;15;17;13
258;261;-1;1;t;15;18;13
258;262;-1;1;t;15;19;13
258;263;-1;1;t;15;20;13
259;244;-1;1;t;16;1;13
259;245;-1;1;t;16;2;13
259;246;-1;1;t;16;3;13
259;247;-1;1;t;16;4;13
259;248;-1;1;t;16;5;13
259;249;-1;1;t;16;6;13
259;250;-1;1;t;16;7;13
259;251;-1;1;t;16;8;13
259;252;-1;1;t;16;9;13
259;253;-1;1;t;16;10;13
259;254;-1;1;t;16;11;13
259;255;-1;1;t;16;12;13
259;256;-1;1;t;16;13;13
259;257;-1;1;t;16;14;13
259;258;-1;1;t;16;15;13
259;260;-1;1;t;16;17;13
259;261;-1;1;t;16;18;13
259;262;-1;1;t;16;19;13
259;263;-1;1;t;16;20;13
260;244;-1;1;t;17;1;13
260;245;-1;1;t;17;2;13
260;246;-1;1;t;17;3;13
260;247;-1;1;t;17;4;13
260;248;-1;1;t;17;5;13
260;249;-1;1;t;17;6;13
260;250;-1;1;t;17;7;13
260;251;-1;1;t;17;8;13
260;252;-1;1;t;17;9;13
260;253;-1;1;t;17;10;13
260;254;-1;1;t;17;11;13
260;255;-1;1;t;17;12;13
260;256;-1;1;t;17;13;13
260;257;-1;1;t;17;14;13
260;258;-1;1;t;17;15;13
260;259;-1;1;t;17;16;13
260;261;-1;1;t;17;18;13
260;262;-1;1;t;17;19;13
260;263;-1;1;t;17;20;13
261;244;-1;1;t;18;1;13
261;245;-1;1;t;18;2;13
261;246;-1;1;t;18;3;13
261;247;-1;1;t;18;4;13
261;248;-1;1;t;18;5;13
261;249;-1;1;t;18;6;13
261;250;-1;1;t;18;7;13
261;251;-1;1;t;18;8;13
261;252;-1;1;t;18;9;13
261;253;-1;1;t;18;10;13
261;254;-1;1;t;18;11;13
261;255;-1;1;t;18;12;13
261;256;-1;1;t;18;13;13
261;257;-1;1;t;18;14;13
261;258;-1;1;t;18;15;13
261;259;-1;1;t;18;16;13
261;260;-1;1;t;18;17;13
261;262;-1;1;t;18;19;13
261;263;-1;1;t;18;20;13
262;244;-1;1;t;19;1;13
262;245;-1;1;t;19;2;13
262;246;-1;1;t;19;3;13
262;247;-1;1;t;19;4;13
262;248;-1;1;t;19;5;13
262;249;-1;1;t;19;6;13
262;250;-1;1;t;19;7;13
262;251;-1;1;t;19;8;13
262;252;-1;1;t;19;9;13
262;253;-1;1;t;19;10;13
262;254;-1;1;t;19;11;13
262;255;-1;1;t;19;12;13
262;256;-1;1;t;19;13;13
262;257;-1;1;t;19;14;13
262;258;-1;1;t;19;15;13
262;259;-1;1;t;19;16;13
262;260;-1;1;t;19;17;13
262;261;-1;1;t;19;18;13
262;263;-1;1;t;19;20;13
263;244;-1;1;t;20;1;13
263;245;-1;1;t;20;2;13
263;246;-1;1;t;20;3;13
263;247;-1;1;t;20;4;13
263;248;-1;1;t;20;5;13
263;249;-1;1;t;20;6;13
263;250;-1;1;t;20;7;13
263;251;-1;1;t;20;8;13
263;252;-1;1;t;20;9;13
263;253;-1;1;t;20;10;13
263;254;-1;1;t;20;11;13
263;255;-1;1;t;20;12;13
263;256;-1;1;t;20;13;13
263;257;-1;1;t;20;14;13
263;258;-1;1;t;20;15;13
263;259;-1;1;t;20;16;13
263;260;-1;1;t;20;17;13
263;261;-1;1;t;20;18;13
263;262;-1;1;t;20;19;13
