1;0
2;0
3;136
4;-19
5;1
6;1
7;15
8;2
9;-16
10;-4
11;27
12;-5
13;-12
14;-16
15;4
16;-20
17;-7
18;-6
19;-3
20;-21
21;10
22;-11
23;-23
24;-1
25;0
26;-3
27;0
28;-7
29;-5
30;-3
31;2
32;-2
33;-3
34;5
35;1
36;2
37;-1
38;8
39;-6
40;5
41;-5
42;-5
43;-2
44;-5
45;-3
46;5
47;4
48;2
49;-2
50;-1
51;-5
52;-7
53;-1
54;1
55;-1
56;-1
57;-6
58;-4
59;-8
60;-1
61;6
62;1
63;7
64;7
65;5
66;1
67;-7
68;1
69;-3
70;-8
71;4
72;4
73;-5
74;-1
75;1
76;-3
77;-8
78;-3
79;15
80;1
81;2
82;5
83;-1
84;-8
85;-2
86;1
87;-4
88;-2
89;8
90;13
91;-9
92;6
93;7
94;3
95;4
96;-5
97;7
98;-3
99;1
100;6
101;-5
102;-8
103;-7
104;15
105;1
106;0
107;12
108;-4
109;-3
110;2
111;-3
112;-6
113;2
114;0
115;-14
116;0
117;-1
118;4
119;2
120;0
121;-12
122;9
123;-3
124;0
125;2
126;-2
127;-3
128;11
129;-2
130;0
131;1
132;-1
133;-5
134;-4
135;5
136;1
137;6
138;-2
139;0
140;-6
141;12
142;0
143;1
144;-20
145;0
146;1
147;0
148;-4
149;8
150;-11
151;-5
152;7
153;0
154;0
155;7
156;-4
157;-5
158;-1
159;1
160;4
161;-8
162;-4
163;7
164;12
165;-15
166;-2
167;-6
168;5
169;1
170;3
171;-1
172;-10
173;6
174;5
175;0
176;0
177;7
178;-3
179;-4
180;1
181;5
182;-2
183;-6
184;6
185;14
186;1
187;6
188;0
189;1
190;7
191;18
192;-4
193;1
194;2
195;2
196;-7
197;-3
198;7
199;4
200;-3
201;8
202;0
203;0
204;-3
205;-23
206;1
207;-6
208;-3
209;-3
210;-6
211;-8
212;16
213;-3
214;-1
215;0
216;8
217;-3
218;2
219;0
220;1
221;-3
222;0
223;1
224;1
225;16
226;0
227;6
228;0
229;1
230;0
231;-5
232;-5
233;-6
234;2
235;-2
236;-2
237;-3
238;-1
239;-7
240;-3
241;-1
242;0
243;5
244;2
245;-6
246;-1
247;-2
248;-6
249;10
250;1
251;6
252;-12
253;-13
254;4
255;1
256;13
257;-11
258;10
259;5
260;-11
261;-1
262;3
263;2
264;-9
265;7
266;2
267;0
268;-2
269;8
270;0
271;-4
272;-2
273;5
274;-9
275;3
276;-11
277;3
278;8
279;-2
280;14
281;-2
282;-5
283;0
284;9
285;3
286;-1
287;-8
288;-5
289;5
290;-1
291;-4
292;6
293;-4
294;5
295;1
296;8
297;-3
298;-4
299;-10
300;2
301;1
302;2
303;-1
304;-7
305;-2
306;-1
307;-7
308;7
309;0
310;4
311;-1
312;9
313;12
314;-4
315;-4
316;3
317;-3
318;10
319;10
320;-6
321;-5
322;0
323;2
324;8
325;-2
326;-1
327;12
328;-6
329;-4
330;-1
331;9
332;0
333;-3
334;3
335;-4
336;-8
337;-1
338;-4
339;-1
340;6
341;2
342;0
343;0
344;0
345;-2
346;-2
347;-1
348;-11
349;3
350;-6
351;-2
352;2
353;3
354;2
355;4
356;5
357;8
358;1
359;-5
360;-1
361;0
362;2
363;-4
364;-3
365;6
366;-3
367;5
368;11
369;-3
370;-1
371;-5
372;-1
373;0
374;-5
375;-2
376;-6
377;5
378;-6
379;6
380;-3
381;1
382;-2
383;-8
384;-1
385;-3
386;7
387;-5
388;2
389;-8
390;-1
391;0
392;1
393;-9
394;1
395;1
396;5
397;-2
398;5
399;2
400;-3
401;-5
402;-4
403;-2
404;2
405;0
406;-15
407;2
408;0
409;10
410;5
411;6
412;-8
413;2
414;0
415;1
416;1
417;-1
418;0
419;-6
420;6
421;4
422;1
423;2
424;-4
425;3
426;12
427;-8
428;6
429;1
430;3
431;-8
432;1
433;0
434;-2
435;-2
436;1
437;5
438;5
439;0
440;-4
441;1
442;4
443;8
444;-12
445;-13
446;3
447;-2
448;-8
449;-8
450;-3
451;2
452;5
453;2
454;6
455;-1
456;-8
457;-3
458;-4
459;-1
460;0
461;-3
462;-5
463;2
464;5
465;4
466;-3
467;3
468;-8
469;4
470;4
471;0
472;4
473;2
474;5
475;6
476;-1
477;-1
478;6
479;1
480;-5
481;-5
482;4
483;-3
