3;2;18;0;e;e;e;e
1;4;6;0;e;e;e;e
1;5;1;0;e;e;e;e
1;6;5;0;e;e;e;e
1;7;5;0;e;e;e;e
1;12;1;0;e;e;e;e
1;13;6;0;e;e;e;e
1;14;1;0;e;e;e;e
16;2;2;0;e;e;e;e
17;2;4;0;e;e;e;e
1;18;1;0;e;e;e;e
1;20;1;0;e;e;e;e
1;22;2;0;e;e;e;e
23;2;2;0;e;e;e;e
24;2;1;0;e;e;e;e
1;25;2;0;e;e;e;e
26;2;2;0;e;e;e;e
1;27;3;0;e;e;e;e
28;2;1;0;e;e;e;e
1;31;1;0;e;e;e;e
32;2;3;0;e;e;e;e
33;2;4;0;e;e;e;e
34;2;2;0;e;e;e;e
35;2;1;0;e;e;e;e
1;36;2;0;e;e;e;e
1;38;2;0;e;e;e;e
1;40;3;0;e;e;e;e
1;42;3;0;e;e;e;e
1;43;4;0;e;e;e;e
1;44;4;0;e;e;e;e
1;45;2;0;e;e;e;e
46;2;1;0;e;e;e;e
1;49;1;0;e;e;e;e
51;2;1;0;e;e;e;e
1;52;1;0;e;e;e;e
54;2;2;0;e;e;e;e
1;55;1;0;e;e;e;e
1;56;4;0;e;e;e;e
57;2;1;0;e;e;e;e
59;2;1;0;e;e;e;e
60;2;3;0;e;e;e;e
1;61;1;0;e;e;e;e
62;2;4;0;e;e;e;e
64;2;5;0;e;e;e;e
65;2;1;0;e;e;e;e
66;2;3;0;e;e;e;e
67;2;2;0;e;e;e;e
1;69;8;0;e;e;e;e
70;2;1;0;e;e;e;e
1;72;2;0;e;e;e;e
73;2;1;0;e;e;e;e
75;2;3;0;e;e;e;e
1;77;1;0;e;e;e;e
78;2;1;0;e;e;e;e
79;2;8;0;e;e;e;e
1;80;3;0;e;e;e;e
1;81;1;0;e;e;e;e
82;2;1;0;e;e;e;e
1;83;1;0;e;e;e;e
83;3;-1;0;l;10;e;e
82;3;-1;0;l;9;e;e
81;3;-1;0;l;8;e;e
80;3;-1;0;l;7;e;e
79;3;-1;0;l;6;e;e
78;3;-1;0;l;5;e;e
77;3;-1;0;l;4;e;e
76;3;-1;0;l;3;e;e
75;3;-1;0;l;2;e;e
74;3;-1;0;l;1;e;e
4;14;-1;0;e;e;e;e
5;15;-1;0;e;e;e;e
6;16;-1;0;e;e;e;e
7;17;-1;0;e;e;e;e
8;18;-1;0;e;e;e;e
9;19;-1;0;e;e;e;e
10;20;-1;0;e;e;e;e
11;21;-1;0;e;e;e;e
12;22;-1;0;e;e;e;e
13;23;-1;0;e;e;e;e
14;24;-1;0;e;e;e;e
15;25;-1;0;e;e;e;e
16;26;-1;0;e;e;e;e
17;27;-1;0;e;e;e;e
18;28;-1;0;e;e;e;e
19;29;-1;0;e;e;e;e
20;30;-1;0;e;e;e;e
21;31;-1;0;e;e;e;e
22;32;-1;0;e;e;e;e
23;33;-1;0;e;e;e;e
24;34;-1;0;e;e;e;e
25;35;-1;0;e;e;e;e
26;36;-1;0;e;e;e;e
27;37;-1;0;e;e;e;e
28;38;-1;0;e;e;e;e
29;39;-1;0;e;e;e;e
30;40;-1;0;e;e;e;e
31;41;-1;0;e;e;e;e
32;42;-1;0;e;e;e;e
33;43;-1;0;e;e;e;e
34;44;-1;0;e;e;e;e
35;45;-1;0;e;e;e;e
36;46;-1;0;e;e;e;e
37;47;-1;0;e;e;e;e
38;48;-1;0;e;e;e;e
39;49;-1;0;e;e;e;e
40;50;-1;0;e;e;e;e
41;51;-1;0;e;e;e;e
42;52;-1;0;e;e;e;e
43;53;-1;0;e;e;e;e
44;54;-1;0;e;e;e;e
45;55;-1;0;e;e;e;e
46;56;-1;0;e;e;e;e
47;57;-1;0;e;e;e;e
48;58;-1;0;e;e;e;e
49;59;-1;0;e;e;e;e
50;60;-1;0;e;e;e;e
51;61;-1;0;e;e;e;e
52;62;-1;0;e;e;e;e
53;63;-1;0;e;e;e;e
54;64;-1;0;e;e;e;e
55;65;-1;0;e;e;e;e
56;66;-1;0;e;e;e;e
57;67;-1;0;e;e;e;e
58;68;-1;0;e;e;e;e
59;69;-1;0;e;e;e;e
60;70;-1;0;e;e;e;e
61;71;-1;0;e;e;e;e
62;72;-1;0;e;e;e;e
63;73;-1;0;e;e;e;e
64;74;-1;0;e;e;e;e
65;75;-1;0;e;e;e;e
66;76;-1;0;e;e;e;e
67;77;-1;0;e;e;e;e
68;78;-1;0;e;e;e;e
69;79;-1;0;e;e;e;e
70;80;-1;0;e;e;e;e
71;81;-1;0;e;e;e;e
72;82;-1;0;e;e;e;e
73;83;-1;0;e;e;e;e
4;5;-1;1;t;1;2;1
4;6;-1;1;t;1;3;1
4;7;-1;1;t;1;4;1
4;8;-1;1;t;1;5;1
4;9;-1;1;t;1;6;1
4;10;-1;1;t;1;7;1
4;11;-1;1;t;1;8;1
4;12;-1;1;t;1;9;1
4;13;-1;1;t;1;10;1
5;4;-1;1;t;2;1;1
5;6;-1;1;t;2;3;1
5;7;-1;1;t;2;4;1
5;8;-1;1;t;2;5;1
5;9;-1;1;t;2;6;1
5;10;-1;1;t;2;7;1
5;11;-1;1;t;2;8;1
5;12;-1;1;t;2;9;1
5;13;-1;1;t;2;10;1
6;4;-1;1;t;3;1;1
6;5;-1;1;t;3;2;1
6;7;-1;1;t;3;4;1
6;8;-1;1;t;3;5;1
6;9;-1;1;t;3;6;1
6;10;-1;1;t;3;7;1
6;11;-1;1;t;3;8;1
6;12;-1;1;t;3;9;1
6;13;-1;1;t;3;10;1
7;4;-1;1;t;4;1;1
7;5;-1;1;t;4;2;1
7;6;-1;1;t;4;3;1
7;8;-1;1;t;4;5;1
7;9;-1;1;t;4;6;1
7;10;-1;1;t;4;7;1
7;11;-1;1;t;4;8;1
7;12;-1;1;t;4;9;1
7;13;-1;1;t;4;10;1
8;4;-1;1;t;5;1;1
8;5;-1;1;t;5;2;1
8;6;-1;1;t;5;3;1
8;7;-1;1;t;5;4;1
8;9;-1;1;t;5;6;1
8;10;-1;1;t;5;7;1
8;11;-1;1;t;5;8;1
8;12;-1;1;t;5;9;1
8;13;-1;1;t;5;10;1
9;4;-1;1;t;6;1;1
9;5;-1;1;t;6;2;1
9;6;-1;1;t;6;3;1
9;7;-1;1;t;6;4;1
9;8;-1;1;t;6;5;1
9;10;-1;1;t;6;7;1
9;11;-1;1;t;6;8;1
9;12;-1;1;t;6;9;1
9;13;-1;1;t;6;10;1
10;4;-1;1;t;7;1;1
10;5;-1;1;t;7;2;1
10;6;-1;1;t;7;3;1
10;7;-1;1;t;7;4;1
10;8;-1;1;t;7;5;1
10;9;-1;1;t;7;6;1
10;11;-1;1;t;7;8;1
10;12;-1;1;t;7;9;1
10;13;-1;1;t;7;10;1
11;4;-1;1;t;8;1;1
11;5;-1;1;t;8;2;1
11;6;-1;1;t;8;3;1
11;7;-1;1;t;8;4;1
11;8;-1;1;t;8;5;1
11;9;-1;1;t;8;6;1
11;10;-1;1;t;8;7;1
11;12;-1;1;t;8;9;1
11;13;-1;1;t;8;10;1
12;4;-1;1;t;9;1;1
12;5;-1;1;t;9;2;1
12;6;-1;1;t;9;3;1
12;7;-1;1;t;9;4;1
12;8;-1;1;t;9;5;1
12;9;-1;1;t;9;6;1
12;10;-1;1;t;9;7;1
12;11;-1;1;t;9;8;1
12;13;-1;1;t;9;10;1
13;4;-1;1;t;10;1;1
13;5;-1;1;t;10;2;1
13;6;-1;1;t;10;3;1
13;7;-1;1;t;10;4;1
13;8;-1;1;t;10;5;1
13;9;-1;1;t;10;6;1
13;10;-1;1;t;10;7;1
13;11;-1;1;t;10;8;1
13;12;-1;1;t;10;9;1
44;45;-1;1;t;1;2;5
44;46;-1;1;t;1;3;5
44;47;-1;1;t;1;4;5
44;48;-1;1;t;1;5;5
44;49;-1;1;t;1;6;5
44;50;-1;1;t;1;7;5
44;51;-1;1;t;1;8;5
44;52;-1;1;t;1;9;5
44;53;-1;1;t;1;10;5
45;44;-1;1;t;2;1;5
45;46;-1;1;t;2;3;5
45;47;-1;1;t;2;4;5
45;48;-1;1;t;2;5;5
45;49;-1;1;t;2;6;5
45;50;-1;1;t;2;7;5
45;51;-1;1;t;2;8;5
45;52;-1;1;t;2;9;5
45;53;-1;1;t;2;10;5
46;44;-1;1;t;3;1;5
46;45;-1;1;t;3;2;5
46;47;-1;1;t;3;4;5
46;48;-1;1;t;3;5;5
46;49;-1;1;t;3;6;5
46;50;-1;1;t;3;7;5
46;51;-1;1;t;3;8;5
46;52;-1;1;t;3;9;5
46;53;-1;1;t;3;10;5
47;44;-1;1;t;4;1;5
47;45;-1;1;t;4;2;5
47;46;-1;1;t;4;3;5
47;48;-1;1;t;4;5;5
47;49;-1;1;t;4;6;5
47;50;-1;1;t;4;7;5
47;51;-1;1;t;4;8;5
47;52;-1;1;t;4;9;5
47;53;-1;1;t;4;10;5
48;44;-1;1;t;5;1;5
48;45;-1;1;t;5;2;5
48;46;-1;1;t;5;3;5
48;47;-1;1;t;5;4;5
48;49;-1;1;t;5;6;5
48;50;-1;1;t;5;7;5
48;51;-1;1;t;5;8;5
48;52;-1;1;t;5;9;5
48;53;-1;1;t;5;10;5
49;44;-1;1;t;6;1;5
49;45;-1;1;t;6;2;5
49;46;-1;1;t;6;3;5
49;47;-1;1;t;6;4;5
49;48;-1;1;t;6;5;5
49;50;-1;1;t;6;7;5
49;51;-1;1;t;6;8;5
49;52;-1;1;t;6;9;5
49;53;-1;1;t;6;10;5
50;44;-1;1;t;7;1;5
50;45;-1;1;t;7;2;5
50;46;-1;1;t;7;3;5
50;47;-1;1;t;7;4;5
50;48;-1;1;t;7;5;5
50;49;-1;1;t;7;6;5
50;51;-1;1;t;7;8;5
50;52;-1;1;t;7;9;5
50;53;-1;1;t;7;10;5
51;44;-1;1;t;8;1;5
51;45;-1;1;t;8;2;5
51;46;-1;1;t;8;3;5
51;47;-1;1;t;8;4;5
51;48;-1;1;t;8;5;5
51;49;-1;1;t;8;6;5
51;50;-1;1;t;8;7;5
51;52;-1;1;t;8;9;5
51;53;-1;1;t;8;10;5
52;44;-1;1;t;9;1;5
52;45;-1;1;t;9;2;5
52;46;-1;1;t;9;3;5
52;47;-1;1;t;9;4;5
52;48;-1;1;t;9;5;5
52;49;-1;1;t;9;6;5
52;50;-1;1;t;9;7;5
52;51;-1;1;t;9;8;5
52;53;-1;1;t;9;10;5
53;44;-1;1;t;10;1;5
53;45;-1;1;t;10;2;5
53;46;-1;1;t;10;3;5
53;47;-1;1;t;10;4;5
53;48;-1;1;t;10;5;5
53;49;-1;1;t;10;6;5
53;50;-1;1;t;10;7;5
53;51;-1;1;t;10;8;5
53;52;-1;1;t;10;9;5
