24,17;13,21;16,4;6,5;19,6;4,6;16,16;9,9;35,11;20,16;13,20;16,10;0,14;14,1;43,17;12,8;11,9;0,8;13,6;16,6
1,4;19,16;2,9;38,35;3,4;3,1;7,4;10,2;2,0;2,1;11,9;0,3;9,2;12,1;10,8;13,16;2,0;34,27;22,20;10,20
4,6;5,8;3,4;6,9;3,1;17,13;8,2;8,11;18,28;4,0;5,2;2,4;9,12;13,30;4,2;3,2;21,23;4,8;19,10;26,17
4,5;2,4;4,0;15,12;3,1;22,30;4,13;21,16;6,5;9,11;16,18;16,0;10,14;3,1;15,14;13,13;3,3;17,14;4,23;5,9
13,0;15,0;16,17;22,25;3,0;5,3;2,1;18,27;8,1;4,2;3,6;14,20;4,5;4,4;2,2;7,5;4,1;45,30;3,3;14,6
15,28;6,10;3,8;3,1;0,14;8,1;19,12;5,4;10,7;22,8;10,0;4,16;5,1;7,6;2,7;10,16;10,5;10,18;6,2;3,3
5,2;18,24;3,1;4,0;22,8;7,11;10,12;10,7;2,5;5,24;20,18;4,0;10,1;5,4;2,2;17,22;3,6;4,15;7,11;9,22
6,3;5,5;4,2;13,9;3,13;21,18;13,21;6,10;10,0;24,22;15,16;7,2;8,18;20,22;4,1;14,6;13,8;4,5;3,0;2,1
1,4;10,11;6,6;5,15;12,15;2,7;14,14;4,3;10,16;27,17;5,16;19,10;3,4;16,6;15,3;5,9;6,3;3,5;10,10;9,8
12,2;7,11;12,15;1,1;20,18;24,24;5,3;6,7;11,15;9,15;17,8;3,15;16,4;25,28;0,8;6,1;0,5;1,0;1,3;6,4
20,9;4,0;12,4;14,0;4,4;8,1;4,6;4,5;3,6;22,13;4,1;7,4;11,24;8,4;4,4;8,2;2,1;30,20;12,11;6,4
12,36;2,6;2,8;7,8;2,4;9,9;6,6;6,8;8,2;4,16;4,10;3,8;6,4;2,7;3,6;8,16;13,19;2,0;20,16;4,9
9,17;8,1;6,49;3,28;14,6;12,11;11,2;11,4;3,11;16,4;3,5;14,0;7,0;9,7;8,5;8,5;18,0;12,11;15,2;11,14
6,4;30,16;7,15;8,1;4,0;13,11;2,3;9,16;3,1;3,0;2,6;4,1;9,7;7,0;1,3;3,4;21,36;12,17;20,24;18,14
10,3;6,22;15,20;32,34;7,10;2,7;2,2;5,4;2,7;8,4;3,4;3,5;5,5;1,5;25,13;2,1;11,11;2,1;29,32;9,4
10,2;18,2;7,9;13,0;5,8;7,11;4,3;5,0;14,2;3,6;9,2;13,14;9,11;4,5;8,22;15,12;35,16;5,11;9,9;1,0
13,29;11,19;4,5;12,27;16,11;2,1;2,1;8,1;13,22;14,18;19,19;1,7;3,8;2,1;11,6;4,4;1,12;3,0;4,0;2,5
23,13;2,7;7,4;12,10;6,13;4,0;2,1;11,18;7,8;19,19;8,4;4,2;16,8;4,5;3,5;10,12;14,18;31,8;3,7;10,6
2,4;19,16;25,11;1,0;3,0;16,21;3,6;10,9;3,3;11,9;14,18;0,5;12,20;5,7;21,17;11,5;5,0;3,21;3,3;1,11
5,13;8,6;3,14;12,3;9,4;18,13;4,4;24,19;5,2;15,17;3,6;3,2;5,5;11,12;7,3;26,29;10,8;2,5;5,6;11,5
2,3;14,19;3,8;8,6;0,7;19,18;6,6;1,3;6,2;15,10;6,1;22,24;21,11;8,6;2,1;10,12;0,10;2,0;16,10;15,18
14,14;17,17;4,1;6,22;7,3;16,16;32,12;11,15;3,0;2,1;5,0;5,4;2,12;13,17;17,22;10,14;3,2;4,8;2,8;2,2
12,9;15,7;7,6;33,33;5,9;3,3;24,41;8,9;8,19;3,10;4,15;3,3;5,4;1,0;2,6;5,2;3,2;15,4;28,29;6,9
3,5;14,8;12,8;3,4;25,26;12,7;3,3;19,22;5,4;30,29;20,15;8,10;14,10;3,4;3,0;13,2;12,11;4,10;13,0;4,1
10,7;10,12;4,10;2,3;9,0;8,10;8,2;8,7;13,1;12,17;7,20;9,3;6,9;26,1;17,10;9,19;5,1;2,12;5,11;9,12
2,5;13,10;4,3;7,2;31,10;4,3;4,1;5,1;3,21;10,17;14,17;22,9;2,2;14,6;8,7;3,1;5,4;2,17;2,3;12,9
12,4;2,13;8,2;5,2;16,41;3,2;5,11;7,11;3,2;19,21;6,7;4,12;3,2;4,6;2,0;3,2;20,17;6,3;6,6;14,16
12,14;11,17;10,14;10,10;7,7;23,20;4,7;3,10;1,1;9,12;17,2;3,0;4,3;16,20;7,8;8,8;7,3;3,7;14,14;11,7
4,3;1,5;13,14;16,23;18,4;1,4;6,3;17,13;1,2;2,4;1,0;12,11;29,24;18,21;3,4;12,3;12,23;3,1;10,13;5,13
19,17;28,26;16,18;1,2;5,1;2,0;18,22;4,8;13,4;5,2;4,15;2,7;12,16;6,3;20,8;9,15;3,1;2,1;17,7;2,5
1,8;3,1;22,8;6,4;2,10;9,16;27,10;5,9;26,18;3,8;4,6;14,18;4,4;4,3;4,16;3,5;10,1;2,4;26,21;3,0
3,6;2,7;9,19;10,2;3,0;3,1;11,13;3,0;14,13;4,0;26,16;11,14;8,1;10,1;13,2;22,14;3,16;4,2;4,9;7,1
3,0;13,4;35,30;3,3;3,7;2,2;2,3;2,0;8,16;1,3;4,14;4,5;10,17;6,20;4,6;2,9;0,0;7,5;26,24;2,8
5,2;2,2;4,2;9,8;11,11;14,16;3,6;4,1;18,20;14,1;16,20;12,0;5,3;5,4;14,16;3,9;16,10;7,2;10,19;4,8
4,6;14,13;16,28;4,10;4,6;4,0;6,8;3,6;4,3;10,25;9,2;6,12;13,17;2,3;17,20;18,8;11,12;5,12;3,5;7,7
18,23;4,12;3,3;39,44;18,12;14,3;1,5;7,7;6,8;7,3;15,13;10,16;0,0;15,11;2,3;4,1;4,9;6,3;18,5;12,7
14,3;17,2;5,4;5,7;15,4;8,8;10,7;15,13;6,13;8,4;15,2;11,18;4,16;12,2;8,22;6,12;7,0;6,8;11,15;5,3
1,1;1,14;3,5;10,6;5,7;6,9;22,22;4,5;17,17;23,20;1,10;2,3;6,14;8,8;2,8;19,17;6,8;15,8;3,6;9,9
1,0;1,5;12,25;20,28;7,12;20,17;19,15;9,9;10,0;7,1;11,13;16,10;2,6;2,4;24,16;3,8;1,2;15,20;11,2;6,8
3,3;29,28;8,1;9,3;16,11;4,12;12,15;3,0;18,27;24,38;8,5;6,1;4,1;7,6;17,13;5,1;3,0;2,8;6,9;17,12
23,8;17,12;4,0;13,1;31,31;8,10;4,2;6,2;11,8;4,4;2,4;4,4;5,8;7,8;6,9;24,26;8,0;5,1;7,7;5,0
10,21;2,3;33,32;3,19;12,10;8,6;3,8;3,7;1,1;3,5;5,2;5,9;4,0;20,19;14,9;2,8;1,2;3,5;10,6;3,17
5,6;13,6;2,13;11,9;12,18;2,1;16,16;5,0;3,1;6,3;19,12;11,20;9,6;35,30;6,16;4,0;7,18;14,10;7,5;2,1
3,6;4,10;7,8;14,17;4,2;8,5;2,1;4,1;5,2;9,11;28,42;5,0;8,7;2,11;16,14;3,1;2,2;21,23;14,22;32,19
21,14;1,1;9,2;7,8;14,22;8,9;22,23;7,0;3,8;30,30;13,3;3,3;4,8;20,14;6,1;3,4;4,4;8,5;19,19;2,12
3,7;5,6;15,11;2,1;17,8;7,2;33,30;2,18;8,1;20,6;3,8;3,5;18,22;3,4;3,0;11,10;4,0;5,3;27,18;1,4
2,2;3,8;9,12;14,5;7,5;5,5;3,1;8,4;2,9;10,14;7,10;3,4;4,3;9,1;15,27;5,11;5,9;7,0;21,9;25,16
4,4;5,3;2,1;12,22;3,2;2,4;2,6;0,1;18,22;3,7;26,24;2,2;18,10;28,38;7,5;3,4;4,1;4,19;9,29;3,9
16,7;10,4;4,1;12,22;25,7;10,8;10,2;8,20;12,1;8,8;8,16;3,4;16,7;7,10;6,18;16,6;10,12;19,0;7,16;6,12
9,9;9,1;15,21;1,3;26,25;16,14;19,10;1,1;16,16;26,20;1,5;2,4;5,0;4,0;3,3;3,4;8,2;4,6;11,16;2,4
15,12;6,7;5,3;10,5;6,2;4,21;2,17;9,11;3,3;12,17;18,15;2,1;8,5;19,25;6,1;3,3;1,6;16,19;11,16;8,3
5,8;3,3;11,18;5,4;21,11;26,23;4,0;13,13;0,2;2,7;4,5;8,6;3,2;37,40;13,6;5,3;17,2;4,1;5,6;6,5
9,8;5,2;2,2;4,3;16,41;4,4;8,13;10,10;2,1;28,12;3,1;25,16;3,8;4,2;4,12;5,14;15,19;5,2;7,2;6,4
21,17;5,1;12,4;22,18;18,3;4,1;3,0;7,0;3,3;2,14;18,11;4,16;14,13;6,8;6,7;6,2;11,21;6,11;2,0;6,3
0,4;3,12;2,3;21,33;5,14;20,29;5,5;15,13;8,13;4,2;3,5;21,15;11,17;2,0;2,0;5,1;15,14;5,9;2,6;4,1
43,34;3,1;8,6;20,22;19,18;4,3;5,1;36,27;4,1;4,2;8,3;5,12;2,4;5,3;2,5;6,9;4,8;4,1;8,6;6,20
18,26;6,11;2,3;4,0;8,7;32,22;6,0;10,16;5,1;7,7;3,10;4,1;6,3;11,7;5,6;10,12;8,0;11,9;18,15;12,10
11,3;2,5;5,11;2,3;5,9;11,19;34,47;3,6;2,0;3,9;1,1;19,11;2,5;21,21;2,1;2,3;17,19;14,3;8,16;2,2
2,3;3,0;2,0;6,5;33,32;9,1;22,12;7,7;20,17;16,8;23,18;2,9;15,13;5,14;4,3;1,0;3,7;3,18;7,0;11,1
9,2;5,4;2,5;4,4;2,0;2,12;23,12;3,12;15,23;1,0;7,6;3,2;20,10;6,3;28,18;1,1;2,3;23,15;10,10;2,0
12,10;7,9;7,0;9,3;18,6;14,0;4,21;6,7;12,0;6,5;3,13;5,12;1,3;4,2;3,20;9,7;8,6;3,9;6,3;5,7
16,17;9,3;1,16;4,9;2,13;18,17;2,5;12,18;3,3;1,1;7,5;16,11;8,11;1,6;18,13;2,6;0,0;13,0;3,4;7,18
2,8;4,8;3,5;1,10;3,1;14,15;15,0;18,14;2,6;4,16;2,2;28,16;14,12;2,1;2,7;19,19;3,0;19,25;3,10;18,16
8,11;2,3;5,4;18,8;8,8;5,0;26,30;9,12;11,11;3,4;14,17;4,19;3,10;16,10;5,3;4,9;2,1;17,21;19,13;12,13
3,6;21,22;13,12;7,18;26,11;3,5;3,4;7,10;10,5;3,2;13,3;3,7;8,8;30,34;4,1;24,7;5,0;7,5;2,0;15,12
1,6;1,2;9,4;12,8;5,13;2,8;37,47;1,1;1,6;1,3;7,5;2,2;20,23;1,3;0,2;25,35;11,19;5,3;17,24;14,17
5,4;22,18;25,10;6,5;5,14;13,3;9,4;9,1;6,6;14,7;12,20;29,11;9,1;13,7;5,2;18,26;2,0;20,18;4,6;5,0
5,1;7,10;13,7;1,5;3,1;3,4;9,12;3,4;4,3;30,27;2,4;9,26;36,42;5,0;3,6;15,1;1,4;7,20;1,1;6,2
1,0;5,0;4,32;10,10;14,3;14,12;30,31;5,10;6,2;5,4;10,2;9,7;5,1;10,13;14,17;8,20;5,2;5,3;3,0;17,21
3,3;31,13;9,4;13,8;2,2;6,11;15,2;4,2;2,2;6,3;3,7;10,1;13,16;3,7;3,0;3,2;10,3;42,40;8,9;4,1
15,12;3,20;4,4;1,2;2,15;3,6;7,14;7,0;6,12;1,10;1,3;5,3;1,2;5,1;20,16;4,7;30,33;12,10;3,5;6,8
15,17;8,6;6,8;15,15;3,2;1,3;3,11;6,12;23,13;20,11;17,16;16,29;0,0;4,6;4,9;15,14;3,3;2,5;13,0;9,1
14,19;10,8;2,10;14,6;5,0;8,22;11,4;10,10;11,5;5,19;10,10;7,1;4,1;10,14;17,3;14,4;9,15;0,7;10,14;10,13
8,5;15,9;4,2;8,3;35,35;12,12;39,16;8,6;3,0;2,2;2,1;1,0;10,18;7,30;0,0;1,3;7,11;15,16;5,3;3,8
4,0;9,13;3,8;6,11;5,2;6,0;23,36;4,5;6,13;3,2;19,20;34,36;7,6;2,0;8,5;4,0;9,13;12,3;14,23;2,1
5,10;13,9;9,7;12,11;3,8;4,5;3,5;17,5;34,32;21,10;2,2;15,2;25,21;5,3;3,6;3,11;16,12;3,11;2,3;2,3
6,4;2,9;18,17;2,0;0,1;7,16;1,9;2,15;1,1;4,5;0,0;41,49;15,10;20,12;1,3;3,3;22,13;10,11;6,7;15,4
3,2;7,2;11,20;3,4;6,7;8,1;3,0;5,5;4,6;19,30;7,7;5,7;3,16;9,13;6,2;33,29;2,8;2,2;12,2;41,47
7,9;18,14;11,6;11,9;27,24;5,5;31,26;6,5;5,0;5,4;13,3;4,0;3,2;6,13;10,0;11,12;6,6;4,2;19,30;8,9
12,3;31,35;3,2;3,8;2,0;34,35;21,22;13,6;10,6;3,0;8,12;2,5;2,0;1,0;4,9;6,2;2,3;5,6;9,7;8,12
2,1;28,19;5,8;18,16;4,5;5,3;2,3;13,18;2,12;15,3;12,7;2,1;3,3;11,11;23,15;8,19;12,4;2,2;2,0;4,3
3,6;1,8;14,8;18,11;3,5;13,11;22,28;1,0;15,8;1,12;11,14;8,9;1,4;11,7;2,13;6,1;14,12;6,7;2,7;1,0
2,5;9,7;3,11;2,7;2,3;4,3;0,0;23,16;15,24;10,10;15,10;3,0;15,5;3,1;3,6;9,1;20,15;20,13;4,2;9,6
10,5;2,6;15,1;2,4;6,5;2,11;2,2;3,2;7,0;8,2;7,14;2,5;7,3;7,3;23,23;14,17;15,32;4,4;8,8;1,6
3,28;8,10;9,4;11,14;0,20;0,7;44,2;12,10;5,1;11,5;12,11;4,10;5,12;0,9;7,2;2,6;3,10;4,5;5,2;8,0
9,11;1,0;10,13;19,16;6,11;1,6;16,4;10,0;3,3;7,12;7,9;3,0;1,9;12,17;12,1;14,10;12,7;2,7;18,19;5,0
21,7;4,0;4,4;2,8;12,2;9,7;5,13;3,6;1,5;2,8;4,3;4,7;8,11;3,2;3,4;23,34;13,7;11,19;13,9;10,7
37,47;10,3;3,6;10,0;0,1;21,15;12,14;19,14;3,7;1,4;6,4;2,2;11,7;3,6;4,8;1,2;8,22;2,3;8,8;2,2
17,9;2,13;2,5;4,4;10,16;4,14;4,3;3,5;8,0;19,18;9,12;4,1;4,2;8,9;14,19;25,25;5,4;15,17;6,0;12,20
3,19;17,13;0,3;13,19;4,5;3,2;4,7;40,48;0,1;13,2;3,1;24,20;9,0;0,0;25,27;3,4;3,1;12,2;4,3;16,15
3,1;4,1;26,16;4,8;11,2;11,15;2,1;7,10;7,4;1,12;13,3;4,9;4,18;24,13;7,5;10,12;18,11;21,29;7,17;8,7
19,19;4,1;15,24;16,7;2,8;2,0;0,2;1,1;15,10;3,4;20,29;11,11;11,13;5,14;16,14;19,14;0,4;7,12;22,15;6,10
19,22;10,21;12,0;3,13;4,8;5,1;3,2;7,10;18,29;3,1;4,6;6,3;25,19;7,7;19,16;15,18;7,5;8,1;30,17;7,7
16,10;31,31;5,3;4,5;8,4;18,23;4,5;12,5;19,20;6,2;2,1;17,22;16,22;4,0;4,5;16,13;4,3;4,6;4,16;12,3
8,2;3,1;2,7;4,3;28,13;15,6;1,1;1,5;14,12;4,10;22,17;6,1;25,19;28,29;9,5;7,0;6,1;5,2;4,11;7,15
22,13;23,16;25,24;2,0;2,17;27,16;4,3;5,0;2,0;2,1;1,3;3,1;2,2;11,1;3,10;7,14;9,17;3,8;1,1;6,5
6,46;3,20;46,4;11,13;5,8;0,12;12,0;4,6;5,8;6,7;5,5;13,1;2,4;5,11;8,0;2,5;7,14;6,6;5,7;1,5
5,5;12,11;1,5;8,2;5,3;2,16;11,11;22,10;11,11;3,2;3,8;22,21;14,2;2,14;2,0;9,2;11,6;10,7;12,7;17,7
0,0;0,0;13,12;1,6;13,4;22,16;1,0;2,5;2,2;2,0;6,5;10,17;7,23;4,3;29,44;5,14;10,11;2,2;0,0;21,29
4,2;6,6;9,6;8,8;19,23;14,22;18,10;8,21;15,19;3,5;6,4;4,2;16,1;4,3;20,9;21,20;3,4;6,8;7,6;2,0
8,5;10,3;5,4;15,9;18,16;3,1;2,16;3,3;12,1;5,6;6,10;15,1;4,12;18,9;10,20;3,2;14,11;7,6;4,1;17,20
6,7;4,1;10,21;5,9;15,12;4,2;5,0;3,0;2,8;3,2;8,11;9,18;5,12;18,16;23,11;3,7;14,15;3,5;1,4;15,6
16,10;8,9;7,6;0,1;32,47;5,1;24,28;4,1;12,12;15,15;4,9;17,13;2,1;7,8;1,1;1,3;4,7;2,0;2,5;4,11
4,13;4,4;5,1;14,15;13,8;3,5;25,12;5,4;6,1;3,1;3,2;3,12;7,2;2,12;3,14;3,1;4,2;21,21;12,9;48,44
5,9;3,0;17,19;19,8;10,10;6,6;3,13;2,8;5,10;2,1;15,16;4,4;3,7;20,9;15,17;7,7;6,6;17,14;3,4;21,26
15,10;7,15;9,4;24,12;2,5;1,6;6,5;3,6;18,25;3,2;2,1;20,17;1,2;0,1;30,17;25,15;2,7;8,4;15,11;3,1
2,3;4,8;17,15;27,42;2,2;16,5;5,7;2,2;13,9;4,0;4,1;6,3;9,4;11,20;7,17;5,15;3,4;9,1;6,6;14,13
10,14;3,1;5,8;9,8;22,23;20,30;16,22;3,0;3,3;6,15;9,0;12,14;15,19;6,7;10,11;10,0;7,5;5,15;3,7;3,0
17,0;14,15;14,6;23,4;11,12;3,6;23,1;8,0;4,11;6,0;3,12;11,16;0,8;12,6;5,7;8,9;15,3;0,33;11,13;14,2
1,1;9,11;7,15;2,0;1,11;1,0;10,9;7,9;18,11;3,11;2,5;13,0;2,0;7,2;2,1;48,47;2,2;1,0;21,19;7,17
4,0;10,17;3,1;5,7;13,15;2,3;5,8;18,9;7,3;17,6;7,6;9,16;5,9;15,14;15,16;3,16;5,0;2,7;6,6;20,13
4,7;9,8;18,18;5,13;4,5;11,4;33,36;10,32;24,29;5,10;4,4;6,3;11,16;4,4;2,0;10,17;1,2;4,1;5,5;2,9
4,3;3,7;2,3;0,0;5,1;27,21;3,4;1,0;2,9;32,31;6,1;11,18;3,4;30,18;26,19;33,20;11,11;1,4;16,1;7,10
12,0;2,3;7,7;12,5;11,0;6,11;7,7;2,1;3,1;4,0;2,2;24,24;31,25;4,17;8,16;12,25;10,4;21,22;5,15;2,4
19,18;7,7;3,0;17,24;20,35;8,13;14,13;3,3;4,3;22,15;15,10;3,5;5,3;1,6;3,1;2,3;6,7;9,7;4,2;24,20
5,11;36,26;19,17;5,3;3,0;1,0;21,13;6,6;4,0;9,22;12,20;1,0;15,14;7,6;8,1;5,3;12,10;12,14;4,4;10,5
21,21;5,13;16,18;3,0;21,17;4,4;5,3;22,14;5,11;4,10;2,4;16,0;3,6;9,1;11,15;5,3;10,20;5,1;2,12;6,12
15,20;9,3;21,20;21,17;14,16;4,7;6,4;6,3;2,1;8,4;4,1;15,26;2,0;16,25;17,16;4,1;16,19;1,0;3,0;1,2
15,18;11,4;14,15;3,3;4,7;4,2;10,23;9,16;3,3;30,21;8,2;7,2;5,10;8,2;14,20;5,5;7,8;3,6;20,16;5,4
21,22;8,15;3,3;24,27;5,7;17,11;4,3;8,4;4,7;4,1;13,18;4,4;5,4;4,4;8,1;3,6;8,2;15,9;13,19;16,13
12,2;7,7;13,7;14,2;10,7;9,15;11,4;6,20;12,12;6,10;5,10;4,7;7,0;6,12;18,8;9,10;5,21;13,2;11,0;2,6
14,8;12,11;13,16;3,11;3,9;3,5;12,14;19,22;6,3;2,7;6,4;3,6;4,9;2,0;23,18;1,0;19,17;12,13;2,2;3,0
14,11;24,32;5,1;4,6;7,0;9,17;4,1;4,0;2,8;17,8;19,13;6,6;5,4;4,0;3,0;14,13;7,2;12,6;12,16;3,8
9,15;5,0;2,10;4,1;3,10;5,4;3,0;20,19;2,4;28,26;17,23;8,9;5,5;10,7;7,2;4,0;3,4;3,14;9,12;5,11
1,5;31,33;14,15;12,5;3,0;19,21;2,14;8,5;12,4;7,15;10,0;3,4;7,0;2,9;2,1;15,17;17,13;4,3;5,5;2,2
5,4;1,4;6,3;10,13;3,5;19,9;2,1;6,15;3,0;7,0;2,2;16,3;57,58;7,7;2,6;3,7;10,9;3,8;7,2;2,0
3,1;3,2;7,6;2,9;1,0;4,6;4,1;15,2;2,9;9,18;9,16;10,21;14,9;23,19;13,25;2,7;12,19;2,1;4,1;17,14
4,4;4,4;14,20;3,0;23,18;6,6;3,6;28,23;5,10;3,0;5,2;20,18;14,13;4,4;4,4;8,0;5,2;22,18;7,10;4,9
20,11;4,5;12,2;28,20;4,11;9,3;5,5;4,19;2,3;23,23;2,1;5,2;4,11;2,4;6,7;5,2;7,2;6,15;8,1;15,4
5,18;8,2;11,14;3,1;2,2;14,11;2,2;9,14;5,3;7,2;3,4;6,11;19,14;1,4;13,11;3,11;10,18;18,14;6,16;6,5
9,3;5,8;5,2;5,21;6,0;11,18;13,10;4,0;14,6;3,4;4,2;17,6;7,12;15,12;2,1;6,1;5,2;8,7;28,15;10,11
11,7;15,5;2,1;7,1;10,10;12,10;4,3;1,1;1,4;23,26;9,15;14,25;7,10;3,3;2,3;10,12;2,9;4,7;2,12;2,13
17,22;17,6;7,24;6,8;0,1;7,17;3,0;3,5;10,19;11,15;12,2;5,11;2,2;31,9;10,16;4,2;5,2;7,10;17,15;3,1
4,1;9,8;3,1;17,2;11,11;3,4;2,4;15,3;3,1;13,19;7,15;3,4;4,1;14,12;10,22;9,16;17,14;9,7;29,28;5,16
9,17;2,9;4,4;41,54;3,8;25,24;21,25;4,6;15,9;9,9;2,1;6,3;7,9;0,1;3,3;10,8;7,1;2,3;16,15;3,2
5,2;2,2;12,16;4,0;2,0;7,2;27,15;5,17;3,1;13,4;16,6;16,12;16,10;5,0;14,4;10,0;19,25;4,3;19,17;12,15
3,6;1,0;2,2;2,6;3,4;26,26;0,7;7,0;3,9;30,28;1,2;9,10;5,3;19,15;7,20;19,29;6,5;3,0;2,7;3,1
3,0;11,3;6,5;37,14;2,7;9,1;10,4;7,8;3,10;8,3;3,9;3,5;5,13;6,12;3,0;19,18;13,13;13,0;15,14;4,4
1,3;5,11;1,2;1,18;6,2;2,3;9,14;1,3;2,2;1,1;2,1;3,4;5,3;6,4;9,6;40,37;0,4;8,20;31,33;10,9
8,7;3,7;20,13;15,19;12,3;21,21;7,0;6,2;7,7;5,14;5,10;2,1;6,10;18,18;5,1;6,9;18,17;7,2;2,2;7,3
7,9;11,2;4,7;17,20;12,17;6,20;2,10;6,11;4,6;4,9;1,1;3,8;4,5;15,18;21,20;2,5;18,20;12,22;13,12;4,3
7,7;11,21;4,4;4,1;11,14;12,8;2,0;5,3;13,6;12,0;15,9;18,5;8,0;15,3;3,9;24,19;9,2;9,3;20,27;23,10
4,5;10,10;4,8;4,4;3,9;20,25;2,7;0,1;1,3;2,12;5,2;26,36;12,19;11,26;6,4;7,10;11,19;2,10;13,16;8,16
2,2;36,17;2,1;8,2;19,10;3,0;6,8;7,9;23,22;20,11;14,20;31,17;1,0;18,11;2,6;5,4;3,2;27,23;12,8;3,10
14,3;12,21;14,16;5,16;5,1;15,0;7,3;1,16;12,7;5,17;6,3;12,6;0,7;8,19;14,3;11,0;8,23;9,6;17,0;8,0
2,0;29,42;3,10;14,2;4,4;4,3;14,11;2,0;2,4;4,10;4,10;19,27;8,7;3,5;8,2;4,13;17,14;3,2;7,8;16,14
15,13;4,4;12,8;4,13;16,25;3,3;5,7;4,5;35,18;4,7;1,0;11,7;7,8;3,2;7,1;14,5;31,41;6,5;3,9;3,13
4,3;3,5;3,3;19,15;3,5;12,16;14,11;13,0;17,13;17,15;23,17;2,4;2,2;4,4;8,10;17,10;3,1;6,8;10,2;14,14
32,35;3,1;3,2;13,13;20,7;7,0;3,3;8,18;2,10;3,2;4,12;20,14;5,3;3,0;5,17;5,23;8,7;9,9;1,9;4,5
6,3;5,4;5,11;5,0;15,14;11,9;8,8;14,4;6,6;20,18;6,2;11,20;17,12;6,9;29,21;4,1;7,6;2,1;9,5;4,2
8,8;16,17;2,0;11,21;2,5;7,2;14,10;5,10;17,28;4,14;15,17;2,5;1,5;15,1;6,9;13,2;4,7;7,2;0,3;7,6
1,8;29,15;18,12;2,0;13,20;36,37;12,16;3,1;2,0;4,9;1,0;1,1;9,10;2,16;2,7;4,14;8,8;4,0;14,10;7,7
31,20;35,37;11,8;4,0;3,2;1,4;6,0;12,17;7,5;5,0;14,13;3,1;6,5;5,3;6,8;3,7;14,16;10,13;12,18;3,0
2,4;6,9;12,11;4,5;12,2;9,15;4,6;16,17;8,1;3,8;20,15;13,16;2,2;26,7;10,2;9,7;5,3;9,15;4,2;3,5
2,4;2,6;2,1;1,8;10,10;3,9;7,8;7,10;5,17;20,19;2,10;19,1;7,10;21,29;10,14;20,20;7,7;4,5;1,0;2,0
12,16;30,13;2,13;24,12;5,18;27,18;9,9;4,0;8,0;4,0;8,5;2,11;12,8;18,16;11,15;3,3;1,1;3,1;2,2;3,3
2,2;2,16;7,1;1,19;14,4;12,13;8,7;7,16;6,4;8,2;31,3;5,4;1,19;7,5;9,7;7,17;14,9;8,6;6,0;9,7
7,7;7,19;12,12;19,25;5,8;4,6;11,20;12,12;7,5;3,0;1,3;13,10;10,11;13,19;5,6;1,5;3,0;7,1;17,22;4,4
6,2;21,17;2,3;5,6;9,4;2,4;3,2;16,1;3,9;13,14;14,9;3,10;8,6;5,4;11,7;7,6;19,17;8,2;21,21;19,16
18,17;10,14;3,1;2,1;5,4;7,3;23,13;1,9;3,3;1,0;21,14;12,8;2,0;13,21;2,8;8,5;4,0;2,10;13,10;10,21
11,15;5,2;3,1;3,0;7,3;37,46;3,9;3,2;4,0;2,12;2,6;4,5;6,10;2,1;10,8;11,4;15,15;3,10;21,20;10,0
3,10;4,4;4,4;7,11;13,15;13,2;3,10;2,5;14,15;9,4;5,12;32,34;27,25;5,6;0,2;3,15;3,10;3,2;17,13;2,5
13,6;4,6;2,7;26,10;8,5;10,18;3,0;5,4;6,9;16,13;29,28;6,2;17,17;11,4;13,10;8,2;3,4;10,5;4,9;10,5
11,4;3,0;18,19;11,19;7,19;20,22;9,11;13,9;3,3;17,22;1,0;1,3;3,5;3,7;11,2;5,2;10,4;2,5;13,6;3,15
10,13;5,12;2,2;19,20;25,23;2,4;2,1;15,21;11,13;1,1;15,15;1,10;1,0;34,26;18,13;3,1;1,0;6,7;2,2;4,1
3,13;4,2;3,3;25,9;3,2;5,7;7,6;5,10;4,0;7,4;45,45;3,3;5,2;13,25;8,11;16,16;3,12;4,6;3,10;19,9
4,2;3,3;5,3;18,44;7,5;16,12;4,4;6,6;10,12;22,28;2,3;4,3;19,23;3,2;4,18;12,23;4,1;21,10;4,8;27,32
4,3;10,4;22,12;34,28;21,12;1,5;17,17;5,4;8,6;7,4;7,0;8,8;39,25;8,1;19,12;8,1;3,1;10,21;3,1;8,8
18,4;4,7;13,18;6,17;10,5;5,8;0,9;7,22;4,8;3,0;12,14;12,6;6,7;10,5;8,17;13,4;11,5;16,13;9,2;6,3
12,20;11,4;0,0;1,0;22,15;0,9;0,1;29,29;37,23;0,6;11,12;2,4;9,9;3,0;1,0;1,0;1,2;25,36;1,6;8,0
12,10;10,10;8,5;2,1;29,28;7,9;3,3;6,6;8,18;7,0;18,12;4,3;6,15;25,35;1,0;11,18;6,1;4,3;4,1;5,9
13,16;9,15;2,0;12,5;5,22;6,4;3,2;22,20;9,15;5,0;2,3;4,7;27,15;4,5;12,5;20,19;10,9;4,0;14,17;4,17
3,1;19,16;2,2;5,1;10,7;10,10;8,0;3,5;15,11;15,12;24,19;4,2;11,23;6,7;23,9;3,6;21,10;1,4;1,1;12,4
3,2;20,17;8,7;1,10;5,4;4,2;4,7;7,9;16,14;8,15;5,13;4,1;2,1;3,2;3,25;8,8;14,33;16,14;3,1;16,19
3,2;4,7;5,9;14,2;1,7;1,3;16,7;12,13;5,5;10,10;4,5;28,18;21,14;3,4;28,15;13,7;4,6;4,13;17,15;11,5
2,4;1,2;8,5;5,13;17,10;29,19;10,16;16,16;3,1;1,2;3,5;5,17;9,15;2,0;20,13;1,7;8,0;25,11;2,2;0,3
3,5;4,7;6,7;11,9;4,9;19,19;18,23;5,3;2,10;3,7;6,1;4,2;19,12;6,6;6,26;3,6;19,14;12,7;9,12;2,9
12,13;28,32;19,19;3,13;19,16;1,14;2,0;10,10;14,7;10,13;0,6;2,6;16,23;17,18;16,17;10,8;2,8;7,10;3,0;3,3
3,1;24,18;38,42;4,4;9,0;5,4;16,11;36,26;14,13;2,2;15,1;1,1;1,5;2,3;19,9;11,11;10,8;3,21;7,1;16,3
21,5;9,3;3,0;10,2;7,10;18,13;3,9;4,4;5,12;5,3;10,20;3,1;12,1;6,1;19,15;3,2;9,16;3,2;15,5;19,28
0,14;8,12;3,1;6,27;5,8;0,7;4,7;2,4;3,1;6,15;2,11;13,10;8,14;0,9;59,11;7,1;11,0;9,0;5,20;1,6
1,2;10,6;18,9;0,0;50,44;8,10;4,1;10,21;5,0;5,2;3,5;5,23;13,10;3,0;6,11;20,18;11,25;4,4;1,1;1,6
7,4;12,2;5,2;7,3;16,20;22,10;3,4;6,4;3,6;6,1;17,19;6,0;10,13;16,19;14,13;23,18;10,4;6,8;4,3;5,5
4,1;16,16;5,14;3,1;5,6;10,12;10,11;3,4;9,2;3,7;6,8;15,20;6,4;8,1;4,16;16,22;2,12;8,10;8,7;17,15
20,30;11,27;21,7;35,35;13,10;6,5;3,2;4,2;2,0;9,10;2,4;12,8;23,24;3,4;3,4;2,6;11,10;2,0;4,6;3,1
9,5;3,1;18,39;4,2;8,14;5,7;23,9;9,1;4,7;18,15;2,0;1,1;2,3;12,10;17,8;4,3;12,9;5,1;21,17;18,18
28,27;2,1;4,3;13,12;2,3;3,8;14,15;5,6;26,26;6,6;4,2;3,8;13,10;3,5;5,16;2,2;6,10;6,4;7,6;18,13
3,6;31,15;3,2;18,19;2,1;20,14;7,14;4,6;10,7;27,14;3,5;13,8;6,1;5,0;4,1;4,0;3,2;6,3;3,3;11,15
15,18;5,17;11,0;7,6;6,8;3,13;3,11;0,8;16,25;11,21;5,7;6,3;2,2;4,5;13,4;10,1;2,2;6,1;3,7;8,3
4,2;3,3;1,14;31,38;24,8;2,0;6,4;4,4;3,1;2,12;26,9;12,15;9,5;2,2;10,17;2,9;5,4;3,1;11,5;2,2
3,1;19,10;5,1;15,7;3,18;22,16;2,2;11,8;9,6;4,4;10,6;7,8;9,12;9,20;4,2;6,7;3,3;3,21;5,7;6,15
1,5;7,13;3,1;4,10;15,4;10,18;3,0;4,2;10,5;5,2;12,25;12,1;20,10;10,0;3,0;14,23;12,14;9,9;2,4;18,10
8,4;13,19;6,15;5,19;1,5;4,3;8,3;6,10;13,1;11,9;11,6;5,16;5,14;2,0;6,2;7,0;5,3;1,9;3,8;36,8
28,15;5,20;2,5;6,1;14,25;12,1;7,1;4,1;2,13;2,0;14,17;3,6;2,5;11,24;2,2;7,3;23,24;2,0;1,2;7,9
16,27;4,1;7,10;16,16;2,1;32,31;4,12;3,13;12,10;26,15;2,2;4,0;9,7;9,5;2,2;3,4;5,8;12,11;3,3;3,7
11,12;10,12;11,7;18,18;1,0;13,17;3,9;2,4;3,1;4,10;2,3;4,8;32,32;9,0;16,12;2,7;19,22;3,0;5,5;17,17
3,2;3,5;1,5;7,12;7,3;3,6;19,14;13,1;11,3;13,13;14,13;19,12;2,3;4,12;1,6;3,0;28,35;8,3;15,8;22,24
2,3;9,2;19,1;2,1;3,3;2,5;33,23;19,22;13,18;13,11;5,6;3,2;15,16;1,2;15,14;2,3;1,1;9,11;8,3;6,9
3,1;12,4;5,11;2,4;12,3;10,6;6,13;18,16;5,6;4,6;4,5;7,0;2,3;13,3;4,12;11,11;4,1;5,9;20,14;9,7
8,5;17,26;3,9;2,2;8,20;7,12;9,7;1,7;10,3;1,8;1,1;3,3;4,2;6,14;12,2;12,7;5,3;22,11;2,12;2,3
20,26;6,7;3,5;10,11;15,2;11,18;3,11;2,4;2,14;12,11;1,1;29,38;3,4;5,8;19,23;3,11;4,5;3,9;3,6;3,0
4,4;2,7;3,2;6,4;3,3;14,1;25,20;16,18;9,8;3,1;21,9;2,8;5,6;4,4;31,33;32,20;10,8;4,6;15,14;5,9
2,2;26,20;3,3;22,10;3,4;4,9;20,9;14,10;3,2;3,1;3,3;23,21;3,1;3,0;11,10;5,15;7,10;3,4;27,14;0,1
2,3;6,9;5,2;8,13;3,0;2,4;2,13;3,8;10,9;3,1;30,38;12,4;4,6;8,8;27,32;4,3;2,2;3,11;2,14;13,13
8,9;14,11;26,21;7,22;2,12;8,1;13,10;11,2;3,6;14,15;11,3;9,1;9,3;8,8;3,3;9,4;3,1;9,18;10,1;16,1
0,3;5,18;3,5;15,7;1,5;15,14;2,5;7,8;2,0;4,1;12,9;5,4;15,12;4,4;2,2;15,16;9,5;1,4;13,13;22,25
28,16;6,10;2,3;8,11;18,18;2,11;16,4;7,7;11,15;7,4;11,5;5,7;12,9;5,2;2,4;3,2;2,3;10,12;3,12;2,5
3,18;20,10;3,2;16,19;4,11;6,11;3,16;18,14;8,1;12,8;5,14;2,10;4,5;3,5;11,10;9,10;6,5;3,10;2,2;22,12
18,13;5,11;3,6;15,11;2,0;6,2;18,18;16,21;2,5;10,15;4,5;5,2;2,4;22,26;3,1;14,5;6,10;12,11;18,20;12,12
13,8;6,9;6,1;3,8;8,3;15,14;7,1;21,16;6,10;4,3;10,5;4,4;24,32;11,3;11,11;5,5;14,10;3,5;12,5;15,26
8,18;8,14;3,0;8,7;2,5;3,4;17,23;9,4;4,1;15,17;8,12;2,1;3,5;23,31;11,2;10,12;2,6;29,13;4,2;10,0
4,4;5,0;2,0;25,14;13,6;10,8;17,12;3,13;16,2;2,6;16,10;6,0;12,2;3,0;27,24;7,14;3,1;1,9;3,3;2,1
3,5;0,3;3,12;2,0;9,20;3,5;3,7;19,9;0,2;22,16;0,5;3,2;2,5;1,4;5,16;4,3;8,14;15,13;19,25;8,0
27,22;2,0;2,3;4,3;11,3;1,0;5,1;3,4;8,21;2,0;2,3;3,15;10,11;2,2;13,14;17,16;9,12;32,34;8,1;5,23
7,3;20,23;4,2;2,10;13,17;29,18;29,16;3,8;4,6;3,3;2,0;7,3;9,2;5,1;5,4;5,7;5,5;18,26;1,10;17,15
21,30;3,0;3,2;3,3;4,3;5,16;41,50;2,3;1,1;10,3;10,10;12,0;9,19;6,10;16,20;3,2;8,8;13,16;8,8;1,0
3,3;2,12;3,2;10,27;0,2;6,19;5,6;7,6;7,3;11,24;22,7;7,25;10,1;3,8;6,10;9,5;60,1;9,4;8,27;16,9
3,1;4,1;9,3;3,9;9,6;5,3;7,8;3,5;2,10;4,0;9,4;27,29;28,21;15,7;3,0;20,22;5,3;18,16;20,18;7,2
10,7;18,26;21,20;2,9;15,25;3,2;2,0;4,2;14,1;14,14;10,22;4,1;6,12;7,2;10,8;3,5;14,19;2,4;5,5;4,3
2,7;8,1;4,1;10,12;12,1;12,1;2,0;3,0;5,1;12,11;8,7;20,14;20,21;13,24;4,1;20,8;4,8;15,17;8,5;5,13
4,3;16,10;16,25;2,1;3,13;20,16;11,17;9,4;14,9;9,8;2,3;2,1;5,6;3,5;1,3;19,35;4,4;3,1;2,1;8,3
15,2;7,17;4,1;27,21;6,2;4,16;5,0;5,10;11,11;7,5;4,4;25,10;3,9;4,1;5,1;10,9;15,12;2,1;4,7;5,4
6,8;4,6;19,13;6,3;6,1;2,5;4,7;11,1;14,17;5,13;1,1;1,25;17,13;7,4;3,3;10,11;10,11;11,5;4,8;2,6
15,27;8,5;11,14;15,20;8,7;0,4;11,16;11,13;6,14;15,8;7,7;4,3;3,5;5,0;15,14;3,0;2,1;1,1;16,13;5,3
5,5;0,5;10,21;9,2;10,18;9,9;2,2;1,14;7,9;26,19;4,5;3,2;9,9;3,2;8,9;12,4;2,5;2,2;48,46;5,9
5,5;2,2;6,5;21,26;3,1;7,3;3,3;30,33;9,16;16,20;13,11;3,7;12,11;1,2;15,24;5,11;3,2;26,23;5,2;12,8
21,17;31,12;8,0;19,12;3,2;15,5;15,17;2,2;5,6;19,12;2,4;14,10;4,4;14,22;8,4;1,4;15,11;14,25;3,0;2,5
31,32;2,12;13,20;8,15;10,14;19,21;3,1;11,8;2,2;3,17;6,1;12,16;5,2;7,6;13,17;9,5;4,5;3,2;8,15;5,2
16,2;2,3;7,12;10,3;8,11;8,10;10,14;12,4;32,21;16,10;7,12;14,2;17,12;15,16;6,5;5,24;7,10;9,1;6,5;6,34
14,1;4,10;14,8;13,19;11,22;4,3;21,17;1,1;1,1;8,5;18,8;14,3;4,0;25,12;2,1;16,3;15,6;15,10;4,1;7,8
1,19;14,1;2,11;5,6;15,14;4,13;8,14;4,5;2,2;11,18;11,22;3,7;13,17;6,12;19,16;7,12;4,13;2,11;6,0;2,5
20,13;5,2;3,3;1,1;2,3;4,0;18,18;19,16;5,2;2,1;9,14;3,5;44,39;18,7;1,0;12,13;17,11;20,14;0,3;15,0
8,3;7,18;2,6;28,30;4,2;2,0;7,5;4,4;4,7;39,39;5,1;9,10;5,9;4,20;9,6;6,3;6,11;4,10;6,14;6,5
10,22;12,6;25,17;3,3;3,4;19,9;4,2;24,18;4,0;5,4;2,0;5,2;40,39;16,15;3,7;5,11;8,4;6,0;5,2;4,14
5,1;2,2;17,23;4,4;6,3;14,21;2,7;10,13;7,0;16,16;14,23;4,9;6,2;9,2;14,15;4,4;8,13;19,20;10,2;8,1
19,9;9,11;3,3;5,4;8,7;31,40;3,1;3,6;3,6;12,13;18,13;5,3;5,7;3,13;15,9;5,1;11,3;17,19;4,19;2,10
16,19;3,8;6,4;3,0;15,15;18,11;15,12;24,10;5,7;3,2;6,7;0,3;5,0;4,4;15,13;3,3;20,15;2,5;32,25;2,7
4,13;2,6;34,29;1,0;15,13;4,11;3,1;24,30;10,3;21,16;4,2;16,14;1,4;15,4;3,10;1,1;5,15;3,2;4,10;0,0
4,1;4,3;31,39;4,6;10,3;8,1;9,13;1,3;17,22;3,9;12,7;42,44;15,18;2,6;4,1;5,12;4,6;3,2;3,2;3,2
28,25;5,3;4,2;2,0;6,17;27,17;11,6;27,13;8,11;10,10;5,2;11,8;5,6;8,7;5,6;17,13;6,5;6,4;3,0;6,1
