18,0;13,14;11,0;27,6;19,3;14,5;13,6;19,44;20,16;16,12;0,3;14,5;11,6;32,3;25,4;0,4;10,4;8,12;1,7;29,8
1,3;4,0;6,6;10,1;6,5;4,9;2,2;2,0;9,7;15,16;16,2;1,2;13,13;19,15;16,25;6,8;6,13;9,2;2,0;15,19
4,9;6,7;2,2;16,17;8,11;3,7;11,13;6,14;1,5;2,5;4,11;5,4;6,5;9,8;9,11;4,3;2,0;20,25;5,0;25,14
3,1;4,0;6,6;5,15;4,10;14,14;6,8;4,7;8,7;4,2;20,22;3,6;21,8;17,20;13,4;3,1;22,24;4,4;4,11;6,16
49,44;7,0;7,3;8,5;0,0;2,2;2,7;2,3;28,13;3,4;3,9;30,31;8,12;2,1;1,10;15,8;2,0;0,10;15,2;2,0
3,12;2,15;4,8;4,2;3,1;4,1;3,4;3,3;15,27;6,5;21,22;4,3;8,4;21,28;18,11;8,3;2,2;0,2;30,34;5,11
42,37;3,7;15,9;3,9;3,8;2,2;16,5;1,3;12,15;3,1;26,13;4,3;3,13;7,1;6,6;10,9;17,2;1,1;9,3;15,9
4,2;10,7;12,19;16,7;1,0;2,4;12,14;2,2;7,10;19,23;2,14;2,5;7,6;11,18;18,10;4,10;0,3;7,3;3,3;17,14
6,9;19,16;8,4;5,2;8,8;14,1;3,11;2,2;16,16;1,2;13,13;7,8;3,6;12,20;12,12;5,5;17,22;4,4;13,22;6,18
2,3;3,0;13,19;14,16;34,27;9,18;7,8;7,0;13,5;9,5;20,7;11,4;6,4;2,3;10,16;13,9;7,10;3,2;2,2;16,14
6,0;5,15;10,4;4,12;8,16;3,3;1,1;12,0;6,11;4,5;22,8;11,2;16,14;10,5;13,9;2,8;9,11;25,28;3,5;2,2
2,9;2,2;14,21;4,4;0,0;3,6;13,11;42,61;19,20;4,6;0,12;1,5;1,3;3,7;4,14;7,1;24,27;7,3;3,5;6,7
8,2;15,0;25,3;11,5;8,2;16,5;18,7;6,1;2,0;13,5;14,23;13,31;5,21;3,6;7,11;10,14;21,2;14,20;1,8;14,17
8,11;14,20;4,1;10,12;8,10;3,1;32,18;2,7;5,7;18,2;4,11;14,11;2,1;17,4;5,18;22,8;2,14;2,6;8,5;3,12
45,27;1,1;11,6;1,1;2,1;1,2;6,18;10,5;3,9;2,12;26,25;3,3;2,5;8,17;2,2;3,22;33,6;1,0;12,19;7,5
4,15;10,3;42,42;25,19;4,10;5,7;4,3;5,3;16,10;2,6;3,1;4,8;12,2;16,12;3,4;5,5;12,34;5,8;7,6;2,3
5,12;34,38;5,11;6,2;5,0;5,6;5,0;21,14;7,11;8,1;10,8;6,4;8,5;8,2;3,2;9,4;12,9;13,7;7,6;24,13
4,2;7,2;3,6;2,6;8,8;3,4;2,9;19,27;2,1;13,13;1,0;14,5;10,11;2,12;6,1;14,13;3,5;1,5;17,9;24,23
2,6;3,6;16,6;16,19;2,5;16,6;2,2;3,1;8,7;16,13;19,10;3,7;4,17;1,3;16,14;8,1;2,5;16,12;7,19;2,0
6,4;7,12;2,14;10,12;24,18;2,1;1,0;3,7;3,6;12,17;20,35;11,8;19,9;8,3;1,4;9,20;5,10;5,13;9,3;2,4
2,4;2,2;0,0;15,0;2,1;15,14;7,5;7,9;8,7;15,16;7,3;3,0;15,15;15,17;21,19;4,1;10,2;3,3;20,22;29,27
9,6;18,18;7,7;2,13;5,9;5,3;17,18;5,5;13,5;5,10;6,7;10,23;12,10;5,2;13,15;6,7;7,7;5,2;5,10;12,20
3,1;1,2;3,3;25,12;12,13;17,29;2,1;3,3;3,10;5,4;4,0;12,14;38,49;11,11;4,8;2,3;19,15;18,9;9,9;6,2
17,17;35,17;17,5;19,37;1,2;19,13;4,8;4,5;9,4;2,3;1,6;3,0;3,2;6,0;5,3;19,12;8,17;14,15;2,0;10,6
