1;0
2;0
3;148
4;-18
5;1
6;-11
7;-21
8;-16
9;-9
10;-7
11;25
12;-4
13;-4
14;3
15;-9
16;-5
17;-29
18;-21
19;4
20;-6
21;4
22;6
23;-21
24;2
25;-4
26;0
27;-9
28;-1
29;5
30;0
31;-2
32;-2
33;1
34;-14
35;1
36;0
37;-4
38;9
39;2
40;7
41;-7
42;-2
43;4
44;5
45;1
46;0
47;1
48;3
49;4
50;2
51;8
52;4
53;3
54;7
55;-1
56;-1
57;-1
58;2
59;-1
60;-2
61;5
62;-5
63;-11
64;-2
65;-4
66;0
67;10
68;6
69;0
70;2
71;3
72;-1
73;-2
74;2
75;3
76;-13
77;3
78;-9
79;-2
80;2
81;0
82;7
83;10
84;-5
85;-7
86;-4
87;-3
88;0
89;0
90;5
91;1
92;-15
93;1
94;6
95;1
96;4
97;-1
98;9
99;-7
100;-2
101;10
102;-13
103;-2
104;9
105;13
106;4
107;-2
108;-2
109;-3
110;1
111;0
112;12
113;-1
114;1
115;-1
116;-4
117;7
118;-7
119;-5
120;0
121;2
122;4
123;6
124;-5
125;4
126;-6
127;6
128;5
129;0
130;-11
131;2
132;3
133;-2
134;-13
135;-1
136;10
137;-6
138;0
139;-1
140;-15
141;0
142;-6
143;-6
144;-2
145;-3
146;7
147;-9
148;-1
149;2
150;2
151;0
152;3
153;4
154;12
155;3
156;-1
157;7
158;-8
159;6
160;3
161;-4
162;0
163;-3
164;3
165;-3
166;-4
167;-3
168;0
169;-13
170;8
171;0
172;0
173;1
174;0
175;1
176;3
177;8
178;0
179;0
180;5
181;0
182;9
183;12
184;1
185;-3
186;6
187;2
188;-7
189;9
190;1
191;-7
192;-8
193;-4
194;-13
195;-7
196;-2
197;1
198;6
199;-4
200;3
201;-1
202;0
203;-2
204;-6
205;10
206;-6
207;8
208;8
209;0
210;0
211;-12
212;5
213;1
214;-14
215;-9
216;-2
217;-5
218;-4
219;6
220;2
221;3
222;2
223;0
224;7
225;0
226;7
227;0
228;0
229;3
230;-2
231;19
232;1
233;2
234;12
235;4
236;2
237;4
238;10
239;-6
240;3
241;-4
242;2
243;1
244;-6
245;-15
246;-22
247;-6
248;-6
249;-11
250;-11
251;-5
252;-2
253;-8
254;9
255;18
256;16
257;3
258;4
259;4
260;-19
261;6
262;7
263;3
264;3
265;6
266;-3
267;2
268;2
269;-2
270;-14
271;5
272;2
273;-16
274;7
275;-3
276;-1
277;-13
278;13
279;-14
280;12
281;4
282;-3
283;9
284;-18
285;0
286;-5
287;0
288;-1
289;1
290;12
291;-5
292;6
293;10
294;-1
295;0
296;3
297;9
298;0
299;19
300;-27
301;-1
302;7
303;-2
304;11
305;-7
306;0
307;-6
308;6
309;2
310;-1
311;-2
312;-6
313;4
314;-2
315;4
316;-10
317;-4
318;1
319;0
320;22
321;3
322;-1
323;1
324;7
325;4
326;6
327;-4
328;-5
329;1
330;-5
331;-7
332;4
333;-7
334;-2
335;-2
336;-3
337;-6
338;-1
339;-5
340;-3
341;-6
342;-1
343;-11
344;-2
345;-5
346;3
347;4
348;0
349;1
350;7
351;8
352;-1
353;0
354;-1
355;-9
356;1
357;10
358;-5
359;-1
360;2
361;4
362;-8
363;-1
364;4
365;3
366;-10
367;3
368;3
369;-10
370;0
371;-2
372;-1
373;-3
374;-9
375;4
376;13
377;2
378;-2
379;-7
380;3
381;-4
382;12
383;-2
384;-2
385;5
386;12
387;2
388;-6
389;-1
390;-1
391;4
392;3
393;5
394;15
395;-3
396;-10
397;-5
398;3
399;11
400;5
401;8
402;-6
403;2
404;2
405;0
406;0
407;-15
408;-1
409;-1
410;-2
411;2
412;-1
413;1
414;-4
415;-3
416;0
417;2
418;-2
419;-3
420;-8
421;0
422;2
423;-2
424;-3
425;0
426;0
427;11
428;4
429;-2
430;1
431;0
432;-8
433;5
434;1
435;13
436;-2
437;-3
438;2
439;1
440;0
441;-3
442;5
443;8
444;-2
445;1
446;0
447;-13
448;1
449;12
450;-1
451;0
452;7
453;-1
454;-4
455;2
456;11
457;0
458;4
459;1
460;-4
461;-9
462;0
463;-4
464;0
465;-18
466;-12
467;18
468;1
469;-6
470;4
471;1
472;-5
473;1
474;5
475;-3
476;-1
477;-6
478;-2
479;-7
480;9
481;1
482;-2
483;-4
484;-2
485;16
486;-4
487;-1
488;-4
489;-6
490;-4
491;-9
492;6
493;2
494;1
495;5
496;14
497;4
498;-23
499;-4
500;-9
501;11
502;-7
503;14
504;0
505;-2
506;9
507;0
508;-13
509;4
510;-2
511;8
512;4
513;-2
514;2
515;-6
516;-3
517;-2
518;-4
519;-14
520;-8
521;-13
522;1
523;-7
524;5
525;2
526;-6
527;-1
528;-3
529;-1
530;4
531;4
532;5
533;0
534;-2
535;8
536;6
537;-4
538;4
539;14
540;15
541;12
542;-2
543;-1
544;-13
545;0
546;14
547;0
548;-6
549;-1
550;-9
551;1
552;-1
553;-10
554;-13
555;-3
556;1
557;13
558;-1
559;-3
560;-2
561;-1
562;7
563;-3
564;7
565;1
566;-15
567;-1
568;23
569;2
570;2
571;0
572;-8
573;10
574;8
575;-1
576;0
577;-9
578;5
579;-1
580;1
581;-13
582;1
583;13
584;-1
585;-2
586;7
587;-3
588;-10
589;-5
590;2
591;-4
592;8
593;2
594;-6
595;0
596;-3
597;7
598;-2
599;13
600;2
601;4
602;-1
603;-1
604;-3
605;2
606;3
607;2
608;4
609;7
610;10
611;-8
612;-10
613;0
614;14
615;-5
616;2
617;3
618;2
619;2
620;1
621;11
622;0
623;3
624;8
625;0
626;-6
627;-1
628;6
629;-5
630;-5
631;11
632;8
633;1
634;-3
635;6
636;-5
637;-1
638;-4
639;-1
640;-1
641;-2
642;0
643;0
644;2
645;-3
646;-5
647;6
648;-6
649;1
650;-1
651;-3
652;-3
653;-8
654;-4
655;-6
656;-3
657;-3
658;-1
659;-7
660;-7
661;-5
662;-7
663;-5
664;-1
665;-7
666;7
667;-2
668;8
669;-3
670;1
671;-9
672;7
673;5
674;2
675;-3
676;10
677;-3
678;-2
679;2
680;-2
681;2
682;1
683;-3
684;-7
685;6
686;3
687;0
688;-8
689;-11
690;-3
691;7
692;0
693;-2
694;-2
695;4
696;-3
697;-11
698;-7
699;0
700;5
701;2
702;6
703;6
704;3
705;-5
706;5
707;-6
708;8
709;20
710;2
711;-3
712;-3
713;1
714;0
715;-5
716;-10
717;15
718;8
719;-1
720;-1
721;-1
722;1
723;3
724;1
725;3
726;-3
727;0
728;3
729;7
730;16
731;-6
732;-12
733;-66
734;-3
735;1
736;34
737;5
738;-6
739;-1
740;2
741;1
742;-6
743;-1
744;5
745;2
746;1
747;6
748;1
749;-3
750;3
751;-1
752;7
753;1
754;4
755;-6
756;-11
757;-8
758;3
759;-3
760;1
761;3
762;6
763;-1
764;-7
765;-1
766;-16
767;-1
768;-6
769;10
770;4
771;3
772;-2
773;4
774;-18
775;1
776;13
777;-4
778;-2
779;-1
780;0
781;-1
782;-10
783;4
784;-4
785;6
786;-9
787;5
788;0
789;-1
790;1
791;2
792;2
793;1
794;12
795;2
796;1
797;13
798;2
799;5
800;6
801;-1
802;9
803;-1
804;6
805;-12
806;4
807;0
808;0
809;-1
810;-4
811;8
812;-8
813;-3
814;-7
815;1
816;-9
817;0
818;5
819;9
820;1
821;-5
822;-4
823;1
824;5
825;1
826;13
827;-7
828;7
829;-6
830;-8
831;-7
832;1
833;4
834;2
835;-3
836;5
837;-4
838;1
839;-3
840;-1
841;8
842;1
843;-6
844;1
845;0
846;4
847;6
848;-1
849;-22
850;9
851;4
852;-1
853;-8
854;-3
855;-1
856;3
857;1
858;-2
859;3
860;-3
861;0
862;12
863;-2
864;-7
865;6
866;0
867;2
868;-2
869;28
870;0
871;-13
872;5
873;-6
874;15
875;5
876;1
877;-3
878;-2
879;-3
880;7
881;-11
882;-2
883;7
884;-1
885;4
886;2
887;-3
888;-1
889;-1
890;1
891;8
892;2
893;4
894;-1
895;0
896;0
897;5
898;0
899;-8
900;-11
901;2
902;1
903;-13
904;5
905;-10
906;1
907;3
908;-4
909;-1
910;-1
911;1
912;-5
913;-8
914;-5
915;-1
916;-7
917;-1
918;-7
919;-4
920;11
921;9
922;-10
923;10
924;-11
925;11
926;1
927;-2
928;-5
929;-2
930;2
931;-3
932;5
933;12
934;1
935;1
936;-4
937;2
938;0
939;7
940;-12
941;0
942;8
943;3
944;4
945;-1
946;-8
947;-2
948;7
949;6
950;-6
951;1
952;-10
953;-2
954;0
955;-5
956;0
957;-4
958;-2
959;6
960;7
961;-4
962;-2
963;-14
