1;0
2;0
3;-50
4;50
5;12
6;-1
7;-11
8;22
9;-4
10;-18
11;16
12;-1
13;-15
14;12
15;-1
16;-11
17;15
18;4
19;-19
20;17
21;-1
22;-16
23;21
24;-5
25;-16
26;9
27;-1
28;-8
29;16
30;1
31;-17
32;18
33;6
34;-24
35;7
36;-2
37;-5
38;16
39;-2
40;-14
41;7
42;-2
43;-5
44;16
45;-4
46;-12
47;20
48;1
49;-21
50;12
51;-2
52;-10
53;12
54;-2
55;-10
56;14
57;2
58;-16
59;9
60;5
61;-14
62;11
63;9
64;-20
65;16
66;-1
67;-15
68;16
69;-1
70;-15
71;16
72;-9
73;-7
74;17
75;-8
76;-9
